<?xml version="1.0" encoding="iso-8859-1"?>
<!-- Generator: Adobe Illustrator 19.0.0, SVG Export Plug-In . SVG Version: 6.00 Build 0)  -->
<svg version="1.1" id="Capa_1" xmlns="http://www.w3.org/2000/svg" xmlns:xlink="http://www.w3.org/1999/xlink" x="0px" y="0px"
	 viewBox="0 0 512 512" style="enable-background:new 0 0 57 57;" xml:space="preserve">
<g>
	<path d="M247.0175438596491,77.12336842105263l0.3143859649122807,154.28266666666664l-74.48252631578947-67.28757894736842l-12.045473684210526,13.329964912280701l82.23438596491226,74.2938947368421l-82.84519298245614,74.02442105263157l11.973614035087719,13.401824561403508l75.18315789473684-67.17978947368421L247.0175438596491,436.81684210526316
		l93.03129824561402-104.6635789473684l-74.05136842105263-78.03957894736843l74.1861052631579-83.82428070175439L247.0175438596491,77.12336842105263z M315.52673684210527,171.04392982456142l-50.32870175438596,56.8679298245614L264.98245614035085,120.49066666666666L315.52673684210527,171.04392982456142z M264.98245614035085,389.5691228070175
		l0.21557894736842104-110.20575438596491l50.46343859649123,53.18512280701754L264.98245614035085,389.5691228070175z"/>
	</g>
<g>
</g>
<g>
</g>
<g>
</g>
<g>
</g>
<g>
</g>
<g>
</g>
<g>
</g>
<g>
</g>
<g>
</g>
<g>
</g>
<g>
</g>
<g>
</g>
<g>
</g>
<g>
</g>
<g>
</g>
</svg>
