<?xml version="1.0" encoding="iso-8859-1"?>
<!-- Generator: Adobe Illustrator 19.0.0, SVG Export Plug-In . SVG Version: 6.00 Build 0)  -->
<svg version="1.1" id="Capa_1" xmlns="http://www.w3.org/2000/svg" xmlns:xlink="http://www.w3.org/1999/xlink" x="0px" y="0px"
	 viewBox="0 0 512 512" style="enable-background:new 0 0 60 60;" xml:space="preserve">
<g>
	<path d="M362.97386666666665,34.13333333333333H307.2V0.0H204.8v34.13333333333333h-55.77386666666666C132.72746666666666,34.13333333333333,119.46666666666667,47.394133333333336,119.46666666666667,63.692800000000005v418.7477333333334C119.46666666666667,498.7392,132.72746666666666,512.0,149.02613333333332,512.0h213.9392
		C379.2725333333333,512.0,392.5333333333333,498.7392,392.5333333333333,482.44053333333335V63.692800000000005C392.5333333333333,47.394133333333336,379.2725333333333,34.13333333333333,362.97386666666665,34.13333333333333z M221.86666666666667,17.066666666666666h68.26666666666667v17.066666666666666h-68.26666666666667V17.066666666666666z M375.46666666666664,102.4v51.2v51.2v51.2v51.2v51.2v51.2v51.2v21.640533333333334
		C375.46666666666664,489.33546666666666,369.8602666666667,494.93333333333334,362.97386666666665,494.93333333333334H341.3333333333333h-51.2h-51.2h-51.2h-38.70719999999999c-2.5856,0.0-4.992-0.7936-6.9887999999999995-2.1418666666666666C143.85493333333335,491.2213333333333,145.06666666666666,488.9856,145.06666666666666,486.4
		c0.0-4.7104-3.8229333333333333-8.533333333333333-8.533333333333333-8.533333333333333v-34.13333333333333c4.7104,0.0,8.533333333333333-3.8229333333333333,8.533333333333333-8.533333333333333s-3.8229333333333333-8.533333333333333-8.533333333333333-8.533333333333333v-34.13333333333333c4.7104,0.0,8.533333333333333-3.8229333333333333,8.533333333333333-8.533333333333333s-3.8229333333333333-8.533333333333333-8.533333333333333-8.533333333333333v-34.13333333333333c4.7104,0.0,8.533333333333333-3.8229333333333333,8.533333333333333-8.533333333333333
		s-3.8229333333333333-8.533333333333333-8.533333333333333-8.533333333333333v-34.13333333333333c4.7104,0.0,8.533333333333333-3.8229333333333333,8.533333333333333-8.533333333333333s-3.8229333333333333-8.533333333333333-8.533333333333333-8.533333333333333v-34.13333333333333c4.7104,0.0,8.533333333333333-3.8229333333333333,8.533333333333333-8.533333333333333s-3.8229333333333333-8.533333333333333-8.533333333333333-8.533333333333333v-34.13333333333333c4.7104,0.0,8.533333333333333-3.8229333333333333,8.533333333333333-8.533333333333333s-3.8229333333333333-8.533333333333333-8.533333333333333-8.533333333333333v-34.13333333333333
		c4.7104,0.0,8.533333333333333-3.8229333333333333,8.533333333333333-8.533333333333333s-3.8229333333333333-8.533333333333333-8.533333333333333-8.533333333333333v-34.13333333333333c4.7104,0.0,8.533333333333333-3.8229333333333333,8.533333333333333-8.533333333333333s-3.8229333333333333-8.533333333333333-8.533333333333333-8.533333333333333V63.692800000000005C136.53333333333333,56.797866666666664,142.13973333333334,51.2,149.02613333333332,51.2H153.6c0.0,4.7104,3.8229333333333333,8.533333333333333,8.533333333333333,8.533333333333333
		s8.533333333333333-3.8229333333333333,8.533333333333333-8.533333333333333h34.13333333333333c0.0,4.7104,3.8229333333333333,8.533333333333333,8.533333333333333,8.533333333333333s8.533333333333333-3.8229333333333333,8.533333333333333-8.533333333333333h34.13333333333333c0.0,4.7104,3.8229333333333333,8.533333333333333,8.533333333333333,8.533333333333333s8.533333333333333-3.8229333333333333,8.533333333333333-8.533333333333333h34.13333333333333c0.0,4.7104,3.8229333333333333,8.533333333333333,8.533333333333333,8.533333333333333s8.533333333333333-3.8229333333333333,8.533333333333333-8.533333333333333h34.13333333333333
		c0.0,4.7104,3.8229333333333333,8.533333333333333,8.533333333333333,8.533333333333333c2.5856,0.0,4.829866666666666-1.211733333333333,6.391466666666666-3.029333333333333C374.6730666666666,58.700799999999994,375.46666666666664,61.1072,375.46666666666664,63.692800000000005V102.4z"/>
	<circle cx="162.13333333333333" cy="102.4" r="8.533333333333333"/>
	<circle cx="187.73333333333332" cy="76.8" r="8.533333333333333"/>
	<circle cx="187.73333333333332" cy="128.0" r="8.533333333333333"/>
	<circle cx="213.33333333333334" cy="102.4" r="8.533333333333333"/>
	<circle cx="264.5333333333333" cy="102.4" r="8.533333333333333"/>
	<circle cx="238.93333333333334" cy="76.8" r="8.533333333333333"/>
	<circle cx="290.1333333333333" cy="76.8" r="8.533333333333333"/>
	<circle cx="238.93333333333334" cy="128.0" r="8.533333333333333"/>
	<circle cx="290.1333333333333" cy="128.0" r="8.533333333333333"/>
	<circle cx="315.73333333333335" cy="102.4" r="8.533333333333333"/>
	<circle cx="366.93333333333334" cy="102.4" r="8.533333333333333"/>
	<circle cx="341.3333333333333" cy="76.8" r="8.533333333333333"/>
	<circle cx="341.3333333333333" cy="128.0" r="8.533333333333333"/>
	<circle cx="162.13333333333333" cy="153.6" r="8.533333333333333"/>
	<circle cx="162.13333333333333" cy="204.8" r="8.533333333333333"/>
	<circle cx="187.73333333333332" cy="179.2" r="8.533333333333333"/>
	<circle cx="187.73333333333332" cy="230.4" r="8.533333333333333"/>
	<circle cx="213.33333333333334" cy="153.6" r="8.533333333333333"/>
	<circle cx="264.5333333333333" cy="153.6" r="8.533333333333333"/>
	<circle cx="213.33333333333334" cy="204.8" r="8.533333333333333"/>
	<circle cx="264.5333333333333" cy="204.8" r="8.533333333333333"/>
	<circle cx="238.93333333333334" cy="179.2" r="8.533333333333333"/>
	<circle cx="290.1333333333333" cy="179.2" r="8.533333333333333"/>
	<circle cx="238.93333333333334" cy="230.4" r="8.533333333333333"/>
	<circle cx="290.1333333333333" cy="230.4" r="8.533333333333333"/>
	<circle cx="315.73333333333335" cy="153.6" r="8.533333333333333"/>
	<circle cx="366.93333333333334" cy="153.6" r="8.533333333333333"/>
	<circle cx="315.73333333333335" cy="204.8" r="8.533333333333333"/>
	<circle cx="366.93333333333334" cy="204.8" r="8.533333333333333"/>
	<circle cx="341.3333333333333" cy="179.2" r="8.533333333333333"/>
	<circle cx="341.3333333333333" cy="230.4" r="8.533333333333333"/>
	<circle cx="162.13333333333333" cy="256.0" r="8.533333333333333"/>
	<circle cx="162.13333333333333" cy="307.2" r="8.533333333333333"/>
	<circle cx="187.73333333333332" cy="281.6" r="8.533333333333333"/>
	<circle cx="187.73333333333332" cy="332.8" r="8.533333333333333"/>
	<circle cx="213.33333333333334" cy="256.0" r="8.533333333333333"/>
	<circle cx="264.5333333333333" cy="256.0" r="8.533333333333333"/>
	<circle cx="213.33333333333334" cy="307.2" r="8.533333333333333"/>
	<circle cx="264.5333333333333" cy="307.2" r="8.533333333333333"/>
	<circle cx="238.93333333333334" cy="281.6" r="8.533333333333333"/>
	<circle cx="290.1333333333333" cy="281.6" r="8.533333333333333"/>
	<circle cx="238.93333333333334" cy="332.8" r="8.533333333333333"/>
	<circle cx="290.1333333333333" cy="332.8" r="8.533333333333333"/>
	<circle cx="315.73333333333335" cy="256.0" r="8.533333333333333"/>
	<circle cx="366.93333333333334" cy="256.0" r="8.533333333333333"/>
	<circle cx="315.73333333333335" cy="307.2" r="8.533333333333333"/>
	<circle cx="366.93333333333334" cy="307.2" r="8.533333333333333"/>
	<circle cx="341.3333333333333" cy="281.6" r="8.533333333333333"/>
	<circle cx="341.3333333333333" cy="332.8" r="8.533333333333333"/>
	<circle cx="162.13333333333333" cy="358.4" r="8.533333333333333"/>
	<circle cx="162.13333333333333" cy="409.6" r="8.533333333333333"/>
	<circle cx="187.73333333333332" cy="384.0" r="8.533333333333333"/>
	<circle cx="187.73333333333332" cy="435.2" r="8.533333333333333"/>
	<circle cx="213.33333333333334" cy="358.4" r="8.533333333333333"/>
	<circle cx="264.5333333333333" cy="358.4" r="8.533333333333333"/>
	<circle cx="213.33333333333334" cy="409.6" r="8.533333333333333"/>
	<circle cx="264.5333333333333" cy="409.6" r="8.533333333333333"/>
	<circle cx="238.93333333333334" cy="384.0" r="8.533333333333333"/>
	<circle cx="290.1333333333333" cy="384.0" r="8.533333333333333"/>
	<circle cx="238.93333333333334" cy="435.2" r="8.533333333333333"/>
	<circle cx="290.1333333333333" cy="435.2" r="8.533333333333333"/>
	<circle cx="315.73333333333335" cy="358.4" r="8.533333333333333"/>
	<circle cx="366.93333333333334" cy="358.4" r="8.533333333333333"/>
	<circle cx="315.73333333333335" cy="409.6" r="8.533333333333333"/>
	<circle cx="366.93333333333334" cy="409.6" r="8.533333333333333"/>
	<circle cx="341.3333333333333" cy="384.0" r="8.533333333333333"/>
	<circle cx="341.3333333333333" cy="435.2" r="8.533333333333333"/>
	<circle cx="162.13333333333333" cy="460.8" r="8.533333333333333"/>
	<circle cx="187.73333333333332" cy="486.4" r="8.533333333333333"/>
	<circle cx="213.33333333333334" cy="460.8" r="8.533333333333333"/>
	<circle cx="264.5333333333333" cy="460.8" r="8.533333333333333"/>
	<circle cx="238.93333333333334" cy="486.4" r="8.533333333333333"/>
	<circle cx="290.1333333333333" cy="486.4" r="8.533333333333333"/>
	<circle cx="315.73333333333335" cy="460.8" r="8.533333333333333"/>
	<circle cx="366.93333333333334" cy="460.8" r="8.533333333333333"/>
	<circle cx="341.3333333333333" cy="486.4" r="8.533333333333333"/>
</g>
<g>
</g>
<g>
</g>
<g>
</g>
<g>
</g>
<g>
</g>
<g>
</g>
<g>
</g>
<g>
</g>
<g>
</g>
<g>
</g>
<g>
</g>
<g>
</g>
<g>
</g>
<g>
</g>
<g>
</g>
</svg>
