<?xml version="1.0" encoding="iso-8859-1"?>
<!-- Generator: Adobe Illustrator 19.0.0, SVG Export Plug-In . SVG Version: 6.00 Build 0)  -->
<svg version="1.1" id="Capa_1" xmlns="http://www.w3.org/2000/svg" xmlns:xlink="http://www.w3.org/1999/xlink" x="0px" y="0px"
	 viewBox="0 0 512 512" style="enable-background:new 0 0 60 60;" xml:space="preserve">
<path d="M362.97386666666665,34.13333333333333H307.2V0.0H204.8v34.13333333333333h-55.77386666666666C132.72746666666666,34.13333333333333,119.46666666666667,47.394133333333336,119.46666666666667,63.692800000000005v418.7477333333334C119.46666666666667,498.7392,132.72746666666666,512.0,149.02613333333332,512.0h213.94773333333333
	C379.2725333333333,512.0,392.5333333333333,498.7392,392.5333333333333,482.44053333333335V63.692800000000005C392.5333333333333,47.394133333333336,379.2725333333333,34.13333333333333,362.97386666666665,34.13333333333333z M136.53333333333333,162.13333333333333h238.93333333333334v102.4H136.53333333333333V162.13333333333333z M136.53333333333333,281.6h238.93333333333334v102.4H136.53333333333333V281.6z M221.86666666666667,17.066666666666666h68.26666666666667v17.066666666666666h-68.26666666666667V17.066666666666666z
	 M149.02613333333332,51.2H204.8h102.4h55.77386666666666C369.8688,51.2,375.46666666666664,56.797866666666664,375.46666666666664,63.692800000000005V145.06666666666666H136.53333333333333V63.692800000000005C136.53333333333333,56.797866666666664,142.13119999999998,51.2,149.02613333333332,51.2z M362.97386666666665,494.93333333333334H149.02613333333332
	C142.13119999999998,494.93333333333334,136.53333333333333,489.33546666666666,136.53333333333333,482.44053333333335V401.06666666666666h238.93333333333334v81.37386666666666C375.46666666666664,489.33546666666666,369.8688,494.93333333333334,362.97386666666665,494.93333333333334z"/>
<g>
</g>
<g>
</g>
<g>
</g>
<g>
</g>
<g>
</g>
<g>
</g>
<g>
</g>
<g>
</g>
<g>
</g>
<g>
</g>
<g>
</g>
<g>
</g>
<g>
</g>
<g>
</g>
<g>
</g>
</svg>
