<?xml version="1.0" encoding="iso-8859-1"?>
<!-- Generator: Adobe Illustrator 19.0.0, SVG Export Plug-In . SVG Version: 6.00 Build 0)  -->
<svg version="1.1" id="Capa_1" xmlns="http://www.w3.org/2000/svg" xmlns:xlink="http://www.w3.org/1999/xlink" x="0px" y="0px"
	 viewBox="0 0 512 512" style="enable-background:new 0 0 60 60;" xml:space="preserve">
<g>
	<path d="M303.24053333333336,34.13333333333333H247.46666666666667V0.0H145.06666666666666v34.13333333333333h-55.77386666666666C72.99413333333334,34.13333333333333,59.733333333333334,47.394133333333336,59.733333333333334,63.692800000000005v418.7392C59.733333333333334,498.73066666666665,72.99413333333334,512.0,89.2928,512.0h213.94773333333333
		C319.5392,512.0,332.8,498.73066666666665,332.8,482.43199999999996V325.93919999999997L317.0474666666667,298.6666666666667L332.8,271.39413333333334V63.692800000000005C332.8,47.394133333333336,319.5392,34.13333333333333,303.24053333333336,34.13333333333333z M162.13333333333333,17.066666666666666h68.26666666666667v17.066666666666666h-68.26666666666667V17.066666666666666z M315.73333333333335,266.8288
		L302.2762666666667,290.1333333333333h-17.143466666666665L264.5333333333333,269.53386666666665V247.46666666666667c0.0-4.718933333333334-3.8144-8.533333333333333-8.533333333333333-8.533333333333333s-8.533333333333333,3.8144-8.533333333333333,8.533333333333333v17.066666666666666h-17.066666666666666c-4.718933333333334,0.0-8.533333333333333,3.8144-8.533333333333333,8.533333333333333s3.8144,8.533333333333333,8.533333333333333,8.533333333333333h22.0672l18.389333333333333,18.389333333333333
		L251.17013333333333,332.8H238.93333333333334c-4.718933333333334,0.0-8.533333333333333,3.8144-8.533333333333333,8.533333333333333s3.8144,8.533333333333333,8.533333333333333,8.533333333333333h8.533333333333333v8.533333333333333c0.0,4.718933333333334,3.8144,8.533333333333333,8.533333333333333,8.533333333333333s8.533333333333333-3.8144,8.533333333333333-8.533333333333333v-14.702933333333334L286.42986666666667,307.2h15.8464L315.73333333333335,330.50453333333337V349.8666666666667v51.2v51.2
		v30.165333333333333C315.73333333333335,489.32693333333333,310.1354666666667,494.93333333333334,303.24053333333336,494.93333333333334H89.2928c-5.546666666666667,0.0-10.197333333333333-3.6522666666666663-11.8272-8.669866666666667C81.85173333333334,485.9136,85.33333333333333,482.34666666666664,85.33333333333333,477.8666666666667c0.0-4.7104-3.8229333333333333-8.533333333333333-8.533333333333333-8.533333333333333
		v-34.13333333333333c4.7104,0.0,8.533333333333333-3.8229333333333333,8.533333333333333-8.533333333333333s-3.8229333333333333-8.533333333333333-8.533333333333333-8.533333333333333v-34.13333333333333c4.7104,0.0,8.533333333333333-3.8229333333333333,8.533333333333333-8.533333333333333s-3.8229333333333333-8.533333333333333-8.533333333333333-8.533333333333333v-34.13333333333333c4.7104,0.0,8.533333333333333-3.8229333333333333,8.533333333333333-8.533333333333333s-3.8229333333333333-8.533333333333333-8.533333333333333-8.533333333333333v-34.13333333333333
		c4.7104,0.0,8.533333333333333-3.8229333333333333,8.533333333333333-8.533333333333333s-3.8229333333333333-8.533333333333333-8.533333333333333-8.533333333333333v-34.13333333333333c4.7104,0.0,8.533333333333333-3.8229333333333333,8.533333333333333-8.533333333333333s-3.8229333333333333-8.533333333333333-8.533333333333333-8.533333333333333v-34.13333333333333c4.7104,0.0,8.533333333333333-3.8229333333333333,8.533333333333333-8.533333333333333s-3.8229333333333333-8.533333333333333-8.533333333333333-8.533333333333333V63.692800000000005
		C76.8,56.797866666666664,82.39786666666667,51.2,89.2928,51.2H145.06666666666666h102.4h55.77386666666666C310.1354666666667,51.2,315.73333333333335,56.797866666666664,315.73333333333335,63.692800000000005V266.8288z"/>
	<circle cx="102.4" cy="196.26666666666665" r="8.533333333333333"/>
	<circle cx="128.0" cy="170.66666666666666" r="8.533333333333333"/>
	<circle cx="128.0" cy="221.86666666666667" r="8.533333333333333"/>
	<circle cx="153.6" cy="196.26666666666665" r="8.533333333333333"/>
	<circle cx="179.2" cy="221.86666666666667" r="8.533333333333333"/>
	<circle cx="102.4" cy="247.46666666666667" r="8.533333333333333"/>
	<circle cx="102.4" cy="298.6666666666667" r="8.533333333333333"/>
	<circle cx="128.0" cy="273.06666666666666" r="8.533333333333333"/>
	<circle cx="128.0" cy="324.26666666666665" r="8.533333333333333"/>
	<circle cx="153.6" cy="247.46666666666667" r="8.533333333333333"/>
	<circle cx="153.6" cy="298.6666666666667" r="8.533333333333333"/>
	<circle cx="204.8" cy="298.6666666666667" r="8.533333333333333"/>
	<circle cx="179.2" cy="273.06666666666666" r="8.533333333333333"/>
	<circle cx="358.4" cy="315.73333333333335" r="8.533333333333333"/>
	<circle cx="375.46666666666664" cy="375.46666666666664" r="8.533333333333333"/>
	<circle cx="375.46666666666664" cy="341.3333333333333" r="8.533333333333333"/>
	<circle cx="392.5333333333333" cy="401.06666666666666" r="8.533333333333333"/>
	<circle cx="401.06666666666666" cy="426.6666666666667" r="8.533333333333333"/>
	<circle cx="426.6666666666667" cy="460.8" r="8.533333333333333"/>
	<circle cx="409.6" cy="375.46666666666664" r="8.533333333333333"/>
	<circle cx="409.6" cy="341.3333333333333" r="8.533333333333333"/>
	<circle cx="426.6666666666667" cy="409.6" r="8.533333333333333"/>
	<circle cx="401.06666666666666" cy="460.8" r="8.533333333333333"/>
	<circle cx="443.73333333333335" cy="435.2" r="8.533333333333333"/>
	<circle cx="435.2" cy="494.93333333333334" r="8.533333333333333"/>
	<circle cx="179.2" cy="324.26666666666665" r="8.533333333333333"/>
	<circle cx="102.4" cy="349.8666666666667" r="8.533333333333333"/>
	<circle cx="102.4" cy="401.06666666666666" r="8.533333333333333"/>
	<circle cx="128.0" cy="375.46666666666664" r="8.533333333333333"/>
	<circle cx="128.0" cy="426.6666666666667" r="8.533333333333333"/>
	<circle cx="153.6" cy="349.8666666666667" r="8.533333333333333"/>
	<circle cx="204.8" cy="349.8666666666667" r="8.533333333333333"/>
	<circle cx="153.6" cy="401.06666666666666" r="8.533333333333333"/>
	<circle cx="204.8" cy="401.06666666666666" r="8.533333333333333"/>
	<circle cx="179.2" cy="375.46666666666664" r="8.533333333333333"/>
	<circle cx="230.4" cy="375.46666666666664" r="8.533333333333333"/>
	<circle cx="179.2" cy="426.6666666666667" r="8.533333333333333"/>
	<circle cx="230.4" cy="426.6666666666667" r="8.533333333333333"/>
	<circle cx="307.2" cy="349.8666666666667" r="8.533333333333333"/>
	<circle cx="256.0" cy="401.06666666666666" r="8.533333333333333"/>
	<circle cx="307.2" cy="401.06666666666666" r="8.533333333333333"/>
	<circle cx="281.6" cy="375.46666666666664" r="8.533333333333333"/>
	<circle cx="281.6" cy="426.6666666666667" r="8.533333333333333"/>
	<circle cx="102.4" cy="452.26666666666665" r="8.533333333333333"/>
	<circle cx="128.0" cy="477.8666666666667" r="8.533333333333333"/>
	<circle cx="153.6" cy="452.26666666666665" r="8.533333333333333"/>
	<circle cx="204.8" cy="452.26666666666665" r="8.533333333333333"/>
	<circle cx="179.2" cy="477.8666666666667" r="8.533333333333333"/>
	<circle cx="230.4" cy="477.8666666666667" r="8.533333333333333"/>
	<circle cx="256.0" cy="452.26666666666665" r="8.533333333333333"/>
	<circle cx="307.2" cy="452.26666666666665" r="8.533333333333333"/>
	<circle cx="281.6" cy="477.8666666666667" r="8.533333333333333"/>
</g>
<g>
</g>
<g>
</g>
<g>
</g>
<g>
</g>
<g>
</g>
<g>
</g>
<g>
</g>
<g>
</g>
<g>
</g>
<g>
</g>
<g>
</g>
<g>
</g>
<g>
</g>
<g>
</g>
<g>
</g>
</svg>
