<?xml version="1.0" encoding="iso-8859-1"?>
<!-- Generator: Adobe Illustrator 19.0.0, SVG Export Plug-In . SVG Version: 6.00 Build 0)  -->
<svg version="1.1" id="Capa_1" xmlns="http://www.w3.org/2000/svg" xmlns:xlink="http://www.w3.org/1999/xlink" x="0px" y="0px"
	 viewBox="0 0 512 512" style="enable-background:new 0 0 59 59;" xml:space="preserve">
<g>
	<path d="M121.49152542372882,60.74576271186441c0.0-33.48827118644068-27.257491525423728-60.74576271186441-60.74576271186441-60.74576271186441S0.0,27.257491525423728,0.0,60.74576271186441v390.50847457627117h0.026033898305084745C0.026033898305084745,451.42779661016954,0.0,451.6013559322034,0.0,451.7749152542373C0.0,484.98549152542375,27.01450847457627,512.0,60.225084745762715,512.0H512.0V60.74576271186441H121.49152542372882z M17.35593220338983,60.74576271186441
		c0.0-21.009355932203388,15.0215593220339-38.5648813559322,34.88542372881356-42.530711864406776C52.69261016949152,22.588745762711866,56.25925423728813,26.033898305084747,60.74576271186441,26.033898305084747s8.053152542372882-3.4451525423728815,8.504406779661016-7.818847457627119C89.11403389830508,22.180881355932204,104.13559322033899,39.73640677966102,104.13559322033899,60.74576271186441v348.02983050847456
		C93.10589830508474,397.511593220339,77.72854237288136,390.50847457627117,60.74576271186441,390.50847457627117c-2.108745762711864,0.0-4.182779661016949,0.1128135593220339-6.239457627118644,0.32108474576271184c-0.919864406779661,0.09545762711864406-1.8223728813559321,0.2776949152542373-2.7335593220338983,0.4165423728813559
		c-1.1107796610169491,0.16488135593220338-2.2302372881355934,0.29505084745762716-3.3236610169491527,0.5206779661016949c-1.1975593220338985,0.24298305084745764-2.351728813559322,0.5901016949152543-3.514576271186441,0.9025084745762711C44.17084745762712,392.8775593220339,43.389830508474574,393.03376271186437,42.63484745762712,393.2680677966101
		c-1.449220338983051,0.4599322033898305-2.855050847457627,1.0066440677966102-4.260881355932203,1.5707118644067797c-0.42522033898305084,0.17355932203389832-0.8764745762711865,0.3037288135593221-1.3016949152542372,0.4859661016949153c-1.7269152542372883,0.7289491525423729-3.4017627118644067,1.5620338983050848-5.05057627118644,2.447186440677966
		c-0.06942372881355932,0.03471186440677966-0.14752542372881358,0.06942372881355932-0.2169491525423729,0.10413559322033898C26.459118644067797,400.7831864406779,21.582101694915256,404.4626440677966,17.35593220338983,408.775593220339V60.74576271186441z M494.64406779661016,494.64406779661016H60.225084745762715C36.58630508474577,494.64406779661016,17.35593220338983,475.4136949152542,17.35593220338983,451.2542372881356
		c0.0-23.92515254237288,19.464677966101693-43.389830508474574,43.389830508474574-43.389830508474574s43.389830508474574,19.464677966101693,43.389830508474574,43.389830508474574h17.35593220338983V78.10169491525424h373.1525423728813V494.64406779661016z"/>
	<path d="M399.33396610169495,182.24596610169493c1.527322033898305,1.0673898305084746,3.2715932203389833,1.5880677966101695,4.998508474576271,1.5880677966101695c2.7248813559322036,0.0,5.406372881355932-1.2756610169491525,7.09857627118644-3.670779661016949c2.7595932203389832-3.9137627118644067,1.831050847457627-9.328813559322034-2.0827118644067797-12.105762711864408
		l-14.179796610169491-10.005694915254237c-3.9311186440677965-2.750915254237288-9.328813559322034-1.8223728813559321-12.105762711864408,2.0827118644067797c-2.7595932203389832,3.9137627118644067-1.831050847457627,9.328813559322034,2.0827118644067797,12.105762711864408L399.33396610169495,182.24596610169493z"/>
	<path d="M441.8820338983051,212.27172881355932c1.51864406779661,1.0673898305084746,3.262915254237288,1.5880677966101695,4.989830508474576,1.5880677966101695c2.7248813559322036,0.0,5.406372881355932-1.2756610169491525,7.09857627118644-3.679457627118644c2.7595932203389832-3.9137627118644067,1.8223728813559321-9.328813559322034-2.0913898305084744-12.09708474576271
		l-14.188474576271187-10.005694915254237c-3.9137627118644067-2.750915254237288-9.32013559322034-1.8223728813559321-12.09708474576271,2.0913898305084744c-2.7595932203389832,3.9137627118644067-1.8223728813559321,9.328813559322034,2.0913898305084744,12.09708474576271L441.8820338983051,212.27172881355932z"/>
	<path d="M321.08474576271186,355.79661016949154c0.0,4.798915254237288,3.879050847457627,8.677966101694915,8.677966101694915,8.677966101694915h17.35593220338983c4.798915254237288,0.0,8.677966101694915-3.879050847457627,8.677966101694915-8.677966101694915s-3.879050847457627-8.677966101694915-8.677966101694915-8.677966101694915h-17.35593220338983C324.96379661016954,347.1186440677966,321.08474576271186,350.99769491525427,321.08474576271186,355.79661016949154z"/>
	<path d="M442.5762711864407,237.62874576271184v17.35593220338983c0.0,4.798915254237288,3.879050847457627,8.677966101694915,8.677966101694915,8.677966101694915s8.677966101694915-3.879050847457627,8.677966101694915-8.677966101694915v-17.35593220338983c0.0-4.798915254237288-3.879050847457627-8.677966101694915-8.677966101694915-8.677966101694915S442.5762711864407,232.82983050847457,442.5762711864407,237.62874576271184z"/>
	<path d="M356.79457627118643,152.22020338983052c1.527322033898305,1.0673898305084746,3.2715932203389833,1.5880677966101695,4.998508474576271,1.5880677966101695c2.7248813559322036,0.0,5.406372881355932-1.2756610169491525,7.09857627118644-3.670779661016949c2.7595932203389832-3.9137627118644067,1.831050847457627-9.328813559322034-2.0827118644067797-12.105762711864408
		l-14.179796610169491-10.005694915254237c-3.9311186440677965-2.750915254237288-9.328813559322034-1.8223728813559321-12.105762711864408,2.0827118644067797c-2.7595932203389832,3.9137627118644067-1.831050847457627,9.328813559322034,2.0827118644067797,12.105762711864408L356.79457627118643,152.22020338983052z"/>
	<path d="M373.1525423728813,355.79661016949154c0.0,4.798915254237288,3.879050847457627,8.677966101694915,8.677966101694915,8.677966101694915h17.35593220338983c4.798915254237288,0.0,8.677966101694915-3.879050847457627,8.677966101694915-8.677966101694915s-3.879050847457627-8.677966101694915-8.677966101694915-8.677966101694915h-17.35593220338983C377.031593220339,347.1186440677966,373.1525423728813,350.99769491525427,373.1525423728813,355.79661016949154z"/>
	<path d="M251.66101694915255,355.79661016949154c0.0-4.798915254237288-3.879050847457627-8.677966101694915-8.677966101694915-8.677966101694915h-17.35593220338983c-4.798915254237288,0.0-8.677966101694915,3.879050847457627-8.677966101694915,8.677966101694915s3.879050847457627,8.677966101694915,8.677966101694915,8.677966101694915h17.35593220338983C247.78196610169493,364.47457627118644,251.66101694915255,360.5955254237288,251.66101694915255,355.79661016949154z"/>
	<path d="M451.2542372881356,315.7304406779661c4.798915254237288,0.0,8.677966101694915-3.879050847457627,8.677966101694915-8.677966101694915v-17.35593220338983c0.0-4.798915254237288-3.879050847457627-8.677966101694915-8.677966101694915-8.677966101694915s-8.677966101694915,3.879050847457627-8.677966101694915,8.677966101694915v17.35593220338983C442.5762711864407,311.8513898305085,446.4553220338983,315.7304406779661,451.2542372881356,315.7304406779661z"/>
	<path d="M314.25518644067796,122.1944406779661c1.527322033898305,1.0673898305084746,3.2715932203389833,1.5880677966101695,4.998508474576271,1.5880677966101695c2.7248813559322036,0.0,5.406372881355932-1.2756610169491525,7.09857627118644-3.670779661016949c2.7595932203389832-3.9137627118644067,1.831050847457627-9.328813559322034-2.0827118644067797-12.105762711864408
		l-14.179796610169491-10.005694915254237c-3.9311186440677965-2.7422372881355934-9.328813559322034-1.8136949152542372-12.105762711864408,2.0827118644067797c-2.7595932203389832,3.9137627118644067-1.831050847457627,9.328813559322034,2.0827118644067797,12.105762711864408L314.25518644067796,122.1944406779661z"/>
	<path d="M442.5762711864407,347.1186440677966h-8.677966101694915c-4.798915254237288,0.0-8.677966101694915,3.879050847457627-8.677966101694915,8.677966101694915s3.879050847457627,8.677966101694915,8.677966101694915,8.677966101694915h26.033898305084747v-22.710237288135595c0.0-4.798915254237288-3.879050847457627-8.677966101694915-8.677966101694915-8.677966101694915s-8.677966101694915,3.879050847457627-8.677966101694915,8.677966101694915V347.1186440677966z"/>
	<path d="M173.5593220338983,364.47457627118644h17.35593220338983c4.798915254237288,0.0,8.677966101694915-3.879050847457627,8.677966101694915-8.677966101694915s-3.879050847457627-8.677966101694915-8.677966101694915-8.677966101694915h-17.35593220338983c-4.798915254237288,0.0-8.677966101694915,3.879050847457627-8.677966101694915,8.677966101694915S168.760406779661,364.47457627118644,173.5593220338983,364.47457627118644z"/>
	<path d="M156.20338983050848,242.98305084745763c4.798915254237288,0.0,8.677966101694915-3.879050847457627,8.677966101694915-8.677966101694915v-17.35593220338983c0.0-4.798915254237288-3.879050847457627-8.677966101694915-8.677966101694915-8.677966101694915s-8.677966101694915,3.879050847457627-8.677966101694915,8.677966101694915v17.35593220338983C147.52542372881356,239.104,151.40447457627118,242.98305084745763,156.20338983050848,242.98305084745763z"/>
	<path d="M177.48176271186443,201.93627118644068c1.7269152542372883,0.0,3.4711864406779664-0.5206779661016949,4.998508474576271-1.5880677966101695l14.179796610169491-10.005694915254237c3.9137627118644067-2.768271186440678,4.850983050847458-8.183322033898305,2.0827118644067797-12.105762711864408
		c-2.7595932203389832-3.905084745762712-8.165966101694915-4.842305084745763-12.105762711864408-2.0827118644067797l-14.179796610169491,10.005694915254237c-3.9137627118644067,2.768271186440678-4.850983050847458,8.183322033898305-2.0827118644067797,12.105762711864408C172.07538983050847,200.65193220338983,174.75688135593222,201.93627118644068,177.48176271186443,201.93627118644068z"
		/>
	<path d="M220.02115254237287,171.91050847457626c1.7269152542372883,0.0,3.4711864406779664-0.5206779661016949,4.998508474576271-1.5880677966101695l14.179796610169491-10.005694915254237c3.9137627118644067-2.768271186440678,4.850983050847458-8.183322033898305,2.0827118644067797-12.105762711864408
		c-2.768271186440678-3.896406779661017-8.165966101694915-4.833627118644068-12.105762711864408-2.0827118644067797l-14.179796610169491,10.005694915254237c-3.9137627118644067,2.768271186440678-4.850983050847458,8.183322033898305-2.0827118644067797,12.105762711864408C214.60610169491525,170.62616949152542,217.287593220339,171.91050847457626,220.02115254237287,171.91050847457626z"
		/>
	<path d="M156.20338983050848,295.0508474576271c4.798915254237288,0.0,8.677966101694915-3.879050847457627,8.677966101694915-8.677966101694915v-17.35593220338983c0.0-4.798915254237288-3.879050847457627-8.677966101694915-8.677966101694915-8.677966101694915s-8.677966101694915,3.879050847457627-8.677966101694915,8.677966101694915v17.35593220338983C147.52542372881356,291.17179661016945,151.40447457627118,295.0508474576271,156.20338983050848,295.0508474576271z"/>
	<path d="M262.56054237288134,141.88474576271187c1.7269152542372883,0.0,3.4711864406779664-0.5206779661016949,4.998508474576271-1.5880677966101695l14.179796610169491-10.005694915254237c3.9137627118644067-2.768271186440678,4.850983050847458-8.183322033898305,2.0827118644067797-12.105762711864408
		c-2.768271186440678-3.896406779661017-8.15728813559322-4.850983050847458-12.105762711864408-2.0827118644067797l-14.179796610169491,10.005694915254237c-3.9137627118644067,2.768271186440678-4.850983050847458,8.183322033898305-2.0827118644067797,12.105762711864408C257.1541694915254,140.60040677966103,259.82698305084745,141.88474576271187,262.56054237288134,141.88474576271187z"
		/>
	<path d="M269.0169491525424,355.79661016949154c0.0,4.798915254237288,3.879050847457627,8.677966101694915,8.677966101694915,8.677966101694915h17.35593220338983c4.798915254237288,0.0,8.677966101694915-3.879050847457627,8.677966101694915-8.677966101694915s-3.879050847457627-8.677966101694915-8.677966101694915-8.677966101694915h-17.35593220338983C272.896,347.1186440677966,269.0169491525424,350.99769491525427,269.0169491525424,355.79661016949154z"/>
	<path d="M156.20338983050848,347.1186440677966c4.798915254237288,0.0,8.677966101694915-3.879050847457627,8.677966101694915-8.677966101694915v-17.35593220338983c0.0-4.798915254237288-3.879050847457627-8.677966101694915-8.677966101694915-8.677966101694915s-8.677966101694915,3.879050847457627-8.677966101694915,8.677966101694915v17.35593220338983C147.52542372881356,343.239593220339,151.40447457627118,347.1186440677966,156.20338983050848,347.1186440677966z"/>
	<path d="M355.79661016949154,468.6101694915254h112.8135593220339v-69.42372881355932H355.79661016949154V468.6101694915254z M373.1525423728813,416.54237288135596h78.10169491525424v34.71186440677966h-78.10169491525424V416.54237288135596z"/>
	<path d="M190.91525423728814,260.33898305084745v17.35593220338983c0.0,4.798915254237288,3.879050847457627,8.677966101694915,8.677966101694915,8.677966101694915s8.677966101694915-3.879050847457627,8.677966101694915-8.677966101694915v-17.35593220338983c0.0-4.798915254237288-3.879050847457627-8.677966101694915-8.677966101694915-8.677966101694915S190.91525423728814,255.54006779661017,190.91525423728814,260.33898305084745z"/>
	<path d="M269.0169491525424,234.3050847457627c-4.798915254237288,0.0-8.677966101694915,3.879050847457627-8.677966101694915,8.677966101694915v17.35593220338983c0.0,4.798915254237288,3.879050847457627,8.677966101694915,8.677966101694915,8.677966101694915s8.677966101694915-3.879050847457627,8.677966101694915-8.677966101694915v-17.35593220338983C277.6949152542373,238.18413559322033,273.81586440677967,234.3050847457627,269.0169491525424,234.3050847457627z"/>
	<path d="M216.94915254237287,251.66101694915255h17.35593220338983c4.798915254237288,0.0,8.677966101694915-3.879050847457627,8.677966101694915-8.677966101694915s-3.879050847457627-8.677966101694915-8.677966101694915-8.677966101694915h-17.35593220338983c-4.798915254237288,0.0-8.677966101694915,3.879050847457627-8.677966101694915,8.677966101694915S212.15023728813557,251.66101694915255,216.94915254237287,251.66101694915255z"/>
	<path d="M225.6271186440678,312.40677966101697c0.0-4.798915254237288-3.879050847457627-8.677966101694915-8.677966101694915-8.677966101694915h-17.35593220338983c-4.798915254237288,0.0-8.677966101694915,3.879050847457627-8.677966101694915,8.677966101694915s3.879050847457627,8.677966101694915,8.677966101694915,8.677966101694915h17.35593220338983C221.74806779661017,321.08474576271186,225.6271186440678,317.2056949152542,225.6271186440678,312.40677966101697z"/>
	<path d="M251.66101694915255,321.08474576271186h17.35593220338983c4.798915254237288,0.0,8.677966101694915-3.879050847457627,8.677966101694915-8.677966101694915v-17.35593220338983c0.0-4.798915254237288-3.879050847457627-8.677966101694915-8.677966101694915-8.677966101694915s-8.677966101694915,3.879050847457627-8.677966101694915,8.677966101694915v8.677966101694915h-8.677966101694915c-4.798915254237288,0.0-8.677966101694915,3.879050847457627-8.677966101694915,8.677966101694915S246.86210169491525,321.08474576271186,251.66101694915255,321.08474576271186z"/>
	<path d="M347.1186440677966,242.98305084745763c0.0,4.798915254237288,3.879050847457627,8.677966101694915,8.677966101694915,8.677966101694915h17.35593220338983c4.798915254237288,0.0,8.677966101694915-3.879050847457627,8.677966101694915-8.677966101694915s-3.879050847457627-8.677966101694915-8.677966101694915-8.677966101694915h-17.35593220338983C350.99769491525427,234.3050847457627,347.1186440677966,238.18413559322033,347.1186440677966,242.98305084745763z"/>
	<path d="M399.1864406779661,242.98305084745763v17.35593220338983c0.0,4.798915254237288,3.879050847457627,8.677966101694915,8.677966101694915,8.677966101694915s8.677966101694915-3.879050847457627,8.677966101694915-8.677966101694915v-17.35593220338983c0.0-4.798915254237288-3.879050847457627-8.677966101694915-8.677966101694915-8.677966101694915S399.1864406779661,238.18413559322033,399.1864406779661,242.98305084745763z"/>
	<path d="M407.864406779661,321.08474576271186c4.798915254237288,0.0,8.677966101694915-3.879050847457627,8.677966101694915-8.677966101694915v-17.35593220338983c0.0-4.798915254237288-3.879050847457627-8.677966101694915-8.677966101694915-8.677966101694915s-8.677966101694915,3.879050847457627-8.677966101694915,8.677966101694915v8.677966101694915h-8.677966101694915c-4.798915254237288,0.0-8.677966101694915,3.879050847457627-8.677966101694915,8.677966101694915s3.879050847457627,8.677966101694915,8.677966101694915,8.677966101694915H407.864406779661z"/>
	<path d="M338.4406779661017,286.3728813559322c4.798915254237288,0.0,8.677966101694915-3.879050847457627,8.677966101694915-8.677966101694915v-17.35593220338983c0.0-4.798915254237288-3.879050847457627-8.677966101694915-8.677966101694915-8.677966101694915s-8.677966101694915,3.879050847457627-8.677966101694915,8.677966101694915v17.35593220338983C329.76271186440675,282.49383050847456,333.64176271186443,286.3728813559322,338.4406779661017,286.3728813559322z"/>
	<path d="M338.4406779661017,321.08474576271186h17.35593220338983c4.798915254237288,0.0,8.677966101694915-3.879050847457627,8.677966101694915-8.677966101694915s-3.879050847457627-8.677966101694915-8.677966101694915-8.677966101694915h-17.35593220338983c-4.798915254237288,0.0-8.677966101694915,3.879050847457627-8.677966101694915,8.677966101694915S333.64176271186443,321.08474576271186,338.4406779661017,321.08474576271186z"/>
	<path d="M329.76271186440675,399.1864406779661h-43.389830508474574c-4.798915254237288,0.0-8.677966101694915,3.879050847457627-8.677966101694915,8.677966101694915s3.879050847457627,8.677966101694915,8.677966101694915,8.677966101694915h43.389830508474574c4.798915254237288,0.0,8.677966101694915-3.879050847457627,8.677966101694915-8.677966101694915S334.561627118644,399.1864406779661,329.76271186440675,399.1864406779661z"/>
	<path d="M329.76271186440675,425.22033898305085h-60.74576271186441c-4.798915254237288,0.0-8.677966101694915,3.879050847457627-8.677966101694915,8.677966101694915s3.879050847457627,8.677966101694915,8.677966101694915,8.677966101694915h60.74576271186441c4.798915254237288,0.0,8.677966101694915-3.879050847457627,8.677966101694915-8.677966101694915S334.561627118644,425.22033898305085,329.76271186440675,425.22033898305085z"/>
	<path d="M329.76271186440675,451.2542372881356H242.98305084745763c-4.798915254237288,0.0-8.677966101694915,3.879050847457627-8.677966101694915,8.677966101694915s3.879050847457627,8.677966101694915,8.677966101694915,8.677966101694915h86.77966101694915c4.798915254237288,0.0,8.677966101694915-3.879050847457627,8.677966101694915-8.677966101694915S334.561627118644,451.2542372881356,329.76271186440675,451.2542372881356z"/>
	<circle cx="34.71186440677966" cy="43.389830508474574" r="8.677966101694915"/>
	<circle cx="86.77966101694915" cy="43.389830508474574" r="8.677966101694915"/>
	<circle cx="60.74576271186441" cy="69.42372881355932" r="8.677966101694915"/>
	<circle cx="34.71186440677966" cy="95.45762711864407" r="8.677966101694915"/>
	<circle cx="86.77966101694915" cy="95.45762711864407" r="8.677966101694915"/>
	<circle cx="34.71186440677966" cy="147.52542372881356" r="8.677966101694915"/>
	<circle cx="86.77966101694915" cy="147.52542372881356" r="8.677966101694915"/>
	<circle cx="60.74576271186441" cy="121.49152542372882" r="8.677966101694915"/>
	<circle cx="60.74576271186441" cy="173.5593220338983" r="8.677966101694915"/>
	<circle cx="34.71186440677966" cy="199.59322033898306" r="8.677966101694915"/>
	<circle cx="86.77966101694915" cy="199.59322033898306" r="8.677966101694915"/>
	<circle cx="34.71186440677966" cy="251.66101694915255" r="8.677966101694915"/>
	<circle cx="86.77966101694915" cy="251.66101694915255" r="8.677966101694915"/>
	<circle cx="60.74576271186441" cy="225.6271186440678" r="8.677966101694915"/>
	<circle cx="60.74576271186441" cy="277.6949152542373" r="8.677966101694915"/>
	<circle cx="34.71186440677966" cy="303.728813559322" r="8.677966101694915"/>
	<circle cx="86.77966101694915" cy="303.728813559322" r="8.677966101694915"/>
	<circle cx="34.71186440677966" cy="355.79661016949154" r="8.677966101694915"/>
	<circle cx="86.77966101694915" cy="355.79661016949154" r="8.677966101694915"/>
	<circle cx="60.74576271186441" cy="329.76271186440675" r="8.677966101694915"/>
	<circle cx="60.74576271186441" cy="381.8305084745763" r="8.677966101694915"/>
</g>
<g>
</g>
<g>
</g>
<g>
</g>
<g>
</g>
<g>
</g>
<g>
</g>
<g>
</g>
<g>
</g>
<g>
</g>
<g>
</g>
<g>
</g>
<g>
</g>
<g>
</g>
<g>
</g>
<g>
</g>
</svg>
