<?xml version="1.0" encoding="iso-8859-1"?>
<!-- Generator: Adobe Illustrator 19.0.0, SVG Export Plug-In . SVG Version: 6.00 Build 0)  -->
<svg version="1.1" id="Capa_1" xmlns="http://www.w3.org/2000/svg" xmlns:xlink="http://www.w3.org/1999/xlink" x="0px" y="0px"
	 viewBox="0 0 512 512" style="enable-background:new 0 0 53.972 53.972;" xml:space="preserve">
<path d="M384.51226561921,136.4808419180316L248.0314237011784,0.0v227.67360853776032L140.9015044838064,120.54368932038835l-13.413770103016377,13.413770103016377l120.54368932038835,120.54368932038835V256.13280960498037L127.48773438079004,376.6764989253687l13.413770103016377,13.413770103016377l107.12991921737196-107.12991921737196v1.3660416512265618v227.67360853776032
	l136.4808419180316-147.84554954420813l-109.28333209812494-109.28333209812494L384.51226561921,136.4808419180316z M267.0042244126584,45.800340917512784l91.19276661972874,91.19276661972874l-91.19276661972874,98.80085970503222V45.800340917512784z M267.0042244126584,463.4675757800341V273.4739494552731l91.19276661972874,91.19276661972874
	L267.0042244126584,463.4675757800341z"/>
<g>
</g>
<g>
</g>
<g>
</g>
<g>
</g>
<g>
</g>
<g>
</g>
<g>
</g>
<g>
</g>
<g>
</g>
<g>
</g>
<g>
</g>
<g>
</g>
<g>
</g>
<g>
</g>
<g>
</g>
</svg>
