<?xml version="1.0" encoding="iso-8859-1"?>
<!-- Generator: Adobe Illustrator 19.0.0, SVG Export Plug-In . SVG Version: 6.00 Build 0)  -->
<svg version="1.1" id="Capa_1" xmlns="http://www.w3.org/2000/svg" xmlns:xlink="http://www.w3.org/1999/xlink" x="0px" y="0px"
	 viewBox="0 0 512 512" style="enable-background:new 0 0 56.868 56.868;" xml:space="preserve">
<path d="M476.5809945839487,55.24428501090244c0.0-29.926988816205945-24.164873039319122-54.497010621087426-54.01983540831398-55.15425195188858V0.0h-332.3120208201448c-30.23310121685306,0.0-54.83013293943869,24.588028416684246-54.83013293943869,54.83013293943869v457.1698670605612l171.06281212632763-114.03587254695083l171.06281212632763,114.03587254695083V225.0826475346416h99.0363649152423V55.24428501090244
	z M359.5380178659351,478.3636491524231l-153.05620032355628-102.04346908630511l-153.05620032355628,102.04346908630511V54.83013293943869c0.0-20.30245480762467,16.521066329042693-36.82352113666737,36.82352113666737-36.82352113666737H378.4989800942533c-8.850249701062108,8.661180277133008-15.143560526130686,19.91531265386509-17.69149609622283,32.510937609903635
	l-0.009003305901385664,0.02700991770415699c-0.40514876556235485,1.9987339101076174-0.7202644721108531,4.033481043820777-0.9273405078427234,6.095238095238095C359.65506084265314,58.73756770064007,359.5380178659351,60.871351199268474,359.5380178659351,63.023141309699646v162.05950622494194V478.3636491524231z M458.5743827811774,207.07603573187026h-81.02975311247097V63.023141309699646
	c0.0-3.061124006471126,0.3151157065484983-6.041218259829781,0.9003305901385664-8.931279454174579c3.484279383836252-17.016248153618903,16.728142364774566-30.602236758809873,33.564324400365756-34.70774424984173c0.3241190124498839-0.08102975311247097,0.6122248012942252-0.2250826475346416,0.936343813744109-0.28810578884434124
	c2.1878033340367162-0.48617851867482587,4.48364633889006-0.6572413308011534,6.779489343743405-0.801294225223324c0.7472743898150102-0.04501652950692832,1.4585355560244777-0.21607934163325593,2.2148132517408734-0.2250826475346416c20.221425054512203,0.33312231835126954,36.63445171273827,16.935218400506432,36.63445171273827,37.1746500668214V207.07603573187026z"/>
<g>
</g>
<g>
</g>
<g>
</g>
<g>
</g>
<g>
</g>
<g>
</g>
<g>
</g>
<g>
</g>
<g>
</g>
<g>
</g>
<g>
</g>
<g>
</g>
<g>
</g>
<g>
</g>
<g>
</g>
</svg>
