<?xml version="1.0" encoding="iso-8859-1"?>
<!-- Generator: Adobe Illustrator 19.0.0, SVG Export Plug-In . SVG Version: 6.00 Build 0)  -->
<svg version="1.1" id="Capa_1" xmlns="http://www.w3.org/2000/svg" xmlns:xlink="http://www.w3.org/1999/xlink" x="0px" y="0px"
	 viewBox="0 0 512 512" style="enable-background:new 0 0 52.974 52.974;" xml:space="preserve">
<g>
	<path d="M478.104428587609,33.92456676860346c-45.2037603352588-45.223090572733796-118.79397440253709-45.242420810208785-164.01706497527087,0.0l-88.84177143504361,88.84177143504361c-3.7790614263601014,3.7790614263601014-3.7790614263601014,9.887416468456223,0.0,13.666477894816325s9.887416468456223,3.7790614263601014,13.666477894816325,0.0
		l88.84177143504361-88.84177143504361c18.170423226488463-18.170423226488463,42.43953637633556-28.173821119794617,68.33238947408162-28.173821119794617c25.91218333522105,0.0,50.17163136633065,10.013063012043645,68.34205459281911,28.183486238532108s28.183486238532108,42.43953637633556,28.183486238532108,68.34205459281911
		c0.0,25.90251821648356-10.013063012043645,50.16196624759316-28.183486238532108,68.33238947408162L348.26322346811645,300.4692113112093c-37.67463283875109,37.67463283875109-99.00947634688715,37.67463283875109-136.69377430437572,0.0c-3.7790614263601014-3.7790614263601014-9.887416468456223-3.7790614263601014-13.666477894816325,0.0
		s-3.7790614263601014,9.887416468456223,0.0,13.666477894816325c22.61637784573564,22.60671272699815,52.307622607316794,33.91490164986597,82.00853248763543,33.91490164986597s59.401819760637295-11.30818892286782,82.00853248763543-33.91490164986597L478.104428587609,197.94163174387435
		c21.823838109261146-21.823838109261146,33.84724581870351-50.94484086533016,33.84724581870351-82.00853248763543C511.9516744063125,84.86940763393363,499.92826669687014,55.74840487786461,478.104428587609,33.92456676860346z"/>
	<path d="M259.4117869143353,389.3013176275154l-75.17529354022727,75.17529354022727c-18.170423226488463,18.170423226488463-42.43953637633556,28.183486238532108-68.34205459281911,28.183486238532108c-25.90251821648356,0.0-50.16196624759316-10.013063012043645-68.34205459281911-28.183486238532108
		c-37.67463283875109-37.67463283875109-37.67463283875109-98.99981122814965,0.0-136.68410918563822l109.35115339600559-109.35115339600559c37.68429795748858-37.67463283875109,99.00947634688715-37.6553026012761,136.68410918563822,0.0c3.7790614263601014,3.7790614263601014,9.887416468456223,3.7790614263601014,13.666477894816325,0.0
		s3.7790614263601014-9.887416468456223,0.0-13.666477894816325c-45.2037603352588-45.223090572733796-118.79397440253709-45.242420810208785-164.01706497527087,0.0L33.876241174916,314.13568920602563c-21.823838109261146,21.823838109261146-33.83758069996602,50.94484086533016-33.83758069996602,82.00853248763543
		c0.0,31.06369162230528,12.023407709442367,60.184694378374296,33.84724581870351,81.99886736889795s50.94484086533016,33.84724581870351,81.99886736889795,33.84724581870351c31.073356741042772,0.0,60.19435949711179-12.023407709442367,82.00853248763543-33.84724581870351l75.17529354022727-75.17529354022727
		c3.7790614263601014-3.7790614263601014,3.7790614263601014-9.887416468456223,0.0-13.666477894816325S263.1908483406954,385.5319213198928,259.4117869143353,389.3013176275154z"/>
	<path d="M328.3144183939291,425.3522105183675c-5.344810661834107,0.0-9.665118737493865,4.320308075659757-9.665118737493865,9.665118737493865v57.99071242496319c0.0,5.344810661834107,4.320308075659757,9.665118737493865,9.665118737493865,9.665118737493865s9.665118737493865-4.320308075659757,9.665118737493865-9.665118737493865v-57.99071242496319C337.97953713142294,429.6725185940273,333.6592290557632,425.3522105183675,328.3144183939291,425.3522105183675z"/>
	<path d="M371.4595084381017,408.85385283346545c-3.7790614263601014-3.7790614263601014-9.887416468456223-3.7790614263601014-13.666477894816325,0.0s-3.7790614263601014,9.887416468456223,0.0,13.666477894816325l41.00909880318647,40.999433684448974c1.8846981538113037,1.8846981538113037,4.358968550609733,2.831879790085702,6.833238947408162,2.831879790085702
		s4.948540793596859-0.9471816362743988,6.833238947408162-2.831879790085702c3.7790614263601014-3.7790614263601014,3.7790614263601014-9.887416468456223,0.0-13.666477894816325L371.4595084381017,408.85385283346545z"/>
	<path d="M434.6307245063616,367.3614980934043h-57.99071242496319c-5.344810661834107,0.0-9.665118737493865,4.320308075659757-9.665118737493865,9.665118737493865s4.320308075659757,9.665118737493865,9.665118737493865,9.665118737493865h57.99071242496319c5.344810661834107,0.0,9.665118737493865-4.320308075659757,9.665118737493865-9.665118737493865S439.9755351681957,367.3614980934043,434.6307245063616,367.3614980934043z"/>
	<path d="M154.3422811190395,106.40329218106996c5.344810661834107,0.0,9.665118737493865-4.320308075659757,9.665118737493865-9.665118737493865v-57.99071242496319c0.0-5.344810661834107-4.320308075659757-9.665118737493865-9.665118737493865-9.665118737493865s-9.665118737493865,4.320308075659757-9.665118737493865,9.665118737493865v57.99071242496319C144.67716238154566,102.08298410541019,149.0071355759429,106.40329218106996,154.3422811190395,106.40329218106996z"/>
	<path d="M111.18752595612942,122.90164986597198c1.8846981538113037,1.8846981538113037,4.358968550609733,2.831879790085702,6.833238947408162,2.831879790085702s4.948540793596859-0.9471816362743988,6.833238947408162-2.831879790085702c3.7790614263601014-3.7790614263601014,3.7790614263601014-9.887416468456223,0.0-13.666477894816325L83.85457016649677,68.23573828670668
		c-3.7790614263601014-3.7790614263601014-9.887416468456223-3.7790614263601014-13.666477894816325,0.0s-3.7790614263601014,9.887416468456223,0.0,13.666477894816325L111.18752595612942,122.90164986597198z"/>
	<path d="M48.02597500660702,164.39400460603315h57.99071242496319c5.344810661834107,0.0,9.665118737493865-4.320308075659757,9.665118737493865-9.665118737493865s-4.320308075659757-9.665118737493865-9.665118737493865-9.665118737493865h-57.99071242496319c-5.344810661834107,0.0-9.665118737493865,4.320308075659757-9.665118737493865,9.665118737493865S42.6908294635104,164.39400460603315,48.02597500660702,164.39400460603315z"/>
</g>
<g>
</g>
<g>
</g>
<g>
</g>
<g>
</g>
<g>
</g>
<g>
</g>
<g>
</g>
<g>
</g>
<g>
</g>
<g>
</g>
<g>
</g>
<g>
</g>
<g>
</g>
<g>
</g>
<g>
</g>
</svg>
