<?xml version="1.0" encoding="iso-8859-1"?>
<!-- Generator: Adobe Illustrator 19.0.0, SVG Export Plug-In . SVG Version: 6.00 Build 0)  -->
<svg version="1.1" id="Capa_1" xmlns="http://www.w3.org/2000/svg" xmlns:xlink="http://www.w3.org/1999/xlink" x="0px" y="0px"
	 viewBox="0 0 512 512" style="enable-background:new 0 0 58 58;" xml:space="preserve">
<g>
	<path d="M185.3793103448276,123.58620689655172h-44.13793103448276V79.44827586206897c0.0-4.881655172413794-3.9547586206896552-8.827586206896552-8.827586206896552-8.827586206896552s-8.827586206896552,3.9459310344827587-8.827586206896552,8.827586206896552v44.13793103448276H79.44827586206897c-4.872827586206897,0.0-8.827586206896552,3.9459310344827587-8.827586206896552,8.827586206896552s3.9547586206896552,8.827586206896552,8.827586206896552,8.827586206896552h44.13793103448276v44.13793103448276c0.0,4.881655172413794,3.9547586206896552,8.827586206896552,8.827586206896552,8.827586206896552s8.827586206896552-3.9459310344827587,8.827586206896552-8.827586206896552
		v-44.13793103448276h44.13793103448276c4.872827586206897,0.0,8.827586206896552-3.9459310344827587,8.827586206896552-8.827586206896552S190.25213793103447,123.58620689655172,185.3793103448276,123.58620689655172z"/>
	<path d="M432.55172413793105,123.58620689655172H326.6206896551724c-4.872827586206897,0.0-8.827586206896552,3.9459310344827587-8.827586206896552,8.827586206896552s3.9547586206896552,8.827586206896552,8.827586206896552,8.827586206896552h105.93103448275862c4.872827586206897,0.0,8.827586206896552-3.9459310344827587,8.827586206896552-8.827586206896552S437.4245517241379,123.58620689655172,432.55172413793105,123.58620689655172z"/>
	<path d="M264.82758620689657,0.0h-17.655172413793103H0.0v247.17241379310343v17.655172413793103v247.17241379310343h247.17241379310343h17.655172413793103h247.17241379310343V264.82758620689657v-17.655172413793103V0.0H264.82758620689657z M17.655172413793103,17.655172413793103h229.51724137931035v229.51724137931035H17.655172413793103V17.655172413793103z M17.655172413793103,494.34482758620686V264.82758620689657h229.51724137931035v229.51724137931035H17.655172413793103z M494.34482758620686,494.34482758620686H264.82758620689657V264.82758620689657h229.51724137931035V494.34482758620686z M264.82758620689657,247.17241379310343V17.655172413793103h229.51724137931035v229.51724137931035H264.82758620689657z"/>
	<path d="M326.6206896551724,414.8965517241379h105.93103448275862c4.872827586206897,0.0,8.827586206896552-3.9459310344827587,8.827586206896552-8.827586206896552s-3.9547586206896552-8.827586206896552-8.827586206896552-8.827586206896552H326.6206896551724c-4.872827586206897,0.0-8.827586206896552,3.9459310344827587-8.827586206896552,8.827586206896552S321.7478620689655,414.8965517241379,326.6206896551724,414.8965517241379z"/>
	<path d="M326.6206896551724,361.9310344827586h105.93103448275862c4.872827586206897,0.0,8.827586206896552-3.9459310344827587,8.827586206896552-8.827586206896552s-3.9547586206896552-8.827586206896552-8.827586206896552-8.827586206896552H326.6206896551724c-4.872827586206897,0.0-8.827586206896552,3.9459310344827587-8.827586206896552,8.827586206896552S321.7478620689655,361.9310344827586,326.6206896551724,361.9310344827586z"/>
	<path d="M182.7928275862069,329.2071724137931c-3.4515862068965517-3.4515862068965517-9.030620689655171-3.4515862068965517-12.482206896551723,0.0L132.41379310344828,367.104l-37.896827586206896-37.896827586206896c-3.4515862068965517-3.4515862068965517-9.030620689655171-3.4515862068965517-12.482206896551723,0.0
		s-3.4515862068965517,9.030620689655171,0.0,12.482206896551723L119.93158620689655,379.58620689655174l-37.896827586206896,37.896827586206896c-3.4515862068965517,3.4515862068965517-3.4515862068965517,9.030620689655171,0.0,12.482206896551723C83.75613793103447,431.6866206896552,86.01599999999999,432.55172413793105,88.27586206896552,432.55172413793105
		s4.519724137931035-0.865103448275862,6.241103448275862-2.5864827586206895L132.41379310344828,392.06841379310345l37.896827586206896,37.896827586206896C172.03199999999998,431.6866206896552,174.29186206896551,432.55172413793105,176.55172413793105,432.55172413793105s4.519724137931035-0.865103448275862,6.241103448275862-2.5864827586206895
		c3.4515862068965517-3.4515862068965517,3.4515862068965517-9.030620689655171,0.0-12.482206896551723L144.89600000000002,379.58620689655174l37.896827586206896-37.896827586206896C186.24441379310343,338.23779310344827,186.24441379310343,332.65875862068964,182.7928275862069,329.2071724137931z"/>
</g>
<g>
</g>
<g>
</g>
<g>
</g>
<g>
</g>
<g>
</g>
<g>
</g>
<g>
</g>
<g>
</g>
<g>
</g>
<g>
</g>
<g>
</g>
<g>
</g>
<g>
</g>
<g>
</g>
<g>
</g>
</svg>
