<?xml version="1.0" encoding="iso-8859-1"?>
<!-- Generator: Adobe Illustrator 19.0.0, SVG Export Plug-In . SVG Version: 6.00 Build 0)  -->
<svg version="1.1" id="Capa_1" xmlns="http://www.w3.org/2000/svg" xmlns:xlink="http://www.w3.org/1999/xlink" x="0px" y="0px"
	 viewBox="0 0 512 512" style="enable-background:new 0 0 60 60;" xml:space="preserve">
<g>
	<path d="M434.9866666666667,176.5888c-4.497066666666667-76.8-67.80586666666666-138.1888-144.13653333333332-138.1888c-46.336,0.0-91.20426666666667,22.724266666666665-119.00586666666666,59.8016
		c-0.6314666666666666-0.3328-1.3055999999999999-0.5546666666666666-1.9456-0.8704c-1.6896-0.8192-3.4048000000000003-1.6042666666666667-5.1626666666666665-2.295466666666667c-0.9813333333333334-0.384-1.9626666666666668-0.7338666666666666-2.9525333333333332-1.0837333333333334
		c-1.7237333333333333-0.6058666666666666-3.4645333333333337-1.1349333333333333-5.248-1.6213333333333333c-0.9898666666666667-0.26453333333333334-1.9712-0.5376-2.978133333333333-0.768c-1.9114666666666666-0.4352-3.857066666666667-0.768-5.828266666666667-1.0581333333333334
		c-0.8704-0.128-1.7237333333333333-0.2986666666666667-2.6026666666666665-0.4010666666666667C142.3104,89.79626666666667,139.44320000000002,89.6,136.53333333333333,89.6c-42.3424,0.0-76.8,34.44906666666667-76.8,76.8c0.0,1.1008,0.05973333333333333,2.176,0.13653333333333334,3.2512
		C24.379733333333334,188.99626666666666,0.0,229.53813333333335,0.0,270.1141333333333C0.0,330.55573333333336,49.169066666666666,379.73333333333335,109.61066666666667,379.73333333333335H153.6c4.7104,0.0,8.533333333333333-3.8144,8.533333333333333-8.533333333333333s-3.8229333333333333-8.533333333333333-8.533333333333333-8.533333333333333h-43.989333333333335
		C58.58133333333333,362.6666666666667,17.066666666666666,321.152,17.066666666666666,270.1141333333333c0.0-35.447466666666664,23.082666666666668-72.24319999999999,54.8864-87.49226666666667L76.8,180.3093333333333V174.93333333333334c0.0-1.0495999999999999,0.06826666666666667-2.1248,0.128-3.2l0.0768-1.4933333333333332
		l-0.1024-1.6042666666666667C76.85973333333332,167.89333333333335,76.8,167.15093333333334,76.8,166.4c0.0-32.93013333333333,26.794666666666668-59.733333333333334,59.733333333333334-59.733333333333334c2.6368,0.0,5.239466666666667,0.2304,7.825066666666667,0.5717333333333333
		c0.6656,0.08533333333333333,1.3226666666666667,0.19626666666666667,1.9797333333333333,0.3072c2.2869333333333333,0.3754666666666666,4.539733333333333,0.8704,6.7584,1.5104c0.29013333333333335,0.08533333333333333,0.5888,0.13653333333333334,0.8704,0.22186666666666666
		c2.440533333333333,0.7424,4.821333333333333,1.6896,7.150933333333333,2.7477333333333336c0.5888,0.26453333333333334,1.1690666666666667,0.5546666666666666,1.7493333333333332,0.8448c2.0650666666666666,1.0154666666666665,4.087466666666667,2.1418666666666666,6.033066666666667,3.4048000000000003
		C185.344,126.93333333333334,196.26666666666665,145.39946666666668,196.26666666666665,166.4c0.0,4.718933333333334,3.8229333333333333,8.533333333333333,8.533333333333333,8.533333333333333s8.533333333333333-3.8144,8.533333333333333-8.533333333333333c0.0-23.500799999999998-10.632533333333333-44.53546666666667-27.30666666666667-58.632533333333335
		C210.4832,75.76746666666666,250.7776,55.46666666666667,290.85013333333336,55.46666666666667c66.08213333333333,0.0,120.9856,52.352,126.70293333333333,118.50240000000001c-8.721066666666667-0.6144-21.7856-0.9301333333333334-34.8416,1.0666666666666667
		c-4.6592,0.7082666666666667-7.8592,5.060266666666666-7.150933333333333,9.719466666666667c0.64,4.224,4.2752,7.253333333333333,8.4224,7.253333333333333c0.4266666666666667,0.0,0.8618666666666667-0.034133333333333335,1.2970666666666666-0.1024
		c18.978133333333336-2.8672,38.766933333333334-0.1792,39.97013333333334-0.017066666666666667C464.98133333333334,199.44106666666667,494.93333333333334,236.04053333333334,494.93333333333334,277.0944C494.93333333333334,324.2752,456.54186666666664,362.6666666666667,409.36106666666666,362.6666666666667H375.46666666666664
		c-4.7104,0.0-8.533333333333333,3.8144-8.533333333333333,8.533333333333333s3.8229333333333333,8.533333333333333,8.533333333333333,8.533333333333333h33.8944C465.95413333333335,379.73333333333335,512.0,333.68746666666664,512.0,277.0944C512.0,230.25493333333333,479.34293333333335,188.24533333333332,434.9866666666667,176.5888z"/>
	<path d="M270.5749333333333,262.77546666666666c-0.7850666666666667-0.7936-1.7322666666666668-1.4165333333333334-2.7818666666666667-1.8517333333333332c-2.082133333333333-0.8618666666666667-4.437333333333333-0.8618666666666667-6.519466666666666,0.0
		c-1.0495999999999999,0.4352-1.9882666666666668,1.0581333333333334-2.7818666666666667,1.8517333333333332l-68.25813333333333,68.25813333333333c-3.3365333333333336,3.3365333333333336-3.3365333333333336,8.7296,0.0,12.066133333333333C191.89759999999998,344.76373333333333,194.08213333333333,345.6,196.26666666666665,345.6
		s4.369066666666667-0.8362666666666667,6.033066666666667-2.5002666666666666L256.0,289.3994666666667V465.06666666666666c0.0,4.718933333333334,3.8229333333333333,8.533333333333333,8.533333333333333,8.533333333333333s8.533333333333333-3.8144,8.533333333333333-8.533333333333333V289.3994666666667l53.700266666666664,53.700266666666664C328.4309333333333,344.76373333333333,330.61546666666663,345.6,332.8,345.6
		s4.369066666666667-0.8362666666666667,6.033066666666667-2.5002666666666666c3.3365333333333336-3.3365333333333336,3.3365333333333336-8.7296,0.0-12.066133333333333L270.5749333333333,262.77546666666666z"/>
</g>
<g>
</g>
<g>
</g>
<g>
</g>
<g>
</g>
<g>
</g>
<g>
</g>
<g>
</g>
<g>
</g>
<g>
</g>
<g>
</g>
<g>
</g>
<g>
</g>
<g>
</g>
<g>
</g>
<g>
</g>
</svg>
