<?xml version="1.0" encoding="iso-8859-1"?>
<!-- Generator: Adobe Illustrator 19.0.0, SVG Export Plug-In . SVG Version: 6.00 Build 0)  -->
<svg version="1.1" id="Capa_1" xmlns="http://www.w3.org/2000/svg" xmlns:xlink="http://www.w3.org/1999/xlink" x="0px" y="0px"
	 viewBox="0 0 512 512" style="enable-background:new 0 0 60 60;" xml:space="preserve">
<g>
	<path d="M434.9952,185.12213333333332c-4.5056-76.8-67.8144-138.1888-144.13653333333332-138.1888c-46.336,0.0-91.20426666666667,22.724266666666665-119.00586666666666,59.8016
		c-0.64-0.3328-1.3226666666666667-0.5632-1.9712-0.8789333333333332c-1.6725333333333334-0.8106666666666666-3.3621333333333334-1.5786666666666667-5.094399999999999-2.2698666666666667c-1.0069333333333332-0.4010666666666667-2.030933333333333-0.7594666666666666-3.054933333333333-1.1178666666666668
		c-1.6810666666666667-0.5888-3.3877333333333333-1.1093333333333333-5.12-1.5786666666666667c-1.024-0.2730666666666667-2.0394666666666668-0.5546666666666666-3.072-0.7936c-1.8773333333333333-0.4266666666666667-3.7888-0.7509333333333332-5.717333333333333-1.0325333333333333
		c-0.8959999999999999-0.13653333333333334-1.7834666666666665-0.3072-2.688-0.4096C142.30186666666665,98.3296,139.44320000000002,98.13333333333333,136.53333333333333,98.13333333333333c-42.3424,0.0-76.8,34.44906666666667-76.8,76.8c0.0,1.1008,0.06826666666666667,2.176,0.13653333333333334,3.2512
		C24.379733333333334,197.5296,0.0,238.07146666666668,0.0,278.6474666666667C0.0,339.08906666666667,49.169066666666666,388.26666666666665,109.61066666666667,388.26666666666665h53.43573333333333l-44.919466666666665,76.8h275.73760000000004l-44.919466666666665-76.8h60.407466666666664
		C465.95413333333335,388.26666666666665,512.0,342.2208,512.0,285.62773333333337C512.0,238.78826666666666,479.34293333333335,196.77866666666665,434.9952,185.12213333333332z M364.11733333333336,448.0H147.88266666666664l34.93546666666667-59.733333333333334h0.008533333333333334L256.0,263.1424L329.1818666666667,388.26666666666665
		h0.008533333333333334L364.11733333333336,448.0z M409.36106666666666,371.2h-70.39146666666667L256.0,229.34186666666668L173.03040000000001,371.2h-63.41973333333333C58.58133333333333,371.2,17.066666666666666,329.6853333333333,17.066666666666666,278.6474666666667
		c0.0-35.447466666666664,23.082666666666668-72.24319999999999,54.8864-87.49226666666667L76.8,188.84266666666664V183.46666666666667c0.0-1.0495999999999999,0.06826666666666667-2.1248,0.128-3.2l0.0768-1.4762666666666666L76.9024,177.06666666666666
		C76.8512,176.35840000000002,76.8,175.65013333333332,76.8,174.93333333333334c0.0-32.93013333333333,26.794666666666668-59.733333333333334,59.733333333333334-59.733333333333334c2.6368,0.0,5.239466666666667,0.2304,7.825066666666667,0.5717333333333333c0.6656,0.08533333333333333,1.3312,0.19626666666666667,1.9968000000000001,0.3072
		c2.2784,0.3754666666666666,4.522666666666667,0.8704,6.7328,1.5018666666666665c0.2986666666666667,0.08533333333333333,0.6058666666666666,0.14506666666666668,0.9045333333333333,0.2304c2.432,0.7424,4.804266666666666,1.6896,7.125333333333333,2.7392
		c0.5973333333333334,0.2730666666666667,1.1861333333333335,0.5632,1.7749333333333333,0.8533333333333334c2.0565333333333333,1.0154666666666665,4.070399999999999,2.1333333333333333,6.016,3.396266666666667C185.344,135.45813333333334,196.26666666666665,153.93280000000001,196.26666666666665,174.93333333333334c0.0,4.718933333333334,3.8229333333333333,8.533333333333333,8.533333333333333,8.533333333333333
		s8.533333333333333-3.8144,8.533333333333333-8.533333333333333c0.0-23.500799999999998-10.632533333333333-44.53546666666667-27.30666666666667-58.632533333333335C210.4832,84.3008,250.7776,64.0,290.85013333333336,64.0c66.09066666666666,0.0,120.9856,52.352,126.71146666666667,118.51093333333333
		c-8.721066666666667-0.6144-21.7856-0.9301333333333334-34.85013333333333,1.0581333333333334c-4.6592,0.7082666666666667-7.8592,5.060266666666666-7.150933333333333,9.719466666666667c0.64,4.224,4.2752,7.253333333333333,8.4224,7.253333333333333
		c0.4266666666666667,0.0,0.8618666666666667-0.034133333333333335,1.2970666666666666-0.1024c19.01226666666667-2.8672,38.8096-0.1792,39.97013333333334-0.017066666666666667C464.98986666666667,207.9744,494.93333333333334,244.57386666666667,494.93333333333334,285.62773333333337
		C494.93333333333334,332.8085333333333,456.54186666666664,371.2,409.36106666666666,371.2z"/>
	<path d="M256.0,302.93333333333334c-4.7104,0.0-8.533333333333333,3.8144-8.533333333333333,8.533333333333333v68.26666666666667c0.0,4.718933333333334,3.8229333333333333,8.533333333333333,8.533333333333333,8.533333333333333s8.533333333333333-3.8144,8.533333333333333-8.533333333333333v-68.26666666666667C264.5333333333333,306.7477333333334,260.7104,302.93333333333334,256.0,302.93333333333334z"/>
	<path d="M256.0,405.3333333333333c-4.7104,0.0-8.533333333333333,3.8144-8.533333333333333,8.533333333333333v8.533333333333333c0.0,4.718933333333334,3.8229333333333333,8.533333333333333,8.533333333333333,8.533333333333333s8.533333333333333-3.8144,8.533333333333333-8.533333333333333v-8.533333333333333C264.5333333333333,409.14773333333335,260.7104,405.3333333333333,256.0,405.3333333333333z"/>
</g>
<g>
</g>
<g>
</g>
<g>
</g>
<g>
</g>
<g>
</g>
<g>
</g>
<g>
</g>
<g>
</g>
<g>
</g>
<g>
</g>
<g>
</g>
<g>
</g>
<g>
</g>
<g>
</g>
<g>
</g>
</svg>
