<?xml version="1.0" encoding="iso-8859-1"?>
<!-- Generator: Adobe Illustrator 19.0.0, SVG Export Plug-In . SVG Version: 6.00 Build 0)  -->
<svg version="1.1" id="Capa_1" xmlns="http://www.w3.org/2000/svg" xmlns:xlink="http://www.w3.org/1999/xlink" x="0px" y="0px"
	 viewBox="0 0 512 512" style="enable-background:new 0 0 60 60;" xml:space="preserve">
<g>
	<path d="M434.9866666666667,180.85546666666664C430.4896,104.05546666666667,367.18080000000003,42.666666666666664,290.85013333333336,42.666666666666664c-46.336,0.0-91.20426666666667,22.724266666666665-119.00586666666666,59.8016c-0.64-0.3328-1.3226666666666667-0.5632-1.9712-0.8789333333333332
		c-1.6725333333333334-0.8106666666666666-3.3621333333333334-1.5786666666666667-5.094399999999999-2.2698666666666667c-1.0069333333333332-0.4010666666666667-2.030933333333333-0.7594666666666666-3.054933333333333-1.1178666666666668c-1.6810666666666667-0.5888-3.3877333333333333-1.1093333333333333-5.12-1.5786666666666667
		c-1.024-0.2730666666666667-2.0394666666666668-0.5546666666666666-3.072-0.7936c-1.8773333333333333-0.4266666666666667-3.7888-0.7509333333333332-5.717333333333333-1.0325333333333333c-0.8959999999999999-0.13653333333333334-1.7834666666666665-0.3072-2.688-0.4096
		C142.30186666666665,94.06293333333333,139.44320000000002,93.86666666666666,136.53333333333333,93.86666666666666c-42.3424,0.0-76.8,34.44906666666667-76.8,76.8c0.0,1.1008,0.06826666666666667,2.176,0.13653333333333334,3.2512C24.379733333333334,193.26293333333334,0.0,233.8048,0.0,274.3808
		C0.0,334.8224,49.169066666666666,384.0,109.61066666666667,384.0H153.6c4.7104,0.0,8.533333333333333-3.8144,8.533333333333333-8.533333333333333s-3.8229333333333333-8.533333333333333-8.533333333333333-8.533333333333333h-43.989333333333335C58.58133333333333,366.93333333333334,17.066666666666666,325.41866666666664,17.066666666666666,274.3808
		C17.066666666666666,238.93333333333334,40.14933333333333,202.1376,71.95306666666667,186.88853333333333L76.8,184.576V179.2c0.0-1.0495999999999999,0.06826666666666667-2.1248,0.128-3.2l0.0768-1.4762666666666666L76.9024,172.8C76.8512,172.09173333333334,76.8,171.38346666666666,76.8,170.66666666666666
		c0.0-32.93013333333333,26.794666666666668-59.733333333333334,59.733333333333334-59.733333333333334c2.6368,0.0,5.239466666666667,0.2304,7.825066666666667,0.5717333333333333c0.6656,0.08533333333333333,1.3312,0.19626666666666667,1.9968000000000001,0.3072c2.2784,0.3754666666666666,4.522666666666667,0.8704,6.7328,1.5018666666666665
		c0.2986666666666667,0.08533333333333333,0.6058666666666666,0.14506666666666668,0.9045333333333333,0.2304c2.432,0.7424,4.804266666666666,1.6896,7.125333333333333,2.7392c0.5973333333333334,0.2730666666666667,1.1861333333333335,0.5632,1.7749333333333333,0.8533333333333334
		c2.0565333333333333,1.0154666666666665,4.070399999999999,2.1333333333333333,6.016,3.396266666666667C185.344,131.19146666666666,196.26666666666665,149.66613333333333,196.26666666666665,170.66666666666666c0.0,4.718933333333334,3.8229333333333333,8.533333333333333,8.533333333333333,8.533333333333333s8.533333333333333-3.8144,8.533333333333333-8.533333333333333c0.0-23.500799999999998-10.632533333333333-44.53546666666667-27.30666666666667-58.632533333333335
		C210.4832,80.03413333333333,250.7776,59.733333333333334,290.85013333333336,59.733333333333334c66.08213333333333,0.0,120.9856,52.352,126.70293333333333,118.50240000000001c-8.721066666666667-0.6144-21.7856-0.9301333333333334-34.8416,1.0581333333333334
		c-4.6592,0.7082666666666667-7.8592,5.060266666666666-7.150933333333333,9.719466666666667c0.64,4.224,4.2752,7.253333333333333,8.4224,7.253333333333333c0.4266666666666667,0.0,0.8618666666666667-0.034133333333333335,1.2970666666666666-0.1024
		c18.978133333333336-2.8672,38.766933333333334-0.1792,39.97013333333334-0.017066666666666667C464.98133333333334,203.70773333333332,494.93333333333334,240.3072,494.93333333333334,281.36106666666666C494.93333333333334,328.54186666666664,456.54186666666664,366.93333333333334,409.36106666666666,366.93333333333334H375.46666666666664c-4.7104,0.0-8.533333333333333,3.8144-8.533333333333333,8.533333333333333
		s3.8229333333333333,8.533333333333333,8.533333333333333,8.533333333333333h33.8944C465.95413333333335,384.0,512.0,337.95413333333335,512.0,281.36106666666666C512.0,234.5216,479.34293333333335,192.512,434.9866666666667,180.85546666666664z"/>
	<path d="M349.8666666666667,366.93333333333334c-4.7104,0.0-8.533333333333333,3.8144-8.533333333333333,8.533333333333333c0.0,42.35093333333333-34.4576,76.8-76.8,76.8s-76.8-34.44906666666667-76.8-76.8s34.4576-76.8,76.8-76.8c25.6,0.0,48.44373333333333,12.8512,62.3872,34.13333333333333H273.06666666666666
		c-4.7104,0.0-8.533333333333333,3.8144-8.533333333333333,8.533333333333333s3.8229333333333333,8.533333333333333,8.533333333333333,8.533333333333333h68.26666666666667c0.017066666666666667,0.0,0.0256-0.008533333333333334,0.042666666666666665-0.008533333333333334c0.5973333333333334,0.0,1.1946666666666668-0.2304,1.7919999999999998-0.3584
		c0.512-0.11946666666666667,1.0666666666666667-0.128,1.5445333333333333-0.3328c0.017066666666666667-0.008533333333333334,0.034133333333333335,0.0,0.042666666666666665-0.008533333333333334c0.29013333333333335-0.128,0.47786666666666666-0.3669333333333333,0.7424-0.5205333333333333
		c0.6912-0.39253333333333335,1.3824-0.7936,1.9370666666666667-1.3568c0.3754666666666666-0.39253333333333335,0.5973333333333334-0.8789333333333332,0.8874666666666666-1.3226666666666667c0.3072-0.4693333333333333,0.6826666666666666-0.8874666666666666,0.8959999999999999-1.4165333333333334
		c0.29013333333333335-0.7168,0.3669333333333333-1.4933333333333332,0.4608-2.2613333333333334C349.71306666666663,341.94773333333336,349.8666666666667,341.66613333333333,349.8666666666667,341.3333333333333v-0.09386666666666665v-0.017066666666666667V273.06666666666666c0.0-4.718933333333334-3.8229333333333333-8.533333333333333-8.533333333333333-8.533333333333333s-8.533333333333333,3.8144-8.533333333333333,8.533333333333333v39.25333333333333
		c-17.18613333333333-19.38773333333333-41.50613333333333-30.72-68.26666666666667-30.72c-51.75466666666667,0.0-93.86666666666666,42.111999999999995-93.86666666666666,93.86666666666666s42.111999999999995,93.86666666666666,93.86666666666666,93.86666666666666s93.86666666666666-42.111999999999995,93.86666666666666-93.86666666666666C358.4,370.7477333333334,354.57706666666667,366.93333333333334,349.8666666666667,366.93333333333334z"/>
</g>
<g>
</g>
<g>
</g>
<g>
</g>
<g>
</g>
<g>
</g>
<g>
</g>
<g>
</g>
<g>
</g>
<g>
</g>
<g>
</g>
<g>
</g>
<g>
</g>
<g>
</g>
<g>
</g>
<g>
</g>
</svg>
