<?xml version="1.0" encoding="iso-8859-1"?>
<!-- Generator: Adobe Illustrator 19.0.0, SVG Export Plug-In . SVG Version: 6.00 Build 0)  -->
<svg version="1.1" id="Capa_1" xmlns="http://www.w3.org/2000/svg" xmlns:xlink="http://www.w3.org/1999/xlink" x="0px" y="0px"
	 viewBox="0 0 512 512" style="enable-background:new 0 0 60 60;" xml:space="preserve">
<g>
	<path d="M434.9866666666667,150.9888C430.4896,74.1888,367.18080000000003,12.8,290.85013333333336,12.8c-46.336,0.0-91.20426666666667,22.724266666666665-119.00586666666666,59.8016
		c-0.64-0.3328-1.3226666666666667-0.5632-1.9712-0.8789333333333332C168.2005333333333,70.912,166.51093333333336,70.144,164.77866666666665,69.4528c-1.0069333333333332-0.4010666666666667-2.030933333333333-0.7594666666666666-3.054933333333333-1.1178666666666668
		c-1.6810666666666667-0.5888-3.3877333333333333-1.1093333333333333-5.12-1.5786666666666667c-1.024-0.2730666666666667-2.0394666666666668-0.5546666666666666-3.072-0.7936c-1.8773333333333333-0.4266666666666667-3.7888-0.7509333333333332-5.717333333333333-1.0325333333333333
		c-0.8959999999999999-0.13653333333333334-1.7834666666666665-0.3072-2.688-0.4096C142.30186666666665,64.19626666666666,139.44320000000002,64.0,136.53333333333333,64.0c-42.3424,0.0-76.8,34.44906666666667-76.8,76.8c0.0,1.1008,0.06826666666666667,2.176,0.13653333333333334,3.2512
		C24.379733333333334,163.39626666666666,0.0,203.93813333333333,0.0,244.51413333333332C0.0,304.95573333333334,49.169066666666666,354.1333333333333,109.61066666666667,354.1333333333333H153.6c4.7104,0.0,8.533333333333333-3.8144,8.533333333333333-8.533333333333333s-3.8229333333333333-8.533333333333333-8.533333333333333-8.533333333333333h-43.989333333333335
		C58.58133333333333,337.06666666666666,17.066666666666666,295.55199999999996,17.066666666666666,244.51413333333332c0.0-35.447466666666664,23.082666666666668-72.24319999999999,54.8864-87.49226666666667L76.8,154.70933333333332V149.33333333333334c0.0-1.0495999999999999,0.06826666666666667-2.1248,0.128-3.2l0.0768-1.4762666666666666
		L76.9024,142.93333333333334C76.8512,142.2250666666667,76.8,141.5168,76.8,140.8c0.0-32.93013333333333,26.794666666666668-59.733333333333334,59.733333333333334-59.733333333333334c2.6368,0.0,5.239466666666667,0.2304,7.825066666666667,0.5717333333333333
		c0.6656,0.08533333333333333,1.3312,0.19626666666666667,1.9968000000000001,0.3072c2.2784,0.3754666666666666,4.522666666666667,0.8704,6.7328,1.5018666666666665c0.2986666666666667,0.08533333333333333,0.6058666666666666,0.14506666666666668,0.9045333333333333,0.2304
		c2.432,0.7424,4.804266666666666,1.6896,7.125333333333333,2.7392c0.5973333333333334,0.2730666666666667,1.1861333333333335,0.5632,1.7749333333333333,0.8533333333333334c2.0565333333333333,1.0154666666666665,4.070399999999999,2.1333333333333333,6.016,3.396266666666667
		C185.344,101.32480000000001,196.26666666666665,119.79946666666666,196.26666666666665,140.8c0.0,4.718933333333334,3.8229333333333333,8.533333333333333,8.533333333333333,8.533333333333333s8.533333333333333-3.8144,8.533333333333333-8.533333333333333c0.0-23.500799999999998-10.632533333333333-44.53546666666667-27.30666666666667-58.632533333333335
		C210.4832,50.16746666666666,250.7776,29.866666666666667,290.85013333333336,29.866666666666667c66.08213333333333,0.0,120.97706666666666,52.352,126.70293333333333,118.50240000000001c-8.721066666666667-0.6144-21.7856-0.9301333333333334-34.8416,1.0666666666666667
		c-4.6592,0.7082666666666667-7.8592,5.060266666666666-7.150933333333333,9.719466666666667c0.64,4.224,4.2752,7.253333333333333,8.4224,7.253333333333333c0.4266666666666667,0.0,0.8618666666666667-0.034133333333333335,1.2970666666666666-0.1024
		c18.978133333333336-2.8672,38.766933333333334-0.1792,39.97013333333334-0.017066666666666667C464.98133333333334,173.84106666666668,494.93333333333334,210.44053333333335,494.93333333333334,251.4944C494.93333333333334,298.67519999999996,456.54186666666664,337.06666666666666,409.36106666666666,337.06666666666666H375.46666666666664
		c-4.7104,0.0-8.533333333333333,3.8144-8.533333333333333,8.533333333333333s3.8229333333333333,8.533333333333333,8.533333333333333,8.533333333333333h33.8944C465.95413333333335,354.1333333333333,512.0,308.08746666666667,512.0,251.4944C512.0,204.65493333333333,479.34293333333335,162.64533333333333,434.9866666666667,150.9888z"/>
	<path d="M336.6229333333333,405.6234666666667C350.1994666666667,389.34186666666665,358.4,368.41813333333334,358.4,345.6c0.0-51.75466666666667-42.111999999999995-93.86666666666666-93.86666666666666-93.86666666666666s-93.86666666666666,42.111999999999995-93.86666666666666,93.86666666666666s42.111999999999995,93.86666666666666,93.86666666666666,93.86666666666666
		c22.8096,0.0,43.733333333333334-8.192,60.023466666666664-21.777066666666666l79.01013333333333,79.01013333333333C405.2309333333333,498.36373333333336,407.41546666666665,499.2,409.6,499.2s4.369066666666667-0.8362666666666667,6.033066666666667-2.5002666666666666
		c3.3365333333333336-3.3365333333333336,3.3365333333333336-8.7296,0.0-12.066133333333333L336.6229333333333,405.6234666666667z M264.5333333333333,422.4c-42.3424,0.0-76.8-34.44906666666667-76.8-76.8s34.4576-76.8,76.8-76.8s76.8,34.44906666666667,76.8,76.8S306.87573333333336,422.4,264.5333333333333,422.4z"/>
</g>
<g>
</g>
<g>
</g>
<g>
</g>
<g>
</g>
<g>
</g>
<g>
</g>
<g>
</g>
<g>
</g>
<g>
</g>
<g>
</g>
<g>
</g>
<g>
</g>
<g>
</g>
<g>
</g>
<g>
</g>
</svg>
