<?xml version="1.0" encoding="iso-8859-1"?>
<!-- Generator: Adobe Illustrator 19.0.0, SVG Export Plug-In . SVG Version: 6.00 Build 0)  -->
<svg version="1.1" id="Capa_1" xmlns="http://www.w3.org/2000/svg" xmlns:xlink="http://www.w3.org/1999/xlink" x="0px" y="0px"
	 viewBox="0 0 512 512" style="enable-background:new 0 0 59 59;" xml:space="preserve">
<g>
	<path d="M264.6779661016949,78.31864406779661V68.19145762711864c14.93477966101695-3.879050847457627,26.033898305084747-17.347254237288137,26.033898305084747-33.479593220338984c0.0-19.143593220338982-15.568271186440679-34.71186440677966-34.71186440677966-34.71186440677966s-34.71186440677966,15.568271186440679-34.71186440677966,34.71186440677966c0.0,16.132338983050847,11.099118644067795,29.600542372881357,26.033898305084747,33.479593220338984v10.127186440677967
		C131.70549152542372,82.90061016949153,39.05084745762712,178.3322033898305,39.05084745762712,295.0508474576271c0.0,119.62576271186441,97.32338983050848,216.94915254237287,216.94915254237287,216.94915254237287s216.94915254237287-97.32338983050848,216.94915254237287-216.94915254237287C472.9491525423729,178.3322033898305,380.2945084745763,82.90061016949153,264.6779661016949,78.31864406779661z M238.64406779661016,34.71186440677966
		c0.0-9.571796610169491,7.7841355932203395-17.35593220338983,17.35593220338983-17.35593220338983s17.35593220338983,7.7841355932203395,17.35593220338983,17.35593220338983s-7.7841355932203395,17.35593220338983-17.35593220338983,17.35593220338983S238.64406779661016,44.283661016949154,238.64406779661016,34.71186440677966z M256.0,494.64406779661016c-110.06264406779661,0.0-199.59322033898306-89.53057627118645-199.59322033898306-199.59322033898306s89.53057627118645-199.59322033898306,199.59322033898306-199.59322033898306
		s199.59322033898306,89.53057627118645,199.59322033898306,199.59322033898306S366.0626440677966,494.64406779661016,256.0,494.64406779661016z"/>
	<path d="M362.5654237288136,176.839593220339l-147.2650847457627,73.63254237288135c-0.2256271186440678,0.1128135593220339-0.35579661016949155,0.34711864406779663-0.5727457627118644,0.4859661016949153c-0.5901016949152543,0.35579661016949155-1.0413559322033898,0.8070508474576271-1.5359999999999998,1.2930169491525423
		c-0.4859661016949153,0.4859661016949153-0.9372203389830508,0.9458983050847457-1.2930169491525423,1.5359999999999998c-0.13016949152542373,0.2169491525423729-0.36447457627118646,0.34711864406779663-0.4859661016949153,0.5727457627118644l-73.63254237288135,147.2650847457627c-1.6661694915254237,3.3410169491525425-1.015322033898305,7.376271186440678,1.631457627118644,10.014372881355932
		c1.6661694915254237,1.6661694915254237,3.887728813559322,2.5426440677966102,6.135322033898305,2.5426440677966102c1.319050847457627,0.0,2.646779661016949-0.29505084745762716,3.879050847457627-0.9111864406779661l147.2650847457627-73.63254237288135c0.2256271186440678-0.1128135593220339,0.35579661016949155-0.34711864406779663,0.5727457627118644-0.4859661016949153
		c0.5901016949152543-0.35579661016949155,1.0413559322033898-0.8070508474576271,1.5359999999999998-1.2930169491525423c0.4859661016949153-0.4859661016949153,0.9372203389830508-0.9458983050847457,1.2930169491525423-1.5359999999999998c0.13016949152542373-0.2169491525423729,0.36447457627118646-0.34711864406779663,0.4859661016949153-0.5727457627118644l73.63254237288135-147.2650847457627
		c1.6661694915254237-3.3410169491525425,1.015322033898305-7.376271186440678-1.631457627118644-10.014372881355932S365.9151186440678,175.17342372881356,362.5654237288136,176.839593220339z M164.95945762711864,386.0913898305085l56.60637288135593-113.20406779661018l56.589016949152544,56.589016949152544L164.95945762711864,386.0913898305085z
		 M290.43416949152544,317.2143728813559l-56.589016949152544-56.589016949152544l113.20406779661018-56.60637288135593L290.43416949152544,317.2143728813559z"/>
</g>
<g>
</g>
<g>
</g>
<g>
</g>
<g>
</g>
<g>
</g>
<g>
</g>
<g>
</g>
<g>
</g>
<g>
</g>
<g>
</g>
<g>
</g>
<g>
</g>
<g>
</g>
<g>
</g>
<g>
</g>
</svg>
