<?xml version="1.0" encoding="iso-8859-1"?>
<!-- Generator: Adobe Illustrator 19.0.0, SVG Export Plug-In . SVG Version: 6.00 Build 0)  -->
<svg version="1.1" id="Capa_1" xmlns="http://www.w3.org/2000/svg" xmlns:xlink="http://www.w3.org/1999/xlink" x="0px" y="0px"
	 viewBox="0 0 512 512" style="enable-background:new 0 0 60 60;" xml:space="preserve">
<g>
	<path d="M256.0,0.0C114.8416,0.0,0.0,114.8416,0.0,256.0s114.8416,256.0,256.0,256.0s256.0-114.8416,256.0-256.0S397.15840000000003,0.0,256.0,0.0z M256.0,494.93333333333334C124.25386666666667,494.93333333333334,17.066666666666666,387.7461333333333,17.066666666666666,256.0
		S124.25386666666667,17.066666666666666,256.0,17.066666666666666s238.93333333333334,107.1872,238.93333333333334,238.93333333333334S387.7461333333333,494.93333333333334,256.0,494.93333333333334z"/>
	<path d="M197.67466666666667,72.18346666666666c4.5824-1.1093333333333333,7.406933333333333-5.717333333333333,6.306133333333333-10.2912c-1.1008-4.5824-5.717333333333333-7.389866666666666-10.2912-6.306133333333333
		c-33.57866666666666,8.072533333333332-64.18773333333334,25.216-88.54186666666666,49.57013333333333S63.65866666666667,160.11946666666665,55.586133333333336,193.6896c-1.1008,4.5738666666666665,1.7237333333333333,9.181866666666668,6.306133333333333,10.2912
		c0.6656,0.16213333333333332,1.3397333333333332,0.2304,1.9968000000000001,0.2304c3.8485333333333336,0.0,7.3472-2.6282666666666668,8.2944-6.545066666666667c7.330133333333333-30.506666666666668,22.912-58.333866666666665,45.0304-80.4608
		S167.168,79.5136,197.67466666666667,72.18346666666666z"/>
	<path d="M450.10773333333333,308.01919999999996c-4.590933333333334-1.1008-9.1904,1.7152-10.2912,6.306133333333333c-7.330133333333333,30.506666666666668-22.912,58.333866666666665-45.0304,80.4608s-49.95413333333333,37.700266666666664-80.46933333333332,45.0304
		c-4.5824,1.1093333333333333-7.406933333333333,5.717333333333333-6.306133333333333,10.2912c0.9386666666666666,3.9168000000000003,4.445866666666666,6.545066666666667,8.2944,6.545066666666667c0.6570666666666667,0.0,1.3312-0.0768,1.9968000000000001-0.2304
		c33.587199999999996-8.072533333333332,64.19626666666666-25.216,88.55040000000001-49.57013333333333s41.489066666666666-54.9632,49.57013333333333-88.54186666666666C457.5146666666667,313.73653333333334,454.69013333333334,309.12853333333334,450.10773333333333,308.01919999999996z"/>
	<path d="M208.65706666666668,113.37386666666666c4.590933333333334-1.0666666666666667,7.4496-5.6576,6.3744-10.24c-1.0666666666666667-4.590933333333334-5.674666666666667-7.492266666666667-10.24-6.3744c-26.368,6.144-50.3808,19.473066666666668-69.46986666666666,38.57066666666666
		c-19.089066666666668,19.080533333333335-32.42666666666666,43.101866666666666-38.57066666666666,69.46986666666666c-1.0752,4.5824,1.7834666666666665,9.173333333333332,6.3744,10.24c0.6485333333333333,0.16213333333333332,1.2970666666666666,0.22186666666666666,1.9456,0.22186666666666666
		c3.8741333333333334,0.0,7.381333333333333-2.6624,8.302933333333334-6.596266666666667c5.418666666666667-23.253333333333334,17.18613333333333-44.43306666666666,34.013866666666665-61.26933333333333S185.41226666666668,118.79253333333332,208.65706666666668,113.37386666666666z"/>
	<path d="M415.24053333333336,307.2085333333333c1.0752-4.5824-1.7834666666666665-9.173333333333332-6.3744-10.24c-4.590933333333334-1.1349333333333333-9.173333333333332,1.7834666666666665-10.24,6.3744
		c-5.418666666666667,23.253333333333334-17.18613333333333,44.43306666666666-34.013866666666665,61.26933333333333s-38.016,28.60373333333333-61.26933333333333,34.013866666666665c-4.590933333333334,1.0666666666666667-7.4496,5.6576-6.3744,10.24
		c0.9130666666666666,3.9424,4.4288,6.596266666666667,8.302933333333334,6.596266666666667c0.64,0.0,1.2885333333333333-0.06826666666666667,1.9456-0.22186666666666666c26.368-6.144,50.3808-19.473066666666668,69.46986666666666-38.57066666666666
		C395.7674666666666,357.58933333333334,409.09653333333335,333.5765333333333,415.24053333333336,307.2085333333333z"/>
	<path d="M226.09066666666666,144.42666666666668c-1.0154666666666665-4.616533333333334-5.572266666666667-7.5008-10.154666666666666-6.510933333333333c-38.8864,8.507733333333332-69.51253333333334,39.13386666666667-78.02026666666667,78.02026666666667
		c-1.0069333333333332,4.599466666666667,1.9114666666666666,9.147733333333333,6.510933333333333,10.154666666666666c0.6144,0.13653333333333334,1.2288,0.19626666666666667,1.8346666666666667,0.19626666666666667c3.9253333333333336,0.0,7.4496-2.7136,8.328533333333333-6.7072
		c7.0912-32.39253333333333,32.60586666666667-57.907199999999996,64.9984-64.9984C224.1792,153.5744,227.0976,149.02613333333332,226.09066666666666,144.42666666666668z"/>
	<path d="M374.0842666666667,296.064c1.0069333333333332-4.599466666666667-1.9114666666666666-9.147733333333333-6.510933333333333-10.154666666666666c-4.6080000000000005-1.0069333333333332-9.147733333333333,1.8944-10.154666666666666,6.510933333333333
		c-7.0912,32.39253333333333-32.60586666666667,57.907199999999996-64.9984,64.9984c-4.599466666666667,1.0069333333333332-7.5178666666666665,5.5552-6.510933333333333,10.154666666666666c0.8789333333333332,3.9936000000000003,4.4032,6.7072,8.328533333333333,6.7072
		c0.6058666666666666,0.0,1.2202666666666666-0.06826666666666667,1.8346666666666667-0.19626666666666667C334.9504,365.5765333333333,365.5765333333333,334.9504,374.0842666666667,296.064z"/>
	<path d="M324.9493333333333,256.0c0.0-38.016-30.933333333333334-68.94933333333333-68.94933333333333-68.94933333333333s-68.94933333333333,30.933333333333334-68.94933333333333,68.94933333333333s30.933333333333334,68.94933333333333,68.94933333333333,68.94933333333333S324.9493333333333,294.01599999999996,324.9493333333333,256.0z M256.0,307.88266666666664
		c-28.612266666666667,0.0-51.882666666666665-23.278933333333335-51.882666666666665-51.882666666666665s23.278933333333335-51.882666666666665,51.882666666666665-51.882666666666665s51.882666666666665,23.278933333333335,51.882666666666665,51.882666666666665S284.6122666666667,307.88266666666664,256.0,307.88266666666664z"/>
</g>
<g>
</g>
<g>
</g>
<g>
</g>
<g>
</g>
<g>
</g>
<g>
</g>
<g>
</g>
<g>
</g>
<g>
</g>
<g>
</g>
<g>
</g>
<g>
</g>
<g>
</g>
<g>
</g>
<g>
</g>
</svg>
