<?xml version="1.0" encoding="iso-8859-1"?>
<!-- Generator: Adobe Illustrator 19.0.0, SVG Export Plug-In . SVG Version: 6.00 Build 0)  -->
<svg version="1.1" id="Capa_1" xmlns="http://www.w3.org/2000/svg" xmlns:xlink="http://www.w3.org/1999/xlink" x="0px" y="0px"
	 viewBox="0 0 512 512" style="enable-background:new 0 0 54 54;" xml:space="preserve">
<g>
	<path d="M123.25925925925925,341.3333333333333H85.33333333333333V9.481481481481481c0.0-5.2432592592592595-4.247703703703704-9.481481481481481-9.481481481481481-9.481481481481481S66.37037037037037,4.238222222222222,66.37037037037037,9.481481481481481v331.85185185185185H28.444444444444443c-5.233777777777778,0.0-9.481481481481481,4.238222222222222-9.481481481481481,9.481481481481481v113.77777777777777c0.0,5.2432592592592595,4.247703703703704,9.481481481481481,9.481481481481481,9.481481481481481h37.925925925925924v28.444444444444443c0.0,5.2432592592592595,4.247703703703704,9.481481481481481,9.481481481481481,9.481481481481481
		s9.481481481481481-4.238222222222222,9.481481481481481-9.481481481481481v-28.444444444444443h37.925925925925924c5.233777777777778,0.0,9.481481481481481-4.238222222222222,9.481481481481481-9.481481481481481V350.8148148148148C132.74074074074073,345.57155555555556,128.49303703703703,341.3333333333333,123.25925925925925,341.3333333333333z M113.77777777777777,455.1111111111111H37.925925925925924V360.2962962962963h75.85185185185185V455.1111111111111z"/>
	<path d="M303.4074074074074,189.62962962962962h-37.925925925925924V9.481481481481481c0.0-5.2432592592592595-4.247703703703704-9.481481481481481-9.481481481481481-9.481481481481481s-9.481481481481481,4.238222222222222-9.481481481481481,9.481481481481481v180.14814814814815h-37.925925925925924c-5.233777777777778,0.0-9.481481481481481,4.238222222222222-9.481481481481481,9.481481481481481v113.77777777777777c0.0,5.2432592592592595,4.247703703703704,9.481481481481481,9.481481481481481,9.481481481481481h37.925925925925924v180.14814814814815
		c0.0,5.2432592592592595,4.247703703703704,9.481481481481481,9.481481481481481,9.481481481481481s9.481481481481481-4.238222222222222,9.481481481481481-9.481481481481481V322.3703703703703h37.925925925925924c5.233777777777778,0.0,9.481481481481481-4.238222222222222,9.481481481481481-9.481481481481481V199.1111111111111C312.88888888888886,193.86785185185184,308.6411851851852,189.62962962962962,303.4074074074074,189.62962962962962z M293.9259259259259,303.4074074074074h-75.85185185185185V208.59259259259258h75.85185185185185V303.4074074074074z"/>
	<path d="M483.55555555555554,37.925925925925924h-37.925925925925924V9.481481481481481c0.0-5.2432592592592595-4.247703703703704-9.481481481481481-9.481481481481481-9.481481481481481s-9.481481481481481,4.238222222222222-9.481481481481481,9.481481481481481v28.444444444444443h-37.925925925925924c-5.233777777777778,0.0-9.481481481481481,4.238222222222222-9.481481481481481,9.481481481481481v113.77777777777777c0.0,5.2432592592592595,4.247703703703704,9.481481481481481,9.481481481481481,9.481481481481481h37.925925925925924v331.85185185185185c0.0,5.2432592592592595,4.247703703703704,9.481481481481481,9.481481481481481,9.481481481481481
		s9.481481481481481-4.238222222222222,9.481481481481481-9.481481481481481V170.66666666666666h37.925925925925924c5.233777777777778,0.0,9.481481481481481-4.238222222222222,9.481481481481481-9.481481481481481V47.407407407407405C493.037037037037,42.16414814814814,488.7893333333333,37.925925925925924,483.55555555555554,37.925925925925924z M474.074074074074,151.7037037037037h-75.85185185185185V56.888888888888886h75.85185185185185V151.7037037037037z"/>
</g>
<g>
</g>
<g>
</g>
<g>
</g>
<g>
</g>
<g>
</g>
<g>
</g>
<g>
</g>
<g>
</g>
<g>
</g>
<g>
</g>
<g>
</g>
<g>
</g>
<g>
</g>
<g>
</g>
<g>
</g>
</svg>
