<?xml version="1.0" encoding="iso-8859-1"?>
<!-- Generator: Adobe Illustrator 19.0.0, SVG Export Plug-In . SVG Version: 6.00 Build 0)  -->
<svg version="1.1" id="Capa_1" xmlns="http://www.w3.org/2000/svg" xmlns:xlink="http://www.w3.org/1999/xlink" x="0px" y="0px"
	 viewBox="0 0 512 512" style="enable-background:new 0 0 54 54;" xml:space="preserve">
<g>
	<path d="M9.481481481481481,85.33333333333333h28.444444444444443v37.925925925925924c0.0,5.2432592592592595,4.238222222222222,9.481481481481481,9.481481481481481,9.481481481481481h113.77777777777777c5.2432592592592595,0.0,9.481481481481481-4.238222222222222,9.481481481481481-9.481481481481481V85.33333333333333h331.85185185185185c5.2432592592592595,0.0,9.481481481481481-4.238222222222222,9.481481481481481-9.481481481481481s-4.238222222222222-9.481481481481481-9.481481481481481-9.481481481481481H170.66666666666666V28.444444444444443c0.0-5.2432592592592595-4.238222222222222-9.481481481481481-9.481481481481481-9.481481481481481H47.407407407407405
		C42.16414814814814,18.962962962962962,37.925925925925924,23.201185185185185,37.925925925925924,28.444444444444443v37.925925925925924H9.481481481481481C4.238222222222222,66.37037037037037,0.0,70.60859259259259,0.0,75.85185185185185S4.238222222222222,85.33333333333333,9.481481481481481,85.33333333333333z M56.888888888888886,37.925925925925924h94.81481481481481v75.85185185185185H56.888888888888886V37.925925925925924z"/>
	<path d="M502.5185185185185,246.5185185185185H322.3703703703703v-37.925925925925924c0.0-5.2432592592592595-4.238222222222222-9.481481481481481-9.481481481481481-9.481481481481481H199.1111111111111c-5.2432592592592595,0.0-9.481481481481481,4.238222222222222-9.481481481481481,9.481481481481481v37.925925925925924H9.481481481481481c-5.2432592592592595,0.0-9.481481481481481,4.238222222222222-9.481481481481481,9.481481481481481s4.238222222222222,9.481481481481481,9.481481481481481,9.481481481481481h180.14814814814815v37.925925925925924c0.0,5.2432592592592595,4.238222222222222,9.481481481481481,9.481481481481481,9.481481481481481
		h113.77777777777777c5.2432592592592595,0.0,9.481481481481481-4.238222222222222,9.481481481481481-9.481481481481481v-37.925925925925924h180.14814814814815c5.2432592592592595,0.0,9.481481481481481-4.238222222222222,9.481481481481481-9.481481481481481S507.76177777777775,246.5185185185185,502.5185185185185,246.5185185185185z M303.4074074074074,293.9259259259259H208.59259259259258v-75.85185185185185h94.81481481481481V293.9259259259259z"/>
	<path d="M502.5185185185185,426.66666666666663h-28.444444444444443v-37.925925925925924c0.0-5.2432592592592595-4.238222222222222-9.481481481481481-9.481481481481481-9.481481481481481H350.8148148148148c-5.2432592592592595,0.0-9.481481481481481,4.238222222222222-9.481481481481481,9.481481481481481v37.925925925925924H9.481481481481481c-5.2432592592592595,0.0-9.481481481481481,4.238222222222222-9.481481481481481,9.481481481481481s4.238222222222222,9.481481481481481,9.481481481481481,9.481481481481481h331.85185185185185v37.925925925925924c0.0,5.2432592592592595,4.238222222222222,9.481481481481481,9.481481481481481,9.481481481481481
		h113.77777777777777c5.2432592592592595,0.0,9.481481481481481-4.238222222222222,9.481481481481481-9.481481481481481v-37.925925925925924h28.444444444444443c5.2432592592592595,0.0,9.481481481481481-4.238222222222222,9.481481481481481-9.481481481481481S507.76177777777775,426.66666666666663,502.5185185185185,426.66666666666663z M455.1111111111111,474.074074074074H360.2962962962963v-75.85185185185185h94.81481481481481V474.074074074074z"/>
</g>
<g>
</g>
<g>
</g>
<g>
</g>
<g>
</g>
<g>
</g>
<g>
</g>
<g>
</g>
<g>
</g>
<g>
</g>
<g>
</g>
<g>
</g>
<g>
</g>
<g>
</g>
<g>
</g>
<g>
</g>
</svg>
