<?xml version="1.0" encoding="iso-8859-1"?>
<!-- Generator: Adobe Illustrator 19.0.0, SVG Export Plug-In . SVG Version: 6.00 Build 0)  -->
<svg version="1.1" id="Capa_1" xmlns="http://www.w3.org/2000/svg" xmlns:xlink="http://www.w3.org/1999/xlink" x="0px" y="0px"
	 viewBox="0 0 512 512" style="enable-background:new 0 0 59.986 59.986;" xml:space="preserve">
<path d="M511.880505451272,172.10629146800923c0.05974727436401828-0.34994832127496417,0.09388857400060013-0.6913613176407829,0.11095922381889108-1.0498449638248926c0.017070649818290935-0.41823092054812794,0.008535324909145468-0.8193911912779649-0.025605974727436403-1.2376221118260926
	c-0.03414129963658187-0.35848364618410966-0.08535324909145468-0.6998966425499283-0.17070649818290937-1.0498449638248926c-0.09388857400060013-0.40969559563898245-0.22191844763778215-0.8023205414596739-0.37555429600240053-1.1949454872803655c-0.0768179241823092-0.20484779781949122-0.09388857400060013-0.41823092054812794-0.18777714800120027-0.6145433934584736
	c-0.06828259927316374-0.14510052345547295-0.18777714800120027-0.25605974727436404-0.26459507218350947-0.40116027072983695c-0.0768179241823092-0.14510052345547295-0.11095922381889108-0.2987363718200914-0.19631247291034576-0.4438368952755643l-85.35324909145467-136.56519854632748c-0.3926249458206915-0.6230787183676191-0.8535324909145467-1.18641016237122-1.3741873103724203-1.681459007101657
	c-0.008535324909145468-0.008535324909145468-0.017070649818290935-0.008535324909145468-0.025605974727436403-0.017070649818290935c-0.7340379421865102-0.6913613176407829-1.6046410829193478-1.18641016237122-2.5349914980162036-1.5790351081919114c-0.11949454872803655-0.051211949454872806-0.19631247291034576-0.1536358483646184-0.32434234654752775-0.20484779781949122
	c-0.09388857400060013-0.03414129963658187-0.19631247291034576-0.017070649818290935-0.2902010469109459-0.04267662454572734c-0.8620678158236923-0.2902010469109459-1.7497416063748208-0.48651351982129165-2.680092021471677-0.48651351982129165h-324.34234654752777c-0.9218150901877105,0.0-1.8009535558296936,0.19631247291034576-2.645950721835095,0.4779781949121462
	c-0.09388857400060013,0.025605974727436403-0.18777714800120027,0.008535324909145468-0.27313039709265496,0.04267662454572734c-0.12802987363718202,0.04267662454572734-0.20484779781949122,0.14510052345547295-0.32434234654752775,0.19631247291034576c-0.8876737905511286,0.3670189710932551-1.7241356316473846,0.8449971660054013-2.449638248924749,1.4936818591004568
	c-0.04267662454572734,0.04267662454572734-0.10242389890974561,0.06828259927316374-0.14510052345547295,0.10242389890974561c-0.5291901443670189,0.49504884473043714-0.9986330143700197,1.0669156136431834-1.3912579601907114,1.6899943320108026l-85.35324909145467,136.56519854632748c-0.08535324909145468,0.13656519854632748-0.11949454872803655,0.2987363718200914-0.19631247291034576,0.4438368952755643
	c-0.0768179241823092,0.14510052345547295-0.19631247291034576,0.25605974727436404-0.26459507218350947,0.40116027072983695c-0.09388857400060013,0.19631247291034576-0.11095922381889108,0.40969559563898245-0.19631247291034576,0.6145433934584736c-0.1536358483646184,0.3926249458206915-0.28166572200180046,0.785249891641383-0.37555429600240053,1.1949454872803655
	c-0.0768179241823092,0.34994832127496417-0.13656519854632748,0.6998966425499283-0.17070649818290937,1.0583802887340379C0.0,170.23705531290636-0.008535324909145468,170.64675090854533,0.008535324909145468,171.05644650418432c0.017070649818290935,0.35848364618410966,0.051211949454872806,0.6998966425499283,0.11095922381889108,1.0498449638248926
	c0.06828259927316374,0.40969559563898245,0.17924182309205483,0.8108558663688195,0.31580702163838226,1.2120161370986562c0.11095922381889108,0.33287767145667324,0.23045377254692762,0.6572200180042009,0.384089620911546,0.9815623645517288c0.0768179241823092,0.1536358483646184,0.10242389890974561,0.32434234654752775,0.18777714800120027,0.4779781949121462
	c0.13656519854632748,0.24752442236521857,0.34141299636581873,0.4353015703664188,0.49504884473043714,0.6657553429133465c0.11949454872803655,0.17924182309205483,0.18777714800120027,0.37555429600240053,0.33287767145667324,0.5462607941853099l247.43053379121795,307.15220218050877c0.017070649818290935,0.025605974727436403,0.03414129963658187,0.04267662454572734,0.051211949454872806,0.05974727436401828
	l0.04267662454572734,0.05974727436401828c0.025605974727436403,0.03414129963658187,0.06828259927316374,0.04267662454572734,0.09388857400060013,0.0768179241823092c0.6998966425499283,0.8449971660054013,1.570499783282766,1.4851465341913113,2.517920848197913,1.9972660287400394c0.25605974727436404,0.13656519854632748,0.49504884473043714,0.25605974727436404,0.7596439169139466,0.3670189710932551
	c1.0327743140066015,0.4353015703664188,2.1252959023772213,0.7425732670956556,3.269029440202714,0.7425732670956556c0.9730270396425833,0.0,1.9545894041943122-0.17070649818290937,2.9276164438368957-0.5206548194578735c0.14510052345547295-0.051211949454872806,0.2389890974560731-0.17070649818290937,0.384089620911546-0.23045377254692762
	c0.4353015703664188-0.17924182309205483,0.7767145667322375-0.4694428700030007,1.1693395125529291-0.7169672923682193c0.6486846930950555-0.40969559563898245,1.2546927616443837-0.8364618410962559,1.7582769312839661-1.3912579601907114c0.11949454872803655-0.12802987363718202,0.2987363718200914-0.18777714800120027,0.40969559563898245-0.32434234654752775l247.52442236521856-307.27169672923685
	c0.13656519854632748-0.17070649818290937,0.20484779781949122-0.37555429600240053,0.33287767145667324-0.5462607941853099c0.16217117327376387-0.23045377254692762,0.35848364618410966-0.41823092054812794,0.49504884473043714-0.6657553429133465c0.08535324909145468-0.1536358483646184,0.11095922381889108-0.32434234654752775,0.18777714800120027-0.4779781949121462
	c0.1536358483646184-0.32434234654752775,0.27313039709265496-0.6401493681859101,0.384089620911546-0.9815623645517288C511.6927283032708,172.91714733437803,511.8122228519988,172.52452238855733,511.880505451272,172.10629146800923z M273.94125295902376,42.61687727136332h131.94758777047977l-41.48167905844697,111.34331343980263L273.94125295902376,42.61687727136332z
	 M349.0265061847765,162.11142599939984H162.98202914013268L256.0,47.62711299303171L349.0265061847765,162.11142599939984z M146.99536558530326,154.7027639782616L106.03434134631414,42.61687727136332h132.03294101957124L146.99536558530326,154.7027639782616z M355.00976894608743,179.1820758176908
	L254.50631814089957,448.9495548961424L155.93185076517852,179.1820758176908H355.00976894608743z M420.11722735304903,53.31163938252259l68.00093355116194,108.80832194178642H379.5829693595172L420.11722735304903,53.31163938252259z M91.80595472276865,53.42259860634148l39.71486680225386,108.68882739305839H23.88183909578902
	L91.80595472276865,53.42259860634148z M137.76014403360784,179.1820758176908l92.51438669022772,253.19187810489117L26.314406694895478,179.1820758176908H137.76014403360784z M276.4591738072217,438.91201280298736l96.76497849498216-259.72993698529655h112.46144100290068L276.4591738072217,438.91201280298736z"/>
<g>
</g>
<g>
</g>
<g>
</g>
<g>
</g>
<g>
</g>
<g>
</g>
<g>
</g>
<g>
</g>
<g>
</g>
<g>
</g>
<g>
</g>
<g>
</g>
<g>
</g>
<g>
</g>
<g>
</g>
</svg>
