<?xml version="1.0" encoding="iso-8859-1"?>
<!-- Generator: Adobe Illustrator 19.0.0, SVG Export Plug-In . SVG Version: 6.00 Build 0)  -->
<svg version="1.1" id="Capa_1" xmlns="http://www.w3.org/2000/svg" xmlns:xlink="http://www.w3.org/1999/xlink" x="0px" y="0px"
	 viewBox="0 0 512 512" style="enable-background:new 0 0 58 58;" xml:space="preserve">
<g>
	<path d="M357.51724137931035,0.0v17.655172413793103h-247.17241379310343c-24.337655172413793,0.0-44.13793103448276,19.800275862068965-44.13793103448276,44.13793103448276c0.0,10.275310344827586,3.5310344827586206,19.73848275862069,9.436689655172414,27.250758620689655C55.21655172413793,92.9015172413793,39.724137931034484,110.88331034482758,39.724137931034484,132.41379310344828
		c0.0,10.275310344827586,3.5310344827586206,19.73848275862069,9.436689655172414,27.250758620689655C28.733793103448274,163.52220689655172,13.241379310344827,181.504,13.241379310344827,203.0344827586207c0.0,22.024827586206897,12.137931034482758,32.32662068965517,23.966896551724137,37.3671724137931C27.939310344827586,248.4965517241379,22.06896551724138,260.40496551724135,22.06896551724138,273.6551724137931
		c0.0,24.337655172413793,19.800275862068965,44.13793103448276,44.13793103448276,44.13793103448276h126.81710344827586l-6.435310344827586,30.102068965517244c-8.589241379310344,40.17434482758621-2.948413793103448,85.7776551724138-1.024,98.78951724137931C190.13737931034484,477.5194482758621,217.40579310344827,512.0,247.05765517241377,512.0h2.1097931034482755
		c14.088827586206897,0.0,37.729103448275865-8.024275862068965,37.729103448275865-61.79310344827586c0.0-70.82372413793104,17.672827586206893-103.22979310344829,32.494344827586204-117.93655172413793c14.539034482758622-14.424275862068965,28.566068965517243-14.238896551724137,29.298758620689654-14.477241379310344h8.827586206896552v17.655172413793103h141.24137931034483V0.0H357.51724137931035z M348.96331034482756,300.14675862068964
		c-0.8121379310344827-0.07062068965517242-21.35393103448276-0.432551724137931-41.33075862068966,18.926344827586206C282.1561379310345,343.7550344827586,269.2413793103448,387.8753103448276,269.2413793103448,450.2068965517241c0.0,16.48110344827586-2.6041379310344825,44.13793103448276-20.073931034482758,44.13793103448276h-2.1097931034482755
		c-19.694344827586207,0.0-40.677517241379306-27.630344827586207-44.032000000000004-50.237793103448276c-1.827310344827586-12.287999999999998-7.150344827586207-55.24303448275862,0.8209655172413793-92.51310344827587L214.85462068965515,300.13793103448273H66.20689655172414c-14.600827586206895,0.0-26.482758620689655-11.88193103448276-26.482758620689655-26.482758620689655s11.88193103448276-26.482758620689655,26.482758620689655-26.482758620689655h17.655172413793103h8.827586206896552h61.79310344827586
		c4.872827586206897,0.0,8.827586206896552-3.9459310344827587,8.827586206896552-8.827586206896552s-3.9547586206896552-8.827586206896552-8.827586206896552-8.827586206896552h-61.79310344827586c-7.794758620689655,0.0-24.93793103448276-0.3531034482758621-34.021517241379314-1.7037241379310346C35.61931034482759,224.39724137931034,30.89655172413793,215.43724137931036,30.89655172413793,203.0344827586207c0.0-14.600827586206895,11.88193103448276-26.482758620689655,26.482758620689655-26.482758620689655h26.482758620689655h70.62068965517241
		c4.872827586206897,0.0,8.827586206896552-3.9459310344827587,8.827586206896552-8.827586206896552s-3.9547586206896552-8.827586206896552-8.827586206896552-8.827586206896552h-70.62068965517241c-14.600827586206895,0.0-26.482758620689655-11.88193103448276-26.482758620689655-26.482758620689655s11.88193103448276-26.482758620689655,26.482758620689655-26.482758620689655h17.655172413793103h8.827586206896552h61.79310344827586c4.872827586206897,0.0,8.827586206896552-3.9459310344827587,8.827586206896552-8.827586206896552s-3.9547586206896552-8.827586206896552-8.827586206896552-8.827586206896552h-61.79310344827586
		c-14.600827586206895,0.0-26.482758620689655-11.88193103448276-26.482758620689655-26.482758620689655s11.88193103448276-26.482758620689655,26.482758620689655-26.482758620689655h247.17241379310343v264.82758620689657L348.96331034482756,300.14675862068964z M481.10344827586204,317.7931034482759h-105.93103448275862V17.655172413793103h105.93103448275862V317.7931034482759z"/>
	<path d="M428.13793103448273,132.41379310344828c24.337655172413793,0.0,44.13793103448276-19.800275862068965,44.13793103448276-44.13793103448276s-19.800275862068965-44.13793103448276-44.13793103448276-44.13793103448276s-44.13793103448276,19.800275862068965-44.13793103448276,44.13793103448276S403.800275862069,132.41379310344828,428.13793103448273,132.41379310344828z M428.13793103448273,61.79310344827586c14.600827586206895,0.0,26.482758620689655,11.88193103448276,26.482758620689655,26.482758620689655s-11.88193103448276,26.482758620689655-26.482758620689655,26.482758620689655
		s-26.482758620689655-11.88193103448276-26.482758620689655-26.482758620689655S413.53710344827584,61.79310344827586,428.13793103448273,61.79310344827586z"/>
</g>
<g>
</g>
<g>
</g>
<g>
</g>
<g>
</g>
<g>
</g>
<g>
</g>
<g>
</g>
<g>
</g>
<g>
</g>
<g>
</g>
<g>
</g>
<g>
</g>
<g>
</g>
<g>
</g>
<g>
</g>
</svg>
