<?xml version="1.0" encoding="iso-8859-1"?>
<!-- Generator: Adobe Illustrator 19.0.0, SVG Export Plug-In . SVG Version: 6.00 Build 0)  -->
<svg version="1.1" id="Capa_1" xmlns="http://www.w3.org/2000/svg" xmlns:xlink="http://www.w3.org/1999/xlink" x="0px" y="0px"
	 viewBox="0 0 512 512" style="enable-background:new 0 0 51.997 51.997;" xml:space="preserve">
<g>
	<path d="M511.1531819143412,159.93045752639574C503.6795199723061,77.67094255437813,445.45585322230124,17.989960959286112,372.5901109679404,17.989960959286112c-48.54433909648633,0.0-92.99244187164645,26.12335327038098-118.00311556435948,67.99161490085966
		c-24.784199088408943-42.40983133642326-67.41065830721003-68.00146162278592-115.17710637152142-68.00146162278592c-72.85589553243456,0.0-131.08940900436565,59.68098159509202-138.5532242244745,141.94049656710962c-0.5908033155758986,3.633440390791776-3.0130969094370825,22.75577437159836,4.352251091409119,53.94034271207954
		c10.614766236513645,44.97982575917841,35.133103832913434,85.8929553628094,70.88655114718156,118.28867050022116l178.37336769429004,161.87026174586995l10.595072792661115-9.443006327288112l0.27570821393541933,0.08862049733638477l0.15754755082023963-0.48248937438698386l170.4073696559417-152.0136930976787
		c35.75344731426813-32.405561859338036,60.271784910667925-73.30884474104275,70.88655114718156-118.29851722214742C514.156432101852,182.6862318979941,511.7341385079908,163.56389791718752,511.1531819143412,159.93045752639574z M251.28834355828218,464.54864703732903L89.32946131507586,317.5567821220455
		c-32.799430736388636-29.717406773467697-55.24995672827278-67.13495009327461-64.94897782564378-108.2154739696521c-6.971479123795603-29.51062561301613-4.106083043252495-46.181125834182744-4.09623632132623-46.28943977537165l0.14770082889397465-0.9945189145527626C26.832317249072062,89.98919168413562,76.86351135642441,37.6735580898898,139.40988903205954,37.6735580898898
		c46.151585668403946,0.0,86.77916033617325,28.35855914764313,106.05904186780006,73.99811527588129l0.6400369252072234,1.5262418985710713l-80.08338942631305,80.08338942631305l146.56845587245417,19.535896301709712L200.4201780871973,315.6465180683501l83.17526011116024,51.98084504875281L251.28834355828218,464.54864703732903z M487.6195165105679,209.35115487431966
		c-9.689174375444736,41.08052387637748-32.14954708925515,78.50791391811066-64.8898974940862,108.16624036002077L278.0123468661654,446.6374598534531l29.16599034559686-87.48812431486431l-74.37229070907937-46.48637421389695l124.14747004634883-113.79856530184433l-148.83320191549512-19.850991403350193l46.240206165740325-46.240206165740325
		l0.16739427274650462,0.3840221551243341l0.40371559897686404-0.9452853049214377l8.03492509183222-8.03492509183222l-3.2691116795199724-3.2691116795199724l3.899301882800931-9.246071888762811c18.97463315191261-44.940438871473354,61.74879319960767-73.98826855395504,108.99336500182703-73.98826855395504
		c62.53653095370886,0.0,112.57757178298748,52.31563359424582,119.10594842010116,125.31922995557436C491.7255995538204,163.16018231821067,494.5909956343635,179.84052926130352,487.6195165105679,209.35115487431966z"/>
</g>
<g>
</g>
<g>
</g>
<g>
</g>
<g>
</g>
<g>
</g>
<g>
</g>
<g>
</g>
<g>
</g>
<g>
</g>
<g>
</g>
<g>
</g>
<g>
</g>
<g>
</g>
<g>
</g>
<g>
</g>
</svg>
