<?xml version="1.0" encoding="iso-8859-1"?>
<!-- Generator: Adobe Illustrator 19.0.0, SVG Export Plug-In . SVG Version: 6.00 Build 0)  -->
<svg version="1.1" id="Capa_1" xmlns="http://www.w3.org/2000/svg" xmlns:xlink="http://www.w3.org/1999/xlink" x="0px" y="0px"
	 viewBox="0 0 512 512" style="enable-background:new 0 0 60.017 60.017;" xml:space="preserve">
<path d="M504.55251012213205,31.828848492927005l-24.31311128513588-24.321642201376278c-9.929986503823915-9.90439375510272-26.07901094689838-9.912924671343118-36.0089974507223,0.008530916240398555l-26.66764416748588,26.66764416748588H0.0v477.731309462319h477.731309462319V94.66757751970275l2.6019294533215587-2.6019294533215587l0.0,0.0l24.219271206491495-24.219271206491495
	C514.482496625956,57.91639035606578,514.482496625956,41.75883499675092,504.55251012213205,31.828848492927005z M171.01927787126982,313.58795008081046l27.469550294083344,27.469550294083344l-37.774897112484794,10.305346818401453L171.01927787126982,313.58795008081046z M444.1365613076295,104.12836363030475L407.94841461585884,67.94021693853409
	l12.062715563923554-12.062715563923554l36.196677608011065,36.18814669177067L444.1365613076295,104.12836363030475z M432.073845743706,116.1910791942283L214.91084192812036,333.3540830098139l-36.18814669177067-36.18814669177067L395.88569905193526,80.00293250245764L432.073845743706,116.1910791942283z M460.66947698152194,111.72941000049985v383.12344835629904H17.061832480797108
	v-443.6076445007248h383.4390922571938L160.6286218904644,291.13457853608145l-1.6038122531949282,1.6038122531949282l-18.094073345885334,66.36199743406036l-10.458903310728626,10.458903310728626c-3.3355882499958347,3.3355882499958347-3.3355882499958347,8.72712731392772,0.0,12.062715563923554
	c1.663528666877718,1.663528666877718,3.847443224419748,2.499558458436776,6.031357781961777,2.499558458436776s4.36782911508406-0.8360297915590583,6.031357781961777-2.499558458436776l10.458903310728626-10.458903310728626l66.36199743406036-18.111135178366133l224.79817385074227-224.7896429345019h0.0l3.8133195594581535-3.8133195594581535L460.66947698152194,111.72941000049985z
	 M492.4897945582085,55.78366129596614l-24.219271206491495,24.219271206491495l-36.196677608011065-36.196677608011065l24.219271206491495-24.219271206491495c3.2758718363130446-3.2758718363130446,8.60769448656214-3.267340920072646,11.883566322875186,0.0l24.31311128513588,24.31311128513588
	C495.76566639452153,47.167435893163606,495.76566639452153,52.507789459653104,492.4897945582085,55.78366129596614z"/>
<g>
</g>
<g>
</g>
<g>
</g>
<g>
</g>
<g>
</g>
<g>
</g>
<g>
</g>
<g>
</g>
<g>
</g>
<g>
</g>
<g>
</g>
<g>
</g>
<g>
</g>
<g>
</g>
<g>
</g>
</svg>
