<?xml version="1.0" encoding="iso-8859-1"?>
<!-- Generator: Adobe Illustrator 19.0.0, SVG Export Plug-In . SVG Version: 6.00 Build 0)  -->
<svg version="1.1" id="Capa_1" xmlns="http://www.w3.org/2000/svg" xmlns:xlink="http://www.w3.org/1999/xlink" x="0px" y="0px"
	 viewBox="0 0 512 512" style="enable-background:new 0 0 56 56;" xml:space="preserve">
<g>
	<path d="M497.5908571428571,259.4925714285714c0.9234285714285715-2.230857142857143,0.9234285714285715-4.745142857142857,0.0-6.985142857142857c-0.46628571428571425-1.1245714285714286-1.1428571428571428-2.1394285714285712-1.984-2.9897142857142858L385.90171428571426,139.82171428571428
		c-3.5748571428571427-3.5748571428571427-9.353142857142856-3.5748571428571427-12.927999999999999,0.0s-3.5748571428571427,9.353142857142856,0.0,12.927999999999999L467.0811428571429,246.85714285714283H187.4377142857143c-5.046857142857143,0.0-9.142857142857142,4.086857142857142-9.142857142857142,9.142857142857142s4.096,9.142857142857142,9.142857142857142,9.142857142857142h279.64342857142856L372.9737142857142,359.25028571428567
		c-3.5748571428571427,3.5748571428571427-3.5748571428571427,9.353142857142856,0.0,12.927999999999999C374.75657142857136,373.9611428571428,377.0971428571428,374.85714285714283,379.43771428571426,374.85714285714283s4.681142857142857-0.896,6.4639999999999995-2.6788571428571424l109.70514285714286-109.70514285714286
		C496.448,261.632,497.12457142857136,260.6171428571428,497.5908571428571,259.4925714285714z"/>
	<path d="M333.72342857142854,301.7142857142857c-5.046857142857143,0.0-9.142857142857142,4.086857142857142-9.142857142857142,9.142857142857142v182.85714285714283h-292.57142857142856V18.285714285714285h292.57142857142856v182.85714285714283c0.0,5.056,4.096,9.142857142857142,9.142857142857142,9.142857142857142s9.142857142857142-4.086857142857142,9.142857142857142-9.142857142857142V9.142857142857142c0.0-5.056-4.096-9.142857142857142-9.142857142857142-9.142857142857142h-310.85714285714283
		c-5.046857142857143,0.0-9.142857142857142,4.086857142857142-9.142857142857142,9.142857142857142v493.71428571428567c0.0,5.056,4.096,9.142857142857142,9.142857142857142,9.142857142857142h310.85714285714283c5.046857142857143,0.0,9.142857142857142-4.086857142857142,9.142857142857142-9.142857142857142V310.85714285714283C342.86628571428565,305.80114285714285,338.77028571428565,301.7142857142857,333.72342857142854,301.7142857142857z"/>
</g>
<g>
</g>
<g>
</g>
<g>
</g>
<g>
</g>
<g>
</g>
<g>
</g>
<g>
</g>
<g>
</g>
<g>
</g>
<g>
</g>
<g>
</g>
<g>
</g>
<g>
</g>
<g>
</g>
<g>
</g>
</svg>
