<?xml version="1.0" encoding="iso-8859-1"?>
<!-- Generator: Adobe Illustrator 19.0.0, SVG Export Plug-In . SVG Version: 6.00 Build 0)  -->
<svg version="1.1" id="Capa_1" xmlns="http://www.w3.org/2000/svg" xmlns:xlink="http://www.w3.org/1999/xlink" x="0px" y="0px"
	 viewBox="0 0 512 512" style="enable-background:new 0 0 60 60;" xml:space="preserve">
<path d="M377.00266666666664,170.66666666666666l82.50026666666666-132.01066666666668c1.6469333333333334-2.6368,1.7322666666666668-5.947733333333333,0.2304-8.661333333333332C458.22293333333334,27.281066666666668,455.36426666666665,25.6,452.26666666666665,25.6H68.26666666666667V8.533333333333333c0.0-4.718933333333334-3.8144-8.533333333333333-8.533333333333333-8.533333333333333
	S51.2,3.8144,51.2,8.533333333333333v25.6v247.46666666666667v25.6v196.26666666666665c0.0,4.718933333333334,3.8144,8.533333333333333,8.533333333333333,8.533333333333333s8.533333333333333-3.8144,8.533333333333333-8.533333333333333V315.73333333333335h384.0c3.0976,0.0,5.956266666666666-1.6810666666666667,7.466666666666667-4.4032
	c1.5018666666666665-2.7050666666666667,1.4165333333333334-6.024533333333333-0.2304-8.661333333333332L377.00266666666664,170.66666666666666z M68.26666666666667,298.6666666666667v-17.066666666666666V42.666666666666664h368.5973333333333l-77.16693333333333,123.47733333333333c-1.7322666666666668,2.7648-1.7322666666666668,6.2805333333333335,0.0,9.053866666666666L436.864,298.6666666666667H68.26666666666667z"/>
<g>
</g>
<g>
</g>
<g>
</g>
<g>
</g>
<g>
</g>
<g>
</g>
<g>
</g>
<g>
</g>
<g>
</g>
<g>
</g>
<g>
</g>
<g>
</g>
<g>
</g>
<g>
</g>
<g>
</g>
</svg>
