<?xml version="1.0" encoding="iso-8859-1"?>
<!-- Generator: Adobe Illustrator 19.0.0, SVG Export Plug-In . SVG Version: 6.00 Build 0)  -->
<svg version="1.1" id="Capa_1" xmlns="http://www.w3.org/2000/svg" xmlns:xlink="http://www.w3.org/1999/xlink" x="0px" y="0px"
	 viewBox="0 0 512 512" style="enable-background:new 0 0 60 60;" xml:space="preserve">
<g>
	<path d="M486.23786666666666,98.13333333333333H239.09546666666665V55.63733333333333c0.0-14.208-11.554133333333334-25.770666666666667-25.762133333333335-25.770666666666667H25.762133333333335C11.554133333333334,29.866666666666667,0.0,41.4208,0.0,55.63733333333333V174.93333333333334v17.066666666666666v264.36266666666666
		c0.0,14.208,11.554133333333334,25.770666666666667,25.762133333333335,25.770666666666667h460.4757333333334c14.208,0.0,25.762133333333335-11.554133333333334,25.762133333333335-25.770666666666667V192.0v-17.066666666666666v-51.029333333333334C512.0,109.68746666666665,500.4458666666667,98.13333333333333,486.23786666666666,98.13333333333333z
		 M494.93333333333334,456.36266666666666c0.0,4.804266666666666-3.8997333333333333,8.704-8.695466666666666,8.704H25.762133333333335C20.9664,465.06666666666666,17.066666666666666,461.1669333333333,17.066666666666666,456.36266666666666V192.0h477.8666666666667V456.36266666666666z M17.066666666666666,174.93333333333334V55.63733333333333
		C17.066666666666666,50.83306666666667,20.9664,46.93333333333333,25.762133333333335,46.93333333333333H213.33333333333334c4.795733333333334,0.0,8.695466666666666,3.8997333333333333,8.695466666666666,8.704v59.56266666666667h264.2090666666667c4.795733333333334,0.0,8.695466666666666,3.8997333333333333,8.695466666666666,8.704v51.029333333333334H17.066666666666666z"/>
	<path d="M469.3333333333333,320.0H290.1333333333333v119.46666666666667h179.2V320.0z M452.26666666666665,422.4H307.2v-85.33333333333333h145.06666666666666V422.4z"/>
	<path d="M332.8,371.2h34.13333333333333c4.7104,0.0,8.533333333333333-3.8144,8.533333333333333-8.533333333333333s-3.8229333333333333-8.533333333333333-8.533333333333333-8.533333333333333h-34.13333333333333c-4.7104,0.0-8.533333333333333,3.8144-8.533333333333333,8.533333333333333S328.0896,371.2,332.8,371.2z"/>
	<path d="M401.06666666666666,371.2h8.533333333333333c4.7104,0.0,8.533333333333333-3.8144,8.533333333333333-8.533333333333333s-3.8229333333333333-8.533333333333333-8.533333333333333-8.533333333333333h-8.533333333333333c-4.7104,0.0-8.533333333333333,3.8144-8.533333333333333,8.533333333333333S396.35626666666667,371.2,401.06666666666666,371.2z"/>
	<path d="M332.8,405.3333333333333h93.86666666666666c4.7104,0.0,8.533333333333333-3.8144,8.533333333333333-8.533333333333333s-3.8229333333333333-8.533333333333333-8.533333333333333-8.533333333333333H332.8c-4.7104,0.0-8.533333333333333,3.8144-8.533333333333333,8.533333333333333S328.0896,405.3333333333333,332.8,405.3333333333333z"/>
</g>
<g>
</g>
<g>
</g>
<g>
</g>
<g>
</g>
<g>
</g>
<g>
</g>
<g>
</g>
<g>
</g>
<g>
</g>
<g>
</g>
<g>
</g>
<g>
</g>
<g>
</g>
<g>
</g>
<g>
</g>
</svg>
