<?xml version="1.0" encoding="iso-8859-1"?>
<!-- Generator: Adobe Illustrator 19.0.0, SVG Export Plug-In . SVG Version: 6.00 Build 0)  -->
<svg version="1.1" id="Capa_1" xmlns="http://www.w3.org/2000/svg" xmlns:xlink="http://www.w3.org/1999/xlink" x="0px" y="0px"
	 viewBox="0 0 512 512" style="enable-background:new 0 0 60 60;" xml:space="preserve">
<g>
	<path d="M226.34666666666666,89.6l-39.406933333333335-55.04853333333333L183.59466666666668,29.866666666666667H0.0v452.26666666666665h512.0v-392.5333333333333H226.34666666666666z M494.93333333333334,106.66666666666667v42.666666666666664H269.10720000000003l-30.5408-42.666666666666664H494.93333333333334z M17.066666666666666,465.06666666666666v-418.1333333333333h157.73866666666666l42.666666666666664,59.733333333333334h0.1024
		l40.02133333333334,55.90186666666667c1.664,2.321066666666667,4.2752,3.5584,6.9376,3.566933333333333V166.4h230.4v298.6666666666667H17.066666666666666z"/>
	<path d="M290.1333333333333,439.46666666666664h179.2v-119.46666666666667H290.1333333333333V439.46666666666664z M307.2,337.06666666666666h145.06666666666666v85.33333333333333H307.2V337.06666666666666z"/>
	<path d="M332.8,371.2h34.13333333333333c4.7104,0.0,8.533333333333333-3.8144,8.533333333333333-8.533333333333333s-3.8229333333333333-8.533333333333333-8.533333333333333-8.533333333333333h-34.13333333333333c-4.7104,0.0-8.533333333333333,3.8144-8.533333333333333,8.533333333333333S328.0896,371.2,332.8,371.2z"/>
	<path d="M401.06666666666666,371.2h8.533333333333333c4.7104,0.0,8.533333333333333-3.8144,8.533333333333333-8.533333333333333s-3.8229333333333333-8.533333333333333-8.533333333333333-8.533333333333333h-8.533333333333333c-4.7104,0.0-8.533333333333333,3.8144-8.533333333333333,8.533333333333333S396.35626666666667,371.2,401.06666666666666,371.2z"/>
	<path d="M426.6666666666667,388.26666666666665H332.8c-4.7104,0.0-8.533333333333333,3.8144-8.533333333333333,8.533333333333333s3.8229333333333333,8.533333333333333,8.533333333333333,8.533333333333333h93.86666666666666c4.7104,0.0,8.533333333333333-3.8144,8.533333333333333-8.533333333333333S431.3770666666667,388.26666666666665,426.6666666666667,388.26666666666665z"/>
</g>
<g>
</g>
<g>
</g>
<g>
</g>
<g>
</g>
<g>
</g>
<g>
</g>
<g>
</g>
<g>
</g>
<g>
</g>
<g>
</g>
<g>
</g>
<g>
</g>
<g>
</g>
<g>
</g>
<g>
</g>
</svg>
