<?xml version="1.0" encoding="iso-8859-1"?>
<!-- Generator: Adobe Illustrator 19.0.0, SVG Export Plug-In . SVG Version: 6.00 Build 0)  -->
<svg version="1.1" id="Capa_1" xmlns="http://www.w3.org/2000/svg" xmlns:xlink="http://www.w3.org/1999/xlink" x="0px" y="0px"
	 viewBox="0 0 512 512" style="enable-background:new 0 0 60 60;" xml:space="preserve">
<g>
	<path d="M226.34666666666666,89.6l-40.209066666666665-56.166399999999996l-0.008533333333333334-0.008533333333333334L183.59466666666668,29.866666666666667H0.0v452.26666666666665h512.0v-392.5333333333333H226.34666666666666z M494.93333333333334,106.66666666666667v42.666666666666664H269.1157333333333l-30.5408-42.666666666666664H494.93333333333334z M17.066666666666666,465.06666666666666v-418.1333333333333
		h157.73866666666666l42.666666666666664,59.733333333333334h0.1024l40.02133333333334,55.90186666666667c1.664,2.321066666666667,4.283733333333333,3.5584,6.9376,3.566933333333333V166.4h230.4v298.6666666666667H17.066666666666666z"/>
	<path d="M307.2,251.73333333333332c0.0-28.236800000000002-22.963199999999997-51.2-51.2-51.2s-51.2,22.963199999999997-51.2,51.2v34.13333333333333h-34.13333333333333v136.53333333333333h170.66666666666666v-136.53333333333333h-34.13333333333333V251.73333333333332z M221.86666666666667,251.73333333333332c0.0-18.82453333333333,15.3088-34.13333333333333,34.13333333333333-34.13333333333333s34.13333333333333,15.3088,34.13333333333333,34.13333333333333v34.13333333333333h-68.26666666666667V251.73333333333332z
		 M324.26666666666665,302.93333333333334v102.4H187.73333333333332v-102.4h17.066666666666666h102.4H324.26666666666665z"/>
	<path d="M247.46666666666667,378.5216V388.26666666666665c0.0,4.718933333333334,3.8144,8.533333333333333,8.533333333333333,8.533333333333333s8.533333333333333-3.8144,8.533333333333333-8.533333333333333v-9.745066666666666c14.685866666666668-3.8144,25.6-17.058133333333334,25.6-32.9216c0.0-18.82453333333333-15.3088-34.13333333333333-34.13333333333333-34.13333333333333s-34.13333333333333,15.3088-34.13333333333333,34.13333333333333
		C221.86666666666667,361.4634666666667,232.7808,374.7072,247.46666666666667,378.5216z M256.0,328.5333333333333c9.412266666666666,0.0,17.066666666666666,7.6544,17.066666666666666,17.066666666666666s-7.6544,17.066666666666666-17.066666666666666,17.066666666666666s-17.066666666666666-7.6544-17.066666666666666-17.066666666666666S246.58773333333332,328.5333333333333,256.0,328.5333333333333z"/>
</g>
<g>
</g>
<g>
</g>
<g>
</g>
<g>
</g>
<g>
</g>
<g>
</g>
<g>
</g>
<g>
</g>
<g>
</g>
<g>
</g>
<g>
</g>
<g>
</g>
<g>
</g>
<g>
</g>
<g>
</g>
</svg>
