<?xml version="1.0" encoding="iso-8859-1"?>
<!-- Generator: Adobe Illustrator 19.0.0, SVG Export Plug-In . SVG Version: 6.00 Build 0)  -->
<svg version="1.1" id="Capa_1" xmlns="http://www.w3.org/2000/svg" xmlns:xlink="http://www.w3.org/1999/xlink" x="0px" y="0px"
	 viewBox="0 0 512 512" style="enable-background:new 0 0 59 59;" xml:space="preserve">
<g>
	<path d="M256.0,442.5762711864407c4.790237288135594,0.0,8.677966101694915-3.879050847457627,8.677966101694915-8.677966101694915V147.52542372881356c0.0-4.798915254237288-3.887728813559322-8.677966101694915-8.677966101694915-8.677966101694915s-8.677966101694915,3.879050847457627-8.677966101694915,8.677966101694915v286.3728813559322C247.32203389830508,438.697220338983,251.2097627118644,442.5762711864407,256.0,442.5762711864407z"/>
	<path d="M169.22033898305085,442.5762711864407c4.790237288135594,0.0,8.677966101694915-3.879050847457627,8.677966101694915-8.677966101694915V147.52542372881356c0.0-4.798915254237288-3.887728813559322-8.677966101694915-8.677966101694915-8.677966101694915s-8.677966101694915,3.879050847457627-8.677966101694915,8.677966101694915v286.3728813559322C160.54237288135593,438.697220338983,164.43010169491527,442.5762711864407,169.22033898305085,442.5762711864407z"/>
	<path d="M342.77966101694915,442.5762711864407c4.790237288135594,0.0,8.677966101694915-3.879050847457627,8.677966101694915-8.677966101694915V147.52542372881356c0.0-4.798915254237288-3.887728813559322-8.677966101694915-8.677966101694915-8.677966101694915s-8.677966101694915,3.879050847457627-8.677966101694915,8.677966101694915v286.3728813559322C334.10169491525426,438.697220338983,337.98942372881356,442.5762711864407,342.77966101694915,442.5762711864407z"/>
	<path d="M455.59322033898303,52.067796610169495H333.71986440677966c-0.9545762711864407-10.847457627118644-4.295593220338983-29.140610169491527-15.733152542372881-40.881898305084746C310.7492881355932,3.766237288135593,301.568,0.0,290.703186440678,0.0H203.9322033898305c-10.864813559322034,0.0-20.046101694915254,3.766237288135593-27.283525423728815,11.185898305084745
		C165.2111186440678,22.927186440677964,161.87010169491523,41.220338983050844,160.9155254237288,52.067796610169495H56.40677966101695c-4.790237288135594,0.0-8.677966101694915,3.879050847457627-8.677966101694915,8.677966101694915s3.887728813559322,8.677966101694915,8.677966101694915,8.677966101694915h17.711728813559322l16.618305084745764,399.3686779661017C91.05789830508475,483.7358644067797,100.36067796610169,512.0,133.32827118644067,512.0
		h245.34345762711862c32.96759322033898,0.0,42.27037288135594-28.264135593220338,42.58277966101695-43.02535593220339L437.88149152542377,69.42372881355932H455.59322033898303c4.790237288135594,0.0,8.677966101694915-3.879050847457627,8.677966101694915-8.677966101694915S460.3834576271186,52.067796610169495,455.59322033898303,52.067796610169495z M189.1102372881356,23.26562711864407
		C192.9979661016949,19.291118644067794,197.84894915254236,17.35593220338983,203.9322033898305,17.35593220338983h86.77098305084746c6.083254237288135,0.0,10.934237288135593,1.9351864406779662,14.821966101694915,5.909694915254238c6.985762711864407,7.141966101694915,9.788745762711864,19.707661016949153,10.760677966101694,28.802169491525422H178.3582372881356
		C179.33016949152542,42.97328813559322,182.13315254237287,30.407593220338985,189.1102372881356,23.26562711864407z M403.9072542372881,468.42793220338984C403.8551864406779,471.1094237288135,402.65762711864403,494.64406779661016,378.67172881355935,494.64406779661016H133.32827118644067
		c-23.7255593220339,0.0-25.148745762711865-23.578033898305087-25.244203389830506-26.39837288135593L91.4831186440678,69.42372881355932h329.0250847457627L403.9072542372881,468.42793220338984z"/>
</g>
<g>
</g>
<g>
</g>
<g>
</g>
<g>
</g>
<g>
</g>
<g>
</g>
<g>
</g>
<g>
</g>
<g>
</g>
<g>
</g>
<g>
</g>
<g>
</g>
<g>
</g>
<g>
</g>
<g>
</g>
</svg>
