<?xml version="1.0" encoding="iso-8859-1"?>
<!-- Generator: Adobe Illustrator 19.0.0, SVG Export Plug-In . SVG Version: 6.00 Build 0)  -->
<svg version="1.1" id="Capa_1" xmlns="http://www.w3.org/2000/svg" xmlns:xlink="http://www.w3.org/1999/xlink" x="0px" y="0px"
	 viewBox="0 0 512 512" style="enable-background:new 0 0 59.049 59.049;" xml:space="preserve">
<g>
	<path d="M97.84958255008551,358.88296160815594c1.5954207522566004,1.2659316838557806,3.502989042998188,1.8902267608257548,5.401886568781859,1.8902267608257548c2.5492048976273938,0.0,5.072397500381039-1.1185286795712035,6.789208962048468-3.2688783891344477c2.982743145523209-3.7457704618198444,2.3671188335111517-9.199681620349201-1.3786516283086927-12.18242476587241
		c-6.945282731290962-5.531948043150604-13.673796338634014-11.540788158986604-19.986113227997087-17.86177581330759l-64.14631915866484-64.14631915866484l66.1492658639435-66.1492658639435c63.59139020135819-63.582719436400275,156.09978153736728-85.2856441260648,241.38542566343204-56.65477823502514
		c4.534810072990228,1.500042337719521,9.451133804128775-0.9277718504970448,10.98585920167996-5.4625819234872734c1.5173838676353535-4.534810072990228-0.9191010855391285-9.45980456908669-5.4625819234872734-10.98585920167996c-91.58061948551202-30.737861775813304-190.8955613134854-7.4308455689342745-259.1691645921184,60.834086944740804L0.0,263.31379024200237
		l76.40678080915849,76.40678080915849C83.17864824129113,346.50110924825145,90.40139545123542,352.94348761198324,97.84958255008551,358.88296160815594z"/>
	<path d="M435.5932191908415,184.90406272756522c-11.688191163271181-11.688191163271181-24.50358177107148-22.231841352097412-38.09934122508425-31.353486087825363c-3.9712103507256686-2.661924842080306-9.373096919507526-1.6040915172145167-12.035021761587833,2.3671188335111517
		c-2.6705956070382224,3.9712103507256686-1.6040915172145167,9.364426154549612,2.3671188335111517,12.035021761587833c12.659316838557807,8.488678893800063,24.607630950566477,18.321326356077154,35.49811173770936,29.21180714322004l64.14631915866484,64.14631915866484l-66.1492658639435,66.1492658639435
		c-64.03359921421192,64.03359921421192-160.5218716659046,85.68449931412894-245.83352808684313,55.111382072516044c-4.508797778116479-1.6214330471303493-9.477146099002523,0.7283442564649698-11.089908381174956,5.237142034581449c-1.612762282172433,4.508797778116479,0.7283442564649698,9.468475334044607,5.237142034581449,11.089908381174956
		c27.590374096089686,9.88467205202459,56.273264576876834,14.679605073752308,84.76539822858982,14.679605073752308c66.07989974428017,0.0,131.13664922352623-25.812867279716844,179.18135785534045-73.8575759115311l78.40972751443715-78.40972751443715L435.5932191908415,184.90406272756522z"/>
	<path d="M264.7964910498061,362.21253535199577c-18.668156954393808,0.0-36.85942183610222-5.185117444833951-52.63154329455198-15.00042337719521c-4.0492472353469156-2.5145218377957286-9.399109214381276-1.2832732137716132-11.939643347050755,2.7833155514911345c-2.531863367711561,4.066588765262748-1.2832732137716132,9.407779979339193,2.7833155514911345,11.939643347050755
		c18.51208318515131,11.532117394028688,39.88551880641501,17.618994394485934,61.7878710901116,17.618994394485934c64.54517434672898,0.0,117.05532693187014-52.51015258514115,117.05532693187014-117.05532693187014c0.0-23.281003912005282-6.823892021880133-45.77296821284018-19.725990279259598-65.04807871428812
		c-2.6705956070382224-3.9798811156835847-8.063811410862165-5.04638520550729-12.026350996629917-2.3844603634269843c-3.9798811156835847,2.6705956070382224-5.04638520550729,8.055140645904249-2.3844603634269843,12.026350996629917c10.98585920167996,16.413758065335568,16.795271723483886,35.567477857372694,16.795271723483886,55.4061880810852
		C364.5102880658436,317.48872969906347,319.7778116479534,362.21253535199577,264.7964910498061,362.21253535199577z"/>
	<path d="M264.7964910498061,162.78494131992073c17.905129638097172,0.0,35.45475791291978,4.794933021727718,50.76732882859998,13.873223932666091c4.109942590052329,2.4364849531744825,9.433792274212943,1.0838456197395383,11.87894799234534-3.0434385002286235c2.4364849531744825-4.118613355010245,1.0838456197395383-9.433792274212943-3.0434385002286235-11.87894799234534
		c-17.983166522718417-10.656370133279141-38.59357482768548-16.29236735592474-59.611509085674605-16.29236735592474c-64.54517434672898,0.0-117.05532693187014,52.51015258514115-117.05532693187014,117.05532693187014c0.0,18.069874172297585,4.005893410557333,35.40273332317228,11.913631052177006,51.513014614980776
		c1.5087131026774372,3.069450795102372,4.5868346627377266,4.855628376433132,7.7950176971667595,4.855628376433132c1.2746024488136969,0.0,2.5838879574590594-0.2861352436112381,3.8064658165252587-0.8844180257074632c4.300699419126488-2.115666649731579,6.07820623549933-7.309454859523446,3.9712103507256686-11.601483513692019
		c-6.728513607343054-13.717150163423597-10.144795000762079-28.474792121797147-10.144795000762079-43.87407068705651C165.08269403376858,207.51741773781097,209.8151704516588,162.78494131992073,264.7964910498061,162.78494131992073z"/>
	<path d="M473.6058527663466,48.27014852072008c-3.390269098545276-3.390269098545276-8.870192551948382-3.390269098545276-12.260461650493657,0.0l-403.19057054310827,403.19057054310827c-3.390269098545276,3.390269098545276-3.390269098545276,8.870192551948382,0.0,12.260461650493657
		c1.69079916679368,1.69079916679368,3.9105149960202543,2.5405341326694777,6.130230825246828,2.5405341326694777s4.439431658453149-0.8497349658757981,6.130230825246828-2.5405341326694777l403.19057054310827-403.19057054310827C476.99612186489185,57.149011837626375,476.99612186489185,51.66041761926535,473.6058527663466,48.27014852072008z"/>
</g>
<g>
</g>
<g>
</g>
<g>
</g>
<g>
</g>
<g>
</g>
<g>
</g>
<g>
</g>
<g>
</g>
<g>
</g>
<g>
</g>
<g>
</g>
<g>
</g>
<g>
</g>
<g>
</g>
<g>
</g>
</svg>
