<?xml version="1.0" encoding="iso-8859-1"?>
<!-- Generator: Adobe Illustrator 19.0.0, SVG Export Plug-In . SVG Version: 6.00 Build 0)  -->
<svg version="1.1" id="Capa_1" xmlns="http://www.w3.org/2000/svg" xmlns:xlink="http://www.w3.org/1999/xlink" x="0px" y="0px"
	 viewBox="0 0 512 512" style="enable-background:new 0 0 59.066 59.066;" xml:space="preserve">
<path d="M458.0660278332713,235.0487928757661C454.32133545525346,228.8076389124031,448.0541766837098,225.3750042325534,440.3914265398029,225.3750042325534c-0.034673077574238986,0.0-0.06934615514847797,0.0-0.10401923272271697,0.0c-14.450005079064098,0.052009616361358486-31.838553482544953,5.781735685504351-45.37839027528528,14.944096434497004
	c-12.490976196119595,8.451562658720754-30.598990959265905,24.115125452883216-45.881149900111744,50.8220634544408c-2.8691971692682765,5.010259709477533-7.576067449971219,8.408221311752955-12.612331967629432,9.21437036535401c-0.017336538787119493-1.1615480987370062-0.008668269393559747-2.487793315951647-0.008668269393559747-3.7446923780178105
	c0.0-2.6784952426099617,0.008668269393559747-5.868418379439949-0.10401923272271697-9.387735753225206V95.35096332915722c0.0-19.122202282192802-15.550875292046186-34.67307757423899-34.67307757423899-34.67307757423899s-34.67307757423899,15.550875292046186-34.67307757423899,34.67307757423899v134.35817560017608c0.0,2.3837740832289307-1.950360613550943,4.3341346967798735-4.3341346967798735,4.3341346967798735s-4.3341346967798735-1.950360613550943-4.3341346967798735-4.3341346967798735V34.67307757423899
	c0.0-19.122202282192802-15.550875292046186-34.67307757423899-34.67307757423899-34.67307757423899s-34.67307757423899,15.550875292046186-34.67307757423899,34.67307757423899v195.03606135509432c0.0,2.3837740832289307-1.950360613550943,4.3341346967798735-4.3341346967798735,4.3341346967798735s-4.3341346967798735-1.950360613550943-4.3341346967798735-4.3341346967798735v-156.02884908407543c0.0-16.72975992957031-13.609182947888803-30.338942877459115-30.338942877459115-30.338942877459115
	s-30.338942877459115,13.609182947888803-30.338942877459115,30.338942877459115v173.36538787119494c0.0,2.3837740832289307-1.950360613550943,4.3341346967798735-4.3341346967798735,4.3341346967798735s-4.3341346967798735-1.950360613550943-4.3341346967798735-4.3341346967798735V138.69231029695595c0.0-16.72975992957031-13.609182947888803-30.338942877459115-30.42562557139471-30.338942877459115c-16.72975992957031,0.0-30.338942877459115,13.609182947888803-30.338942877459115,30.338942877459115
	l0.017336538787119493,235.75092269664444c8.390884772965835,121.20841093014594,82.73863136152778,137.5567670063996,154.36454136051196,137.5567670063996c59.34297226831003,0.0,112.64416076930891-29.4374428605289,138.92635357058208-76.48880912877121c3.3806250634883015-5.46100971794264,12.525649273693835-19.841668641858263,23.36965428503708-36.87481800020316
	c27.11434666305489-42.595875799952594,49.82521247418143-78.36982358717367,53.17983272948904-84.73233332204653c7.480716486642062-14.163952189076626,15.828259912640098-25.233332204652424,24.132461991670333-32.011918870416146c7.5153895642163-6.137134730640301,12.109572342802966-13.964581993024753,15.845596451427218-20.83851962211763
	C461.9320759827989,257.47360579690513,463.6137202451495,244.32384112687504,458.0660278332713,235.0487928757661z M444.3008160362984,253.62489418616465c-3.467307757423899,6.319168387905055-6.735245318795924,11.26875021162767-11.112721362543596,14.840077201774287c-10.228557884400502,8.356211695391595-19.806995564284023,20.916534046659667-28.492601496630886,37.35157281684895
	c-3.3026106389462635,6.267158771543697-32.88741407916568,52.75508752920462-52.46903463921715,83.51877560694815c-10.904682897098162,17.12850032167406-20.093048454271493,31.5698371313446-23.69038025259879,37.39491416381675c-23.412995632004876,41.902414248467814-70.92378017810586,67.9418955067213-123.99092540547862,67.9418955067213
	c-91.38089594690685,0.0-131.09023803880405-35.184505468459015-137.04533911217962-120.81833880743577V138.69231029695595c0.0-7.168658788473911,5.83374530186571-13.00240409033962,13.089086784275217-13.00240409033962c7.168658788473911,0.0,13.00240409033962,5.83374530186571,13.00240409033962,13.00240409033962v108.35336741949683c0.0,11.953543493718891,9.717129990180476,21.670673483899368,21.670673483899368,21.670673483899368
	s21.670673483899368-9.717129990180476,21.670673483899368-21.670673483899368v-173.36538787119494c0.0-7.168658788473911,5.83374530186571-13.00240409033962,13.00240409033962-13.00240409033962s13.00240409033962,5.83374530186571,13.00240409033962,13.00240409033962v156.02884908407543c0.0,11.953543493718891,9.717129990180476,21.670673483899368,21.670673483899368,21.670673483899368s21.670673483899368-9.717129990180476,21.670673483899368-21.670673483899368V34.67307757423899
	c0.0-9.561101141096401,7.775437646023093-17.336538787119494,17.336538787119494-17.336538787119494s17.336538787119494,7.775437646023093,17.336538787119494,17.336538787119494v195.03606135509432c0.0,11.953543493718891,9.717129990180476,21.670673483899368,21.670673483899368,21.670673483899368s21.670673483899368-9.717129990180476,21.670673483899368-21.670673483899368V95.35096332915722c0.0-9.561101141096401,7.775437646023093-17.336538787119494,17.336538787119494-17.336538787119494s17.336538787119494,7.775437646023093,17.336538787119494,17.336538787119494v192.14085937764534
	c0.1126875021162767,3.562658720753056,0.10401923272271697,6.570548200318289,0.10401923272271697,9.101682863237734c-0.017336538787119493,7.758101107235974-0.026004808180679243,13.357803135475569,4.247452002844276,17.544577252564928c3.5799952595401754,3.4933125656045783,8.21751938509464,3.7100193004435718,11.494125215860224,3.7446923780178105
	c11.797514644634816-0.26871635120035214,23.014255239901125-7.220668404835269,29.264077472657704-18.13401957132699c13.617851217282363-23.820404293502186,29.558798632038737-37.654962245623544,40.54149595367893-45.06633257711712c10.679307892865609-7.229336674228828,24.71323604103884-11.927538685538211,35.739274709646836-11.970880032506011
	c0.008668269393559747,0.0,0.026004808180679243,0.0,0.034673077574238986,0.0c1.8550096502217859,0.0,2.2797548505062135,0.5461009717942641,2.5311346629194458,0.8668269393559748C444.6302102732536,245.74543730741885,444.7082246977957,251.1977787559679,444.3008160362984,253.62489418616465z"/>
<g>
</g>
<g>
</g>
<g>
</g>
<g>
</g>
<g>
</g>
<g>
</g>
<g>
</g>
<g>
</g>
<g>
</g>
<g>
</g>
<g>
</g>
<g>
</g>
<g>
</g>
<g>
</g>
<g>
</g>
</svg>
