<?xml version="1.0" encoding="iso-8859-1"?>
<!-- Generator: Adobe Illustrator 19.0.0, SVG Export Plug-In . SVG Version: 6.00 Build 0)  -->
<svg version="1.1" id="Capa_1" xmlns="http://www.w3.org/2000/svg" xmlns:xlink="http://www.w3.org/1999/xlink" x="0px" y="0px"
	 viewBox="0 0 512 512" style="enable-background:new 0 0 58.365 58.365;" xml:space="preserve">
<path d="M507.59626488477676,233.6260430052257l-76.15303692281331-70.71416088409148V47.063822496359116h-87.72380707615865v34.3965047545618L255.99561380964616,0.0L4.403735115223164,233.6260430052257c-3.5440418058768097,3.298415146063565-3.75457894285959,8.851332133984407-0.4561637967960249,12.404146320568833
	c3.289642765355949,3.5440418058768097,8.842559753276792,3.7458065621519743,12.404146320568833,0.4561637967960249l29.115531568577055-27.036477340872093v292.55012421828144h140.35809132185383h140.35809132185383h140.35809132185383V219.44110340101085l29.115531568577055,27.036477340872093c1.684297095862246,1.5702561466632396,3.833530369228133,2.342225648933436,5.973991261886404,2.342225648933436
	c2.3597704103486676,0.0,4.701996059282104-0.9386447357148975,6.421382677974813-2.7983894457294607C511.3508438276363,242.4773751392101,511.14030669065363,236.92445815128926,507.59626488477676,233.6260430052257z M361.26418230103656,64.60858391159084h52.634284245695184v82.01298723550072l-52.634284245695184-48.87093292212798V64.60858391159084z
	 M203.36132956395096,494.4552385847682V309.68258374025527c0.0-4.5353208258374025,3.684399897198663-8.219720723036065,8.219720723036065-8.219720723036065h88.82912704531824c4.5353208258374025,0.0,8.219720723036065,3.684399897198663,8.219720723036065,8.219720723036065v184.77265484451294H203.36132956395096z M448.9879893771952,494.4552385847682h-122.8133299066221
	V309.68258374025527c0.0-14.211256746337702-11.553225391930093-25.764482138267795-25.764482138267795-25.764482138267795H211.58105028698705c-14.211256746337702,0.0-25.764482138267795,11.553225391930093-25.764482138267795,25.764482138267795v184.77265484451294h-122.8133299066221V203.1507924269682l192.99237556754903-179.21096547588448l125.26959650475455,116.32176818298636
	l50.17801764756275,46.59011393814786v0.0l17.54476141523173,16.29031097404266V494.4552385847682z"/>
<g>
</g>
<g>
</g>
<g>
</g>
<g>
</g>
<g>
</g>
<g>
</g>
<g>
</g>
<g>
</g>
<g>
</g>
<g>
</g>
<g>
</g>
<g>
</g>
<g>
</g>
<g>
</g>
<g>
</g>
</svg>
