<?xml version="1.0" encoding="iso-8859-1"?>
<!-- Generator: Adobe Illustrator 19.0.0, SVG Export Plug-In . SVG Version: 6.00 Build 0)  -->
<svg version="1.1" id="Capa_1" xmlns="http://www.w3.org/2000/svg" xmlns:xlink="http://www.w3.org/1999/xlink" x="0px" y="0px"
	 viewBox="0 0 512 512" style="enable-background:new 0 0 60 60;" xml:space="preserve">
<g>
	<path d="M460.8,494.93333333333334h-25.6v-34.13333333333333h-42.666666666666664V373.5722666666667c0.0-23.040000000000003-11.451733333333333-44.4416-30.626133333333332-57.22453333333333L271.3856,256.0l90.5216-60.34773333333333C381.0816,182.86933333333332,392.5333333333333,161.46773333333334,392.5333333333333,138.42773333333335V51.2h42.666666666666664V17.066666666666666h25.6
		c4.7104,0.0,8.533333333333333-3.8144,8.533333333333333-8.533333333333333s-3.8229333333333333-8.533333333333333-8.533333333333333-8.533333333333333h-25.6h-8.533333333333333H85.33333333333333H76.8H51.2C46.4896,0.0,42.666666666666664,3.8144,42.666666666666664,8.533333333333333s3.8229333333333333,8.533333333333333,8.533333333333333,8.533333333333333h25.6v34.13333333333333h42.666666666666664v87.22773333333333c0.0,23.040000000000003,11.451733333333333,44.4416,30.626133333333332,57.22453333333333
		L240.6144,256.0l-90.5216,60.34773333333333C130.9184,329.1306666666667,119.46666666666667,350.5322666666667,119.46666666666667,373.5722666666667V460.8H76.8v34.13333333333333H51.2c-4.7104,0.0-8.533333333333333,3.8144-8.533333333333333,8.533333333333333s3.8229333333333333,8.533333333333333,8.533333333333333,8.533333333333333h25.6h8.533333333333333h341.3333333333333h8.533333333333333h25.6
		c4.7104,0.0,8.533333333333333-3.8144,8.533333333333333-8.533333333333333S465.5104,494.93333333333334,460.8,494.93333333333334z M93.86666666666666,34.13333333333333V17.066666666666666h324.26666666666665v17.066666666666666h-25.6H119.46666666666667H93.86666666666666z M159.55626666666666,181.4528C145.14346666666665,171.83573333333334,136.53333333333333,155.75039999999998,136.53333333333333,138.42773333333335V51.2h238.93333333333334v87.22773333333333
		c0.0,17.322666666666663-8.610133333333332,33.408-23.022933333333334,43.02506666666667L256.0,245.74293333333333L159.55626666666666,181.4528z M136.53333333333333,373.5722666666667c0.0-17.322666666666663,8.610133333333332-33.408,23.022933333333334-43.02506666666667L256.0,266.2570666666667l96.44373333333333,64.29013333333333
		C366.85653333333335,340.16426666666666,375.46666666666664,356.2496,375.46666666666664,373.5722666666667V460.8H136.53333333333333V373.5722666666667z M93.86666666666666,477.8666666666667h25.6h273.06666666666666h25.6v17.066666666666666H93.86666666666666V477.8666666666667z"/>
	<path d="M178.49173333333334,153.05386666666666C173.5936,149.78560000000002,170.66666666666666,144.31573333333333,170.66666666666666,138.42773333333335V119.46666666666667c0.0-4.718933333333334-3.8229333333333333-8.533333333333333-8.533333333333333-8.533333333333333s-8.533333333333333,3.8144-8.533333333333333,8.533333333333333v18.961066666666667
		c0.0,11.613866666666667,5.768533333333334,22.391466666666666,15.428266666666667,28.8256l39.5776,26.385066666666667c1.4506666666666668,0.9642666666666667,3.0976,1.4336,4.727466666666667,1.4336c2.756266666666667,0.0,5.461333333333333-1.3312,7.108266666666666-3.7973333333333334
		c2.6111999999999997-3.9253333333333336,1.5530666666666666-9.216000000000001-2.3637333333333337-11.835733333333334L178.49173333333334,153.05386666666666z"/>
	<path d="M342.9717333333333,352.0853333333333l-39.5776-26.385066666666667c-3.9253333333333336-2.6197333333333335-9.216000000000001-1.5615999999999999-11.835733333333334,2.3637333333333337c-2.6111999999999997,3.9253333333333336-1.5530666666666666,9.216000000000001,2.3637333333333337,11.835733333333334l39.5776,26.385066666666667
		C338.40639999999996,369.55306666666667,341.3333333333333,375.0144,341.3333333333333,380.91093333333333v18.961066666666667c0.0,4.718933333333334,3.8229333333333333,8.533333333333333,8.533333333333333,8.533333333333333s8.533333333333333-3.8144,8.533333333333333-8.533333333333333v-18.961066666666667C358.4,369.28853333333336,352.63146666666665,358.5194666666667,342.9717333333333,352.0853333333333z"/>
</g>
<g>
</g>
<g>
</g>
<g>
</g>
<g>
</g>
<g>
</g>
<g>
</g>
<g>
</g>
<g>
</g>
<g>
</g>
<g>
</g>
<g>
</g>
<g>
</g>
<g>
</g>
<g>
</g>
<g>
</g>
</svg>
