<?xml version="1.0" encoding="iso-8859-1"?>
<!-- Generator: Adobe Illustrator 19.0.0, SVG Export Plug-In . SVG Version: 6.00 Build 0)  -->
<svg version="1.1" id="Capa_1" xmlns="http://www.w3.org/2000/svg" xmlns:xlink="http://www.w3.org/1999/xlink" x="0px" y="0px"
	 viewBox="0 0 512 512" style="enable-background:new 0 0 60 60;" xml:space="preserve">
<g>
	<path d="M476.0149333333333,68.26666666666667H35.98506666666666C16.145066666666665,68.26666666666667,0.0,84.41173333333333,0.0,104.25173333333333V110.93333333333334v85.33333333333333v211.48160000000001C0.0,427.58826666666664,16.145066666666665,443.73333333333335,35.98506666666666,443.73333333333335h440.0298666666667C495.8549333333333,443.73333333333335,512.0,427.58826666666664,512.0,407.74826666666667
		V196.26666666666665V110.93333333333334v-6.6816C512.0,84.41173333333333,495.8549333333333,68.26666666666667,476.0149333333333,68.26666666666667z M25.6,136.53333333333333c4.7104,0.0,8.533333333333333-3.8229333333333333,8.533333333333333-8.533333333333333h34.13333333333333c0.0,4.7104,3.8229333333333333,8.533333333333333,8.533333333333333,8.533333333333333s8.533333333333333-3.8229333333333333,8.533333333333333-8.533333333333333h34.13333333333333c0.0,4.7104,3.8229333333333333,8.533333333333333,8.533333333333333,8.533333333333333
		s8.533333333333333-3.8229333333333333,8.533333333333333-8.533333333333333h34.13333333333333c0.0,4.7104,3.8229333333333333,8.533333333333333,8.533333333333333,8.533333333333333s8.533333333333333-3.8229333333333333,8.533333333333333-8.533333333333333h34.13333333333333c0.0,4.7104,3.8229333333333333,8.533333333333333,8.533333333333333,8.533333333333333s8.533333333333333-3.8229333333333333,8.533333333333333-8.533333333333333h34.13333333333333c0.0,4.7104,3.8229333333333333,8.533333333333333,8.533333333333333,8.533333333333333s8.533333333333333-3.8229333333333333,8.533333333333333-8.533333333333333h34.13333333333333
		c0.0,4.7104,3.8229333333333333,8.533333333333333,8.533333333333333,8.533333333333333s8.533333333333333-3.8229333333333333,8.533333333333333-8.533333333333333h34.13333333333333c0.0,4.7104,3.8229333333333333,8.533333333333333,8.533333333333333,8.533333333333333s8.533333333333333-3.8229333333333333,8.533333333333333-8.533333333333333h34.13333333333333c0.0,4.7104,3.8229333333333333,8.533333333333333,8.533333333333333,8.533333333333333s8.533333333333333-3.8229333333333333,8.533333333333333-8.533333333333333h34.13333333333333c0.0,4.7104,3.8229333333333333,8.533333333333333,8.533333333333333,8.533333333333333
		s8.533333333333333-3.8229333333333333,8.533333333333333-8.533333333333333v51.2c0.0-4.7104-3.8229333333333333-8.533333333333333-8.533333333333333-8.533333333333333s-8.533333333333333,3.8229333333333333-8.533333333333333,8.533333333333333h-34.13333333333333c0.0-4.7104-3.8229333333333333-8.533333333333333-8.533333333333333-8.533333333333333s-8.533333333333333,3.8229333333333333-8.533333333333333,8.533333333333333h-34.13333333333333c0.0-4.7104-3.8229333333333333-8.533333333333333-8.533333333333333-8.533333333333333s-8.533333333333333,3.8229333333333333-8.533333333333333,8.533333333333333h-34.13333333333333
		c0.0-4.7104-3.8229333333333333-8.533333333333333-8.533333333333333-8.533333333333333s-8.533333333333333,3.8229333333333333-8.533333333333333,8.533333333333333h-34.13333333333333c0.0-4.7104-3.8229333333333333-8.533333333333333-8.533333333333333-8.533333333333333s-8.533333333333333,3.8229333333333333-8.533333333333333,8.533333333333333h-34.13333333333333c0.0-4.7104-3.8229333333333333-8.533333333333333-8.533333333333333-8.533333333333333s-8.533333333333333,3.8229333333333333-8.533333333333333,8.533333333333333h-34.13333333333333
		c0.0-4.7104-3.8229333333333333-8.533333333333333-8.533333333333333-8.533333333333333s-8.533333333333333,3.8229333333333333-8.533333333333333,8.533333333333333h-34.13333333333333c0.0-4.7104-3.8229333333333333-8.533333333333333-8.533333333333333-8.533333333333333s-8.533333333333333,3.8229333333333333-8.533333333333333,8.533333333333333h-34.13333333333333c0.0-4.7104-3.8229333333333333-8.533333333333333-8.533333333333333-8.533333333333333s-8.533333333333333,3.8229333333333333-8.533333333333333,8.533333333333333H34.13333333333333
		c0.0-4.7104-3.8229333333333333-8.533333333333333-8.533333333333333-8.533333333333333s-8.533333333333333,3.8229333333333333-8.533333333333333,8.533333333333333v-51.2C17.066666666666666,132.7104,20.889599999999998,136.53333333333333,25.6,136.53333333333333z M494.93333333333334,407.74826666666667C494.93333333333334,418.1845333333333,486.4512,426.6666666666667,476.0149333333333,426.6666666666667H35.98506666666666
		C25.5488,426.6666666666667,17.066666666666666,418.1845333333333,17.066666666666666,407.74826666666667V196.26666666666665h477.8666666666667V407.74826666666667z M17.066666666666666,110.93333333333334v-6.6816C17.066666666666666,93.81546666666667,25.5488,85.33333333333333,35.98506666666666,85.33333333333333h440.0298666666667C486.4512,85.33333333333333,494.93333333333334,93.81546666666667,494.93333333333334,104.25173333333333V110.93333333333334H17.066666666666666z"
		/>
	<path d="M432.2048,401.06666666666666H469.3333333333333V213.33333333333334H281.6v187.73333333333332h37.12853333333333H432.2048z M332.8,384.0v-0.042666666666666665c0.0-3.7119999999999997,2.0223999999999998-7.1168,4.957866666666666-8.721066666666667l21.998933333333333-10.837333333333333
		C364.18559999999997,362.19733333333335,366.93333333333334,357.7685333333333,366.93333333333334,352.83626666666663v-12.1344l-5.154133333333333-2.2272c-7.773866666666667-3.345066666666667-12.8512-9.821866666666667-15.522133333333333-19.805866666666667l-1.2202666666666666-4.548266666666667l-4.488533333333334-1.3994666666666666
		c-0.9898666666666667-0.3072-2.048-1.2714666666666665-2.048-2.670933333333333v-5.6917333333333335c0.0-1.2031999999999998,0.8106666666666666-2.0650666666666666,1.5701333333333334-2.466133333333333l4.010666666666666-2.1333333333333333l0.47786666666666666-4.522666666666667
		c0.5290666666666667-5.077333333333333,1.6384-9.728,3.3365333333333336-13.832533333333332c0.7338666666666666-1.8005333333333333,1.3568-3.1402666666666668,1.8688-4.2325333333333335c1.3226666666666667-2.8416,2.1248-4.940799999999999,2.414933333333333-7.295999999999999
		c6.237866666666666,2.6026666666666665,13.303466666666665,3.6522666666666663,20.82133333333333,3.0463999999999998c0.8106666666666666-0.06826666666666667,1.6384-0.1024,2.4831999999999996-0.1024c24.9088,0.0,29.60213333333333,11.383466666666667,30.907733333333333,22.510933333333334l0.5290666666666667,4.4544
		l3.968,2.0991999999999997c0.7594666666666666,0.4010666666666667,1.5786666666666667,1.2544,1.5786666666666667,2.4746666666666663v5.6917333333333335c0.0,1.3994666666666666-1.0581333333333334,2.3637333333333337-2.048,2.670933333333333l-4.488533333333334,1.3994666666666666l-1.2202666666666666,4.548266666666667
		c-2.670933333333333,9.984-7.748266666666667,16.46933333333333-15.522133333333333,19.805866666666667L384.0,340.70186666666666v12.185599999999999c0.0,4.864,2.688,9.275733333333333,7.031466666666666,11.494399999999999l21.504,10.973866666666666
		c3.328,1.664,5.444266666666667,4.957866666666666,5.589333333333333,8.6528H332.8z M298.6666666666667,230.4h153.6v153.6h-17.092266666666667c-0.1536-10.188799999999999-5.8453333333333335-19.319466666666663-14.967466666666667-23.901866666666667l-18.0736-9.224533333333333
		c8.311466666666666-5.3162666666666665,14.301866666666665-13.320533333333332,17.8688-23.901866666666667c5.8453333333333335-3.5498666666666665,9.514666666666667-9.881599999999999,9.514666666666667-16.930133333333334v-5.6917333333333335c0.0-5.777066666666667-2.517333333333333-11.1616-6.766933333333333-14.890666666666668
		c-3.0463999999999998-16.196266666666666-14.037333333333333-33.7152-47.27466666666667-33.7152c-1.3055999999999999,0.0-2.594133333333333,0.0512-3.84,0.1536c-4.48,0.34986666666666666-10.973866666666666,0.0-16.529066666666665-3.7376
		c-2.6026666666666665-1.7408-3.9082666666666666-3.0805333333333333-4.5738666666666665-3.933866666666667c-2.7221333333333333-3.4389333333333334-7.261866666666666-4.616533333333334-11.298133333333334-2.9610666666666665c-4.036266666666666,1.664-6.4,5.7088-5.9050666666666665,10.0352
		c0.24746666666666667,2.1930666666666667,0.6229333333333333,4.753066666666667,1.1861333333333335,7.560533333333333c0.7168,3.5925333333333334,0.768,4.616533333333334,0.7338666666666666,4.8896c-0.0768,0.2986666666666667-0.5632,1.3568-0.9557333333333333,2.2101333333333333
		c-0.5973333333333334,1.28-1.3312,2.8586666666666667-2.1930666666666667,4.966399999999999c-1.8602666666666667,4.5056-3.2,9.4208-4.0192,14.677333333333333c-4.181333333333333,3.7290666666666668-6.638933333333333,9.0624-6.638933333333333,14.754133333333334v5.6917333333333335
		c0.0,7.048533333333332,3.6778666666666666,13.380266666666667,9.514666666666667,16.930133333333334c3.5584,10.538666666666668,9.514666666666667,18.525866666666666,17.774933333333333,23.8336l-18.816,9.275733333333333C321.1605333333334,364.86826666666667,315.73333333333335,374.0074666666667,315.73333333333335,383.9573333333333V384.0h-17.066666666666666V230.4z"
		/>
	<path d="M51.2,247.46666666666667h76.8c4.718933333333334,0.0,8.533333333333333-3.8144,8.533333333333333-8.533333333333333s-3.8144-8.533333333333333-8.533333333333333-8.533333333333333H51.2c-4.718933333333334,0.0-8.533333333333333,3.8144-8.533333333333333,8.533333333333333S46.48106666666666,247.46666666666667,51.2,247.46666666666667z"/>
	<path d="M162.13333333333333,247.46666666666667h76.8c4.718933333333334,0.0,8.533333333333333-3.8144,8.533333333333333-8.533333333333333s-3.8144-8.533333333333333-8.533333333333333-8.533333333333333h-76.8c-4.718933333333334,0.0-8.533333333333333,3.8144-8.533333333333333,8.533333333333333S157.4144,247.46666666666667,162.13333333333333,247.46666666666667z"/>
	<path d="M51.2,290.1333333333333h8.533333333333333c4.718933333333334,0.0,8.533333333333333-3.8144,8.533333333333333-8.533333333333333s-3.8144-8.533333333333333-8.533333333333333-8.533333333333333H51.2c-4.718933333333334,0.0-8.533333333333333,3.8144-8.533333333333333,8.533333333333333S46.48106666666666,290.1333333333333,51.2,290.1333333333333z"/>
	<path d="M110.93333333333334,290.1333333333333c4.718933333333334,0.0,8.533333333333333-3.8144,8.533333333333333-8.533333333333333s-3.8144-8.533333333333333-8.533333333333333-8.533333333333333h-17.066666666666666c-4.718933333333334,0.0-8.533333333333333,3.8144-8.533333333333333,8.533333333333333s3.8144,8.533333333333333,8.533333333333333,8.533333333333333H110.93333333333334z"/>
	<path d="M145.06666666666666,290.1333333333333h8.533333333333333c4.718933333333334,0.0,8.533333333333333-3.8144,8.533333333333333-8.533333333333333s-3.8144-8.533333333333333-8.533333333333333-8.533333333333333h-8.533333333333333c-4.718933333333334,0.0-8.533333333333333,3.8144-8.533333333333333,8.533333333333333S140.34773333333334,290.1333333333333,145.06666666666666,290.1333333333333z"/>
	<path d="M204.8,290.1333333333333c4.718933333333334,0.0,8.533333333333333-3.8144,8.533333333333333-8.533333333333333s-3.8144-8.533333333333333-8.533333333333333-8.533333333333333h-17.066666666666666c-4.718933333333334,0.0-8.533333333333333,3.8144-8.533333333333333,8.533333333333333s3.8144,8.533333333333333,8.533333333333333,8.533333333333333H204.8z"/>
	<path d="M232.87466666666666,275.54133333333334C231.33013333333335,277.15413333333333,230.4,279.28746666666666,230.4,281.6c0.0,2.3040000000000003,0.9301333333333334,4.437333333333333,2.4746666666666663,6.058666666666666C234.48746666666665,289.19466666666665,236.71466666666666,290.1333333333333,238.93333333333334,290.1333333333333s4.437333333333333-0.9386666666666666,6.058666666666666-2.4746666666666663
		C246.528,286.0373333333334,247.46666666666667,283.8186666666667,247.46666666666667,281.6s-0.9386666666666666-4.445866666666666-2.4746666666666663-6.058666666666666C241.83466666666666,272.384,236.032,272.384,232.87466666666666,275.54133333333334z"/>
	<path d="M99.42186666666666,319.14666666666665c-18.688,9.728-24.985599999999998,28.3392-27.272533333333335,47.633066666666664c-3.5328-2.9610666666666665-7.0656-5.9136-10.589866666666667-8.874666666666666
		c-8.362666666666666-7.005866666666666-20.49706666666667,5.000533333333333-12.066133333333333,12.066133333333333c7.978666666666667,6.6816,15.965866666666667,13.371733333333333,23.944533333333332,20.061866666666667c5.614933333333333,4.7104,14.3104,1.7322666666666668,14.5664-6.033066666666667
		c0.6229333333333333-18.4832,1.4933333333333332-40.465066666666665,20.036266666666666-50.11626666666667C117.7856,328.81493333333333,109.16693333333332,314.07786666666664,99.42186666666666,319.14666666666665z"/>
	<path d="M212.53119999999998,344.5077333333333c-12.4416-0.7850666666666667-30.651733333333333,18.389333333333333-40.2432,1.3055999999999999c-2.2186666666666666-3.9594666666666667-7.790933333333333-5.444266666666667-11.6736-3.0634666666666663
		c-12.0832,7.415466666666666-27.8784,18.082133333333335-40.58453333333333,4.266666666666667c-7.4496-8.098133333333333-19.49866666666667,3.9936000000000003-12.066133333333333,12.066133333333333c15.957333333333334,17.348266666666667,36.48853333333333,12.066133333333333,54.6048,2.244266666666667
		c4.0789333333333335,4.565333333333333,9.139199999999999,7.901866666666667,15.675733333333334,9.224533333333333c6.766933333333333,1.3653333333333333,34.34666666666667-9.736533333333334,35.84-7.688533333333333c6.417066666666667,8.7808,21.230933333333333,0.2730666666666667,14.737066666666667-8.618666666666666
		C224.40959999999998,348.21973333333335,220.3392,344.99413333333337,212.53119999999998,344.5077333333333z"/>
	<circle cx="358.4" cy="153.6" r="8.533333333333333"/>
	<circle cx="409.6" cy="153.6" r="8.533333333333333"/>
	<circle cx="204.8" cy="153.6" r="8.533333333333333"/>
	<circle cx="256.0" cy="153.6" r="8.533333333333333"/>
	<circle cx="307.2" cy="153.6" r="8.533333333333333"/>
	<circle cx="460.8" cy="153.6" r="8.533333333333333"/>
	<circle cx="153.6" cy="153.6" r="8.533333333333333"/>
	<circle cx="51.2" cy="153.6" r="8.533333333333333"/>
	<circle cx="102.4" cy="153.6" r="8.533333333333333"/>
</g>
<g>
</g>
<g>
</g>
<g>
</g>
<g>
</g>
<g>
</g>
<g>
</g>
<g>
</g>
<g>
</g>
<g>
</g>
<g>
</g>
<g>
</g>
<g>
</g>
<g>
</g>
<g>
</g>
<g>
</g>
</svg>
