<?xml version="1.0" encoding="iso-8859-1"?>
<!-- Generator: Adobe Illustrator 19.0.0, SVG Export Plug-In . SVG Version: 6.00 Build 0)  -->
<svg version="1.1" id="Capa_1" xmlns="http://www.w3.org/2000/svg" xmlns:xlink="http://www.w3.org/1999/xlink" x="0px" y="0px"
	 viewBox="0 0 512 512" style="enable-background:new 0 0 60 60;" xml:space="preserve">
<g>
	<path d="M401.06666666666666,34.13333333333333h-102.4l15.36-20.48c2.833066666666667-3.7632,2.0650666666666666-9.1136-1.7066666666666668-11.938133333333333c-3.7802666666666664-2.8245333333333336-9.122133333333332-2.0650666666666666-11.946666666666665,1.7066666666666668L277.3333333333333,34.13333333333333h-41.65973333333333l-14.711466666666666-29.4144
		c-2.1077333333333335-4.215466666666667-7.2192-5.9050666666666665-11.451733333333333-3.8144c-4.215466666666667,2.1077333333333335-5.922133333333333,7.236266666666666-3.8144,11.451733333333333L216.5930666666667,34.13333333333333H110.93333333333334c-14.114133333333333,0.0-25.6,11.485866666666666-25.6,25.6v426.6666666666667
		c0.0,14.114133333333333,11.485866666666666,25.6,25.6,25.6h290.1333333333333c14.114133333333333,0.0,25.6-11.485866666666666,25.6-25.6V59.733333333333334C426.6666666666667,45.6192,415.18080000000003,34.13333333333333,401.06666666666666,34.13333333333333z M409.6,486.4c0.0,4.7104-3.8229333333333333,8.533333333333333-8.533333333333333,8.533333333333333H110.93333333333334c-4.701866666666667,0.0-8.533333333333333-3.8229333333333333-8.533333333333333-8.533333333333333V59.733333333333334
		c0.0-4.7104,3.8314666666666666-8.533333333333333,8.533333333333333-8.533333333333333h114.19306666666667l8.533333333333333,17.066666666666666C226.49173333333334,74.53013333333334,221.86666666666667,83.61813333333333,221.86666666666667,93.86666666666666c0.0,18.82453333333333,15.3088,34.13333333333333,34.13333333333333,34.13333333333333s34.13333333333333-15.3088,34.13333333333333-34.13333333333333s-15.3088-34.13333333333333-34.13333333333333-34.13333333333333
		c-2.4490666666666665,0.0-4.829866666666666,0.2816-7.133866666666666,0.7765333333333333L244.20693333333332,51.2H401.06666666666666c4.7104,0.0,8.533333333333333,3.8229333333333333,8.533333333333333,8.533333333333333V486.4z M241.7664,84.48l6.596266666666667,13.201066666666666
		C249.86453333333333,100.67626666666666,252.8768,102.4,256.00853333333333,102.4c1.28,0.0,2.5856-0.29013333333333335,3.8058666666666667-0.8959999999999999c4.215466666666667-2.1077333333333335,5.922133333333333-7.236266666666666,3.8144-11.451733333333333l-6.570666666666667-13.141333333333334
		C265.9669333333333,77.4656,273.06666666666666,84.82133333333333,273.06666666666666,93.86666666666666c0.0,9.412266666666666-7.6544,17.066666666666666-17.066666666666666,17.066666666666666s-17.066666666666666-7.6544-17.066666666666666-17.066666666666666C238.93333333333334,90.40213333333332,239.98293333333334,87.17653333333332,241.7664,84.48z"/>
	<path d="M256.0,196.26666666666665c-61.16693333333333,0.0-110.93333333333334,49.7664-110.93333333333334,110.93333333333334c0.0,20.7872,5.853866666666667,40.18346666666666,15.837866666666667,56.832l-0.6570666666666667,0.22186666666666666l7.125333333333333,9.472000000000001
		c0.1877333333333333,0.24746666666666667,0.4010666666666667,0.45226666666666665,0.5888,0.6997333333333333c2.2016,2.8757333333333337,4.5312,5.632000000000001,6.997333333333333,8.277333333333333c0.4437333333333333,0.4864,0.8704,0.9898666666666667,1.3312,1.4592
		c2.6026666666666665,2.6965333333333334,5.3248,5.2736,8.192,7.697066666666667c0.3072,0.26453333333333334,0.5888,0.5546666666666666,0.8959999999999999,0.8192c2.9269333333333334,2.414933333333333,5.981866666666666,4.676266666666667,9.147733333333333,6.792533333333334
		c1.6213333333333333,1.0837333333333334,3.3109333333333333,2.030933333333333,4.983466666666667,3.029333333333333c1.6298666666666666,0.9728,3.2426666666666666,1.9456,4.9152,2.833066666666667c1.8773333333333333,0.9898666666666667,3.7973333333333334,1.8858666666666666,5.7344,2.7648
		c1.6298666666666666,0.7424,3.259733333333333,1.4592,4.932266666666666,2.1248c1.9370666666666667,0.768,3.8741333333333334,1.4933333333333332,5.853866666666667,2.1504c1.8688,0.6229333333333333,3.7632,1.1605333333333334,5.666133333333334,1.6896
		c1.8432,0.5034666666666666,3.6693333333333333,1.024,5.546666666666667,1.4250666666666667c2.3466666666666667,0.5205333333333333,4.736000000000001,0.8874666666666666,7.133866666666666,1.2544c1.5189333333333332,0.2304,3.0208,0.5290666666666667,4.5568,0.6997333333333333
		C247.84213333333332,417.8688,251.88693333333333,418.1333333333333,256.0,418.1333333333333s8.157866666666667-0.26453333333333334,12.151466666666666-0.6997333333333333c1.536-0.17066666666666666,3.0378666666666665-0.4693333333333333,4.5568-0.6997333333333333c2.397866666666667-0.3669333333333333,4.7872-0.7338666666666666,7.133866666666666-1.2544
		c1.8688-0.4096,3.7034666666666665-0.9216,5.546666666666667-1.4250666666666667c1.9114666666666666-0.5290666666666667,3.8058666666666667-1.0666666666666667,5.666133333333334-1.6896c1.9797333333333333-0.6570666666666667,3.9253333333333336-1.3824,5.853866666666667-2.1504
		c1.664-0.6656,3.3024-1.3738666666666668,4.932266666666666-2.1248c1.9370666666666667-0.8789333333333332,3.857066666666667-1.7749333333333333,5.7344-2.7648c1.6810666666666667-0.8874666666666666,3.2938666666666667-1.8688,4.9152-2.833066666666667
		c1.6725333333333334-0.9984000000000001,3.3621333333333334-1.9456,4.983466666666667-3.029333333333333c3.1658666666666666-2.1162666666666667,6.2208-4.369066666666667,9.147733333333333-6.792533333333334c0.3072-0.256,0.5888-0.5546666666666666,0.8959999999999999-0.8192
		c2.8672-2.423466666666666,5.5808-5.000533333333333,8.192-7.697066666666667c0.45226666666666665-0.4693333333333333,0.8789333333333332-0.9813333333333334,1.3312-1.4592c2.466133333333333-2.6453333333333333,4.795733333333334-5.4016,6.997333333333333-8.277333333333333
		c0.1877333333333333-0.24746666666666667,0.4096-0.45226666666666665,0.5888-0.6997333333333333l7.125333333333333-9.472000000000001l-0.6570666666666667-0.22186666666666666C361.0794666666667,347.38346666666666,366.93333333333334,327.9872,366.93333333333334,307.2C366.93333333333334,246.03306666666666,317.1669333333333,196.26666666666665,256.0,196.26666666666665z
		 M230.18666666666667,346.5472C224.7424,340.1813333333333,221.86666666666667,332.56106666666665,221.86666666666667,324.4970666666667V290.1333333333333c0.0-18.82453333333333,15.3088-34.13333333333333,34.13333333333333-34.13333333333333s34.13333333333333,15.3088,34.13333333333333,34.13333333333333v34.363733333333336c0.0,8.055466666666666-2.8757333333333337,15.684266666666668-8.328533333333333,22.050133333333335
		l-8.2432,9.642666666666665l49.544533333333334,16.512c-1.8773333333333333,1.9370666666666667-3.8485333333333336,3.7290666666666668-5.8624,5.4784c-0.4096,0.3584-0.7850666666666667,0.7424-1.2031999999999998,1.0922666666666667
		c-1.3397333333333332,1.1264-2.7648,2.1333333333333333-4.164266666666666,3.1744c-1.1434666666666666,0.8533333333333334-2.2357333333333336,1.7578666666666665-3.421866666666667,2.56c-0.13653333333333334,0.09386666666666665-0.2816,0.16213333333333332-0.41813333333333336,0.256
		C293.1456,395.2298666666667,275.2426666666667,401.06666666666666,256.0,401.06666666666666s-37.145599999999995-5.8368-52.05333333333333-15.812266666666666c-0.13653333333333334-0.09386666666666665-0.2816-0.16213333333333332-0.41813333333333336-0.256c-1.1776-0.8021333333333334-2.2784-1.7066666666666668-3.421866666666667-2.56
		c-1.3994666666666666-1.0495999999999999-2.8245333333333336-2.048-4.164266666666666-3.1744c-0.41813333333333336-0.34986666666666666-0.7936-0.7338666666666666-1.2031999999999998-1.0922666666666667c-2.0138666666666665-1.7493333333333332-3.985066666666667-3.541333333333333-5.8624-5.4784l49.544533333333334-16.512
		L230.18666666666667,346.5472z M334.50666666666666,358.5024l-32.93866666666666-10.973866666666666c3.6778666666666666-7.150933333333333,5.632000000000001-15.044266666666665,5.632000000000001-23.031466666666667V290.1333333333333c0.0-28.236800000000002-22.963199999999997-51.2-51.2-51.2s-51.2,22.963199999999997-51.2,51.2v34.363733333333336
		c0.0,7.995733333333334,1.9541333333333333,15.880533333333332,5.632000000000001,23.031466666666667l-32.93866666666666,10.973866666666666C167.808,343.7397333333333,162.13333333333333,326.1354666666667,162.13333333333333,307.2c0.0-51.75466666666667,42.111999999999995-93.86666666666666,93.86666666666666-93.86666666666666s93.86666666666666,42.111999999999995,93.86666666666666,93.86666666666666
		C349.8666666666667,326.1354666666667,344.1834666666667,343.7397333333333,334.50666666666666,358.5024z"/>
	<circle cx="385.7066666666667" cy="162.13333333333333" r="8.533333333333333"/>
	<circle cx="223.57333333333332" cy="162.13333333333333" r="8.533333333333333"/>
	<circle cx="158.72" cy="162.13333333333333" r="8.533333333333333"/>
	<circle cx="126.29333333333334" cy="162.13333333333333" r="8.533333333333333"/>
	<circle cx="191.14666666666665" cy="162.13333333333333" r="8.533333333333333"/>
	<circle cx="256.0" cy="162.13333333333333" r="8.533333333333333"/>
	<circle cx="353.28" cy="162.13333333333333" r="8.533333333333333"/>
	<circle cx="320.85333333333335" cy="162.13333333333333" r="8.533333333333333"/>
	<circle cx="288.4266666666666" cy="162.13333333333333" r="8.533333333333333"/>
	<circle cx="126.29333333333334" cy="460.8" r="8.533333333333333"/>
	<circle cx="191.14666666666665" cy="460.8" r="8.533333333333333"/>
	<circle cx="353.28" cy="460.8" r="8.533333333333333"/>
	<circle cx="320.85333333333335" cy="460.8" r="8.533333333333333"/>
	<circle cx="385.7066666666667" cy="460.8" r="8.533333333333333"/>
	<circle cx="256.0" cy="460.8" r="8.533333333333333"/>
	<circle cx="223.57333333333332" cy="460.8" r="8.533333333333333"/>
	<circle cx="288.4266666666666" cy="460.8" r="8.533333333333333"/>
	<circle cx="158.72" cy="460.8" r="8.533333333333333"/>
</g>
<g>
</g>
<g>
</g>
<g>
</g>
<g>
</g>
<g>
</g>
<g>
</g>
<g>
</g>
<g>
</g>
<g>
</g>
<g>
</g>
<g>
</g>
<g>
</g>
<g>
</g>
<g>
</g>
<g>
</g>
</svg>
