<?xml version="1.0" encoding="iso-8859-1"?>
<!-- Generator: Adobe Illustrator 19.0.0, SVG Export Plug-In . SVG Version: 6.00 Build 0)  -->
<svg version="1.1" id="Capa_1" xmlns="http://www.w3.org/2000/svg" xmlns:xlink="http://www.w3.org/1999/xlink" x="0px" y="0px"
	 viewBox="0 0 512 512" style="enable-background:new 0 0 57.746 57.746;" xml:space="preserve">
<path d="M499.0018356249783,135.78027915353442c-1.4274928133550375-2.1102067675683163-25.889931770165894-37.38080559692446-73.41391611540192-55.47715859107124V43.20604024521179H0.0v425.5879195095764h425.5879195095764V143.31673189484985c18.451009593738092-1.5516226232119972,39.67720707927821-0.11526339486717693,63.88252000138537,6.029162193052333l22.5295604890382,5.7188376684099325
	L499.0018356249783,135.78027915353442z M407.8550895300107,451.06112977522247H17.732829979565683v-390.122259550445h390.122259550445v13.875939459010146c-8.635888200048488-2.181138087486579-17.85695978942264-3.723894295708793-27.72527967305094-4.450940324870986c-0.7625116891213243-0.06206490492847989-1.5338897932324314-0.07093131991826274-2.3052678973435388-0.12412980985695977
	c-3.7682263706577075-0.23052678973435387-7.536452741315415-0.4344543344993592-11.482007411768778-0.39898867454022785c-5.160253524053613,0.008866414989782842-10.32937346309701,0.21279395975478818-15.516226232119973,0.7004467841928445c-1.897412807813528,0.06206490492847989-44.997056073147924,2.048141862639836-92.71610154815917,49.013542063519544l-54.244726907491426-54.244726907491426
	l0.4965192394278391,181.18519031621236l181.18519031621236,0.4965192394278391l-55.22889897135732-55.22889897135732c0.31919093963218226-0.39898867454022785,0.7536452741315416-0.8955079139680671,1.1083018737228552-1.329962248467426c0.6827139542132787-0.8334430090395871,1.4097599833754717-1.6846188480587398,2.234336577425276-2.6333252519655037
	c0.6738475392234959-0.7625116891213243,1.454092058324386-1.5870882831711286,2.2166037474457103-2.40279846223115c0.7625116891213243-0.8245765940498042,1.6048211131506942-1.675752433068957,2.46486336715963-2.553527517057458c0.9398399889169812-0.948706403906764,1.897412807813528-1.9062792228033107,2.9525161915976863-2.899317701658989
	c0.9221071589374155-0.8777750839885013,1.9772105427215736-1.782149412946351,2.9879818515568175-2.686523741904201c2.0304090326602706-1.799882242925917,4.229279950126415-3.617497315831399,6.614345582377999-5.470578048696013c1.1526339486717694-0.9043743289578497,2.287535067363973-1.799882242925917,3.528833165933571-2.6953901568939838
	c1.5427562082222144-1.117168288712638,3.218508641291171-2.225470162435493,4.903127489349911-3.3337720361583485c1.232431683579815-0.8157101790600214,2.509195442108544-1.62255394313026,3.8125584456066215-2.420531292210716c1.844214317874831-1.1260347037024208,3.7150278807190102-2.2432029924150587,5.70997125342015-3.3249056211685657
	c1.338828663457209-0.7359124441519759,2.792920721781595-1.4186263983652547,4.193814290167284-2.127939597547882c3.6352301458109646-1.826481487895265,7.518719911335849-3.537699580923354,11.615003636615523-5.133654279084265c1.74668375298722-0.6827139542132787,3.4401690160357425-1.3831607384061233,5.266650503931007-2.021542617670488
	c2.2786686523741904-0.78024451910089,4.699199944584906-1.462958473314169,7.110864821805839-2.1456724275274475c2.1013403525785335-0.6029162193052332,4.238146365116198-1.1615003636615522,6.437017282582342-1.6846188480587398c1.4274928133550375-0.33692376961174797,2.908184116648772-0.6295154642745817,4.380009004952724-0.9309735739271983V451.06112977522247z M425.5879195095764,125.59276833027394
	v-0.42558791950957636l-10.027915353444394,1.3210958334776433c-70.02694558930487,9.256537249333286-101.45838672808505,56.84258649949779-104.18037612994839,61.178263429501605c-0.13299622484674262,0.20392754476500535-0.23052678973435387,0.3546565995913137-0.24825961971391955,0.38125584456066214l-3.6352301458109646,5.949364458144287l35.11986977452983,35.12873618951962
	l-120.57437744605686-0.31919093963218226l-0.31919093963218226-120.57437744605686l36.65375956776227,36.65375956776227l6.268555397776469-6.649811242337131c44.81086135836248-47.60378208014407,86.41208049042358-49.971114882416096,87.28985557441207-50.01544695736501c5.062722959166002-0.4699199944584906,10.072247428393307-0.6472482942541474,15.055172652651263-0.6295154642745817
	c0.5408513143767533,0.0,1.0905690437432896,0.0,1.6314203581200428,0.0c15.596023967028017,0.21279395975478818,30.757593599556674,2.757455061822464,45.271914937831184,7.669448966162157l8.219166695528694,2.7751878918020294c19.931700897031828,8.041838395733038,35.057804869601355,19.328784677726595,45.41377757766771,28.913379281681845
	C452.33789353375124,124.87458871610153,438.40875558480235,124.59972985141827,425.5879195095764,125.59276833027394z"/>
<g>
</g>
<g>
</g>
<g>
</g>
<g>
</g>
<g>
</g>
<g>
</g>
<g>
</g>
<g>
</g>
<g>
</g>
<g>
</g>
<g>
</g>
<g>
</g>
<g>
</g>
<g>
</g>
<g>
</g>
</svg>
