<?xml version="1.0" encoding="iso-8859-1"?>
<!-- Generator: Adobe Illustrator 19.0.0, SVG Export Plug-In . SVG Version: 6.00 Build 0)  -->
<svg version="1.1" id="Capa_1" xmlns="http://www.w3.org/2000/svg" xmlns:xlink="http://www.w3.org/1999/xlink" x="0px" y="0px"
	 viewBox="0 0 512 512" style="enable-background:new 0 0 60 60;" xml:space="preserve">
<path d="M379.73333333333335,123.73333333333333C306.79893333333337,123.73333333333333,247.46666666666667,183.0656,247.46666666666667,256.0c0.0,63.52213333333333-51.67786666666667,115.2-115.2,115.2S17.066666666666666,319.52213333333333,17.066666666666666,256.0s51.67786666666667-115.2,115.2-115.2
	c22.929066666666664,0.0,45.07306666666667,6.7157333333333336,64.04266666666666,19.430400000000002c6.314666666666667,4.224,12.219733333333332,9.088,17.5616,14.455466666666666c3.328,3.328,8.7296,3.3536,12.066133333333333,0.0256
	c3.345066666666667-3.328,3.3536-8.7296,0.0256-12.074666666666667c-6.126933333333333-6.152533333333333-12.910933333333332-11.733333333333333-20.1472-16.5888C184.02133333333333,131.44746666666666,158.58346666666665,123.73333333333333,132.26666666666665,123.73333333333333
	C59.33226666666667,123.73333333333333,0.0,183.0656,0.0,256.0s59.33226666666667,132.26666666666665,132.26666666666665,132.26666666666665S264.5333333333333,328.9344,264.5333333333333,256.0c0.0-63.52213333333333,51.67786666666667-115.2,115.2-115.2S494.93333333333334,192.47786666666667,494.93333333333334,256.0
	s-51.67786666666667,115.2-115.2,115.2c-30.762666666666664,0.0-59.690666666666665-11.972266666666666-81.44213333333333-33.723733333333335c-3.3365333333333336-3.3365333333333336-8.7296-3.3365333333333336-12.066133333333333,0.0s-3.3365333333333336,8.7296,0.0,12.066133333333333
	C311.20213333333334,374.5194666666667,344.4053333333333,388.26666666666665,379.73333333333335,388.26666666666665C452.6677333333333,388.26666666666665,512.0,328.9344,512.0,256.0S452.6677333333333,123.73333333333333,379.73333333333335,123.73333333333333z"/>
<g>
</g>
<g>
</g>
<g>
</g>
<g>
</g>
<g>
</g>
<g>
</g>
<g>
</g>
<g>
</g>
<g>
</g>
<g>
</g>
<g>
</g>
<g>
</g>
<g>
</g>
<g>
</g>
<g>
</g>
</svg>
