<?xml version="1.0" encoding="iso-8859-1"?>
<!-- Generator: Adobe Illustrator 19.0.0, SVG Export Plug-In . SVG Version: 6.00 Build 0)  -->
<svg version="1.1" id="Capa_1" xmlns="http://www.w3.org/2000/svg" xmlns:xlink="http://www.w3.org/1999/xlink" x="0px" y="0px"
	 viewBox="0 0 512 512" style="enable-background:new 0 0 52 52;" xml:space="preserve">
<g>
	<path d="M256.0,0.0C114.83569230769231,0.0,0.0,114.83569230769231,0.0,256.0s114.83569230769231,256.0,256.0,256.0s256.0-114.83569230769231,256.0-256.0S397.1643076923078,0.0,256.0,0.0z M256.0,492.3076923076923C125.70584615384615,492.3076923076923,19.692307692307693,386.29415384615385,19.692307692307693,256.0
		S125.70584615384615,19.692307692307693,256.0,19.692307692307693s236.30769230769232,106.01353846153846,236.30769230769232,236.30769230769232S386.29415384615385,492.3076923076923,256.0,492.3076923076923z"/>
	<path d="M256.0,364.3076923076923c-5.444923076923078,0.0-9.846153846153847,4.40123076923077-9.846153846153847,9.846153846153847v19.692307692307693c0.0,5.444923076923078,4.40123076923077,9.846153846153847,9.846153846153847,9.846153846153847s9.846153846153847-4.40123076923077,9.846153846153847-9.846153846153847v-19.692307692307693C265.84615384615387,368.7089230769231,261.4449230769231,364.3076923076923,256.0,364.3076923076923z"/>
	<path d="M257.11261538461537,88.62523076923077C256.73846153846154,88.62523076923077,256.3643076923077,88.61538461538461,255.98030769230772,88.61538461538461c-20.83446153846154,0.0-40.42830769230769,8.024615384615384-55.28615384615385,22.68553846153846C185.57046153846156,126.21784615384617,177.23076923076923,146.1366153846154,177.23076923076923,167.3846153846154
		c0.0,5.444923076923078,4.40123076923077,9.846153846153847,9.846153846153847,9.846153846153847s9.846153846153847-4.40123076923077,9.846153846153847-9.846153846153847c0.0-15.931076923076924,6.252307692307693-30.877538461538464,17.595076923076924-42.062769230769234c11.352615384615385-11.195076923076924,26.46646153846154-17.37846153846154,42.32861538461539-17.004307692307695
		c31.12369230769231,0.43323076923076925,57.787076923076924,27.096615384615383,58.2203076923077,58.2203076923077c0.2855384615384616,20.519384615384617-9.836307692307694,39.40430769230769-27.08676923076923,50.53046153846154C261.7895384615385,233.9643076923077,246.15384615384616,263.8178461538462,246.15384615384616,296.9403076923077V324.92307692307696
		c0.0,5.444923076923078,4.40123076923077,9.846153846153847,9.846153846153847,9.846153846153847s9.846153846153847-4.40123076923077,9.846153846153847-9.846153846153847v-27.982769230769232c0.0-26.013538461538463,12.563692307692309-50.26461538461539,32.80738461538461-63.33046153846155c22.99076923076923-14.828307692307693,36.48984615384616-40.00492307692308,36.10584615384615-67.34769230769231
		C334.1686153846154,124.05169230769232,299.33292307692307,89.21600000000001,257.11261538461537,88.62523076923077z"/>
</g>
<g>
</g>
<g>
</g>
<g>
</g>
<g>
</g>
<g>
</g>
<g>
</g>
<g>
</g>
<g>
</g>
<g>
</g>
<g>
</g>
<g>
</g>
<g>
</g>
<g>
</g>
<g>
</g>
<g>
</g>
</svg>
