<?xml version="1.0" encoding="iso-8859-1"?>
<!-- Generator: Adobe Illustrator 19.0.0, SVG Export Plug-In . SVG Version: 6.00 Build 0)  -->
<svg version="1.1" id="Capa_1" xmlns="http://www.w3.org/2000/svg" xmlns:xlink="http://www.w3.org/1999/xlink" x="0px" y="0px"
	 viewBox="0 0 512 512" style="enable-background:new 0 0 58 58;" xml:space="preserve">
<path d="M447.45268965517243,425.68386206896554C487.56524137931035,380.4777931034483,512.0,321.05048275862066,512.0,256.0c0.0-67.68110344827586-26.44744827586207-129.26234482758622-69.49075862068965-175.0863448275862c0.0,0.0,0.0-0.008827586206896552,0.0-0.008827586206896552
	c-0.03531034482758621-0.05296551724137931-0.08827586206896552-0.07062068965517242-0.11475862068965517-0.11475862068965517c-44.83531034482758-47.660137931034484-107.65241379310345-78.16827586206897-177.52275862068964-80.56055172413792l-0.008827586206896552-0.008827586206896552L259.8753103448276,0.08827586206896552C258.58648275862066,0.04413793103448276,257.2976551724138,0.0,256.0,0.0
	s-2.5864827586206895,0.04413793103448276-3.8753103448275863,0.08827586206896552l-4.969931034482758,0.13241379310344828l-0.008827586206896552,0.008827586206896552c-69.87034482758621,2.3922758620689657-132.68744827586207,32.900413793103446-177.52275862068964,80.56055172413792c-0.03531034482758621,0.04413793103448276-0.08827586206896552,0.06179310344827586-0.11475862068965517,0.11475862068965517
	c0.0,0.0,0.0,0.008827586206896552-0.008827586206896552,0.017655172413793104C26.44744827586207,126.73765517241378,0.0,188.31889655172412,0.0,256.0c0.0,65.05048275862069,24.434758620689653,124.47779310344828,64.5473103448276,169.68386206896554c0.05296551724137931,0.07944827586206896,0.05296551724137931,0.16772413793103447,0.11475862068965517,0.24717241379310345
	c0.1588965517241379,0.2206896551724138,0.38841379310344826,0.3266206896551724,0.5561379310344827,0.5296551724137931c45.073655172413794,50.38786206896552,109.74455172413793,82.84689655172413,181.91889655172415,85.31862068965516l0.008827586206896552,0.008827586206896552l4.969931034482758,0.13241379310344828C253.4135172413793,511.9558620689655,254.70234482758622,512.0,256.0,512.0
	s2.5864827586206895-0.04413793103448276,3.8753103448275863-0.08827586206896552l4.969931034482758-0.13241379310344828l0.008827586206896552-0.008827586206896552c72.25379310344827-2.480551724137931,136.99531034482757-35.001379310344824,182.06896551724137-85.49517241379311c0.11475862068965517-0.1500689655172414,0.3001379310344828-0.19420689655172413,0.40606896551724136-0.3531034482758621
	C447.39972413793106,425.85158620689657,447.39972413793106,425.7633103448276,447.45268965517243,425.68386206896554z M17.875862068965517,264.82758620689657h105.9575172413793c0.9975172413793103,37.42013793103448,8.306758620689655,73.78096551724138,21.318620689655173,107.84662068965518
	c-25.10565517241379,9.08358620689655-49.10786206896552,21.26565517241379-71.60055172413793,36.46675862068966C40.47448275862069,369.79641379310345,19.888551724137933,319.6468965517241,17.875862068965517,264.82758620689657z M78.37131034482759,97.30648275862069c21.96303448275862,14.283034482758621,45.347310344827584,25.723586206896552,69.73793103448276,34.268689655172416
	C133.17296551724138,167.83006896551726,124.91034482758621,206.91862068965517,123.83337931034482,247.17241379310343H17.875862068965517C19.98565517241379,189.73131034482756,42.478344827586206,137.4278620689655,78.37131034482759,97.30648275862069z M494.1241379310345,247.17241379310343H388.1666206896552
	c-1.0769655172413792-40.253793103448274-9.339586206896552-79.3423448275862-24.275862068965516-115.59724137931035c24.390620689655172-8.545103448275862,47.77489655172413-19.98565517241379,69.73793103448276-34.268689655172416C469.52165517241383,137.4278620689655,492.01434482758617,189.73131034482756,494.1241379310345,247.17241379310343z M247.17241379310343,132.0871724137931
	c-25.52055172413793-0.7238620689655173-50.573241379310346-4.528551724137931-74.77848275862068-11.325793103448275C190.28744827586206,84.05627586206897,215.552,50.926344827586206,247.17241379310343,23.340137931034484V132.0871724137931z M247.17241379310343,149.7423448275862V247.17241379310343H141.48855172413792
	c1.0857931034482757-38.3823448275862,9.13655172413793-75.60827586206896,23.534344827586207-110.12413793103448C191.55862068965516,144.73710344827586,219.1095172413793,148.992,247.17241379310343,149.7423448275862z M264.82758620689657,149.7423448275862c28.062896551724137-0.7503448275862069,55.61379310344827-4.996413793103447,82.1583448275862-12.694068965517241
	c14.397793103448276,34.51586206896552,22.448551724137932,71.74179310344829,23.534344827586207,110.12413793103448H264.82758620689657V149.7423448275862z M264.82758620689657,132.0871724137931V23.340137931034484c31.620413793103445,27.586206896551722,56.884965517241376,60.71613793103448,74.77848275862068,97.42124137931035
	C315.4008275862069,127.55862068965516,290.34813793103444,131.3633103448276,264.82758620689657,132.0871724137931z M356.71393103448275,115.39420689655172c-16.957793103448275-35.53103448275862-40.49213793103448-67.90179310344827-69.632-95.64689655172414
	c51.69434482758621,6.761931034482759,98.20689655172414,30.13737931034483,134.02924137931035,64.60027586206895C400.77241379310345,97.2535172413793,379.1977931034483,107.63475862068965,356.71393103448275,115.39420689655172z M155.28606896551725,115.39420689655172
	c-22.483862068965518-7.759448275862069-44.058482758620684-18.140689655172416-64.38841379310344-31.04662068965517c35.813517241379316-34.462896551724135,82.33489655172414-57.838344827586205,134.02924137931035-64.60027586206895C195.77820689655172,47.492413793103445,172.2438620689655,79.86317241379311,155.28606896551725,115.39420689655172z M141.48855172413792,264.82758620689657
	H247.17241379310343v88.61131034482759c-29.192827586206896,0.7768275862068965-57.79420689655172,5.331862068965517-85.28331034482758,13.603310344827586C149.4686896551724,334.7773793103448,142.48606896551723,300.30565517241376,141.48855172413792,264.82758620689657z M247.17241379310343,371.0940689655172v117.56579310344827
	c-33.84496551724138-29.528275862068966-60.38068965517241-65.40358620689655-78.42427586206897-105.1983448275862C194.0568275862069,376.00220689655174,220.3453793103448,371.85324137931036,247.17241379310343,371.0940689655172z M264.82758620689657,488.65986206896554V371.0940689655172
	c26.82703448275862,0.7503448275862069,53.11558620689655,4.908137931034483,78.42427586206897,12.358620689655172C325.208275862069,423.256275862069,298.672551724138,459.13158620689654,264.82758620689657,488.65986206896554z M264.82758620689657,353.4388965517241V264.82758620689657h105.68386206896551
	c-0.9975172413793103,35.478068965517245-7.980137931034482,69.94979310344827-20.409379310344825,102.22344827586207C322.6217931034482,358.77075862068966,294.02041379310344,354.21572413793103,264.82758620689657,353.4388965517241z M388.1666206896552,264.82758620689657h105.9575172413793
	c-2.012689655172414,54.819310344827585-22.589793103448276,104.9688275862069-55.675586206896554,144.31337931034483c-22.492689655172413-15.201103448275862-46.49489655172414-27.3831724137931-71.60055172413793-36.46675862068966C379.8686896551724,338.6085517241379,387.16910344827585,302.247724137931,388.1666206896552,264.82758620689657z
	 M85.54813793103449,422.36468965517236c20.886068965517243-13.876965517241379,43.12275862068965-25.03503448275862,66.35696551724138-33.37710344827586c17.169655172413794,38.48827586206897,41.81627586206896,73.56027586206896,73.01296551724138,103.26510344827587C170.61958620689654,485.14648275862066,122.02372413793104,459.72303448275864,85.54813793103449,422.36468965517236
	z M287.08193103448275,492.2526896551724c31.196689655172413-29.695999999999998,55.84331034482758-64.768,73.01296551724138-103.26510344827587c23.234206896551726,8.34206896551724,45.46206896551725,19.500137931034484,66.35696551724138,33.37710344827586
	C389.976275862069,459.72303448275864,341.3804137931034,485.14648275862066,287.08193103448275,492.2526896551724z"/>
<g>
</g>
<g>
</g>
<g>
</g>
<g>
</g>
<g>
</g>
<g>
</g>
<g>
</g>
<g>
</g>
<g>
</g>
<g>
</g>
<g>
</g>
<g>
</g>
<g>
</g>
<g>
</g>
<g>
</g>
</svg>
