<?xml version="1.0" encoding="iso-8859-1"?>
<!-- Generator: Adobe Illustrator 19.0.0, SVG Export Plug-In . SVG Version: 6.00 Build 0)  -->
<svg version="1.1" id="Capa_1" xmlns="http://www.w3.org/2000/svg" xmlns:xlink="http://www.w3.org/1999/xlink" x="0px" y="0px"
	 viewBox="0 0 512 512" style="enable-background:new 0 0 60 60;" xml:space="preserve">
<g>
	<path d="M199.92746666666665,145.06666666666666H401.06666666666666c4.7104,0.0,8.533333333333333-3.8144,8.533333333333333-8.533333333333333s-3.8229333333333333-8.533333333333333-8.533333333333333-8.533333333333333H199.92746666666665c-4.7104,0.0-8.533333333333333,3.8144-8.533333333333333,8.533333333333333S195.21706666666665,145.06666666666666,199.92746666666665,145.06666666666666z"/>
	<path d="M199.92746666666665,273.06666666666666H401.06666666666666c4.7104,0.0,8.533333333333333-3.8144,8.533333333333333-8.533333333333333s-3.8229333333333333-8.533333333333333-8.533333333333333-8.533333333333333H199.92746666666665c-4.7104,0.0-8.533333333333333,3.8144-8.533333333333333,8.533333333333333S195.21706666666665,273.06666666666666,199.92746666666665,273.06666666666666z"/>
	<path d="M199.92746666666665,401.06666666666666H401.06666666666666c4.7104,0.0,8.533333333333333-3.8144,8.533333333333333-8.533333333333333s-3.8229333333333333-8.533333333333333-8.533333333333333-8.533333333333333H199.92746666666665c-4.7104,0.0-8.533333333333333,3.8144-8.533333333333333,8.533333333333333S195.21706666666665,401.06666666666666,199.92746666666665,401.06666666666666z"/>
	<path d="M503.46666666666664,0.0H8.533333333333333C3.8229333333333333,0.0,0.0,3.8144,0.0,8.533333333333333v494.93333333333334c0.0,4.718933333333334,3.8229333333333333,8.533333333333333,8.533333333333333,8.533333333333333h494.93333333333334c4.7104,0.0,8.533333333333333-3.8144,8.533333333333333-8.533333333333333V8.533333333333333C512.0,3.8144,508.17706666666663,0.0,503.46666666666664,0.0z M494.93333333333334,494.93333333333334H17.066666666666666V17.066666666666666h477.8666666666667V494.93333333333334z"
		/>
	<polygon points="106.67519999999999,157.6448 127.39413333333333,146.74773333333331 148.11306666666667,157.6448 144.16213333333332,134.57066666666665 160.9216,118.2208 137.7536,114.85866666666668 127.39413333333333,93.86666666666666 117.03466666666667,114.85866666666668 
		93.86666666666666,118.2208 110.63466666666666,134.57066666666665 	"/>
	<polygon points="106.67519999999999,286.3530666666667 127.39413333333333,275.456 148.11306666666667,286.3530666666667 144.16213333333332,263.2789333333333 160.9216,246.93759999999997 137.7536,243.5669333333333 127.39413333333333,222.57493333333332 
		117.03466666666667,243.5669333333333 93.86666666666666,246.93759999999997 110.63466666666666,263.2789333333333 	"/>
	<polygon points="106.67519999999999,418.1333333333333 127.39413333333333,407.23626666666667 148.11306666666667,418.1333333333333 144.16213333333332,395.0592 160.9216,378.7178666666667 137.7536,375.3472 127.39413333333333,354.3552 117.03466666666667,375.3472 
		93.86666666666666,378.7178666666667 110.63466666666666,395.0592 	"/>
</g>
<g>
</g>
<g>
</g>
<g>
</g>
<g>
</g>
<g>
</g>
<g>
</g>
<g>
</g>
<g>
</g>
<g>
</g>
<g>
</g>
<g>
</g>
<g>
</g>
<g>
</g>
<g>
</g>
<g>
</g>
</svg>
