<?xml version="1.0" encoding="iso-8859-1"?>
<!-- Generator: Adobe Illustrator 19.0.0, SVG Export Plug-In . SVG Version: 6.00 Build 0)  -->
<svg version="1.1" id="Capa_1" xmlns="http://www.w3.org/2000/svg" xmlns:xlink="http://www.w3.org/1999/xlink" x="0px" y="0px"
	 viewBox="0 0 512 512" style="enable-background:new 0 0 58 58;" xml:space="preserve">
<g>
	<path d="M353.1034482758621,188.1511724137931V90.21793103448276C353.1034482758621,40.47448275862069,309.5393103448276,0.0,256.0,0.0S158.89655172413794,40.47448275862069,158.89655172413794,90.21793103448276v97.93324137931033C111.0863448275862,219.77158620689656,79.44827586206897,273.9553103448276,79.44827586206897,335.44827586206895c0.0,97.35062068965517,79.20110344827586,176.55172413793105,176.55172413793105,176.55172413793105
		s176.55172413793105-79.20110344827586,176.55172413793105-176.55172413793105C432.55172413793105,273.9553103448276,400.91365517241377,219.77158620689656,353.1034482758621,188.1511724137931z M176.55172413793105,177.9376551724138V90.21793103448276C176.55172413793105,50.21131034482758,212.1886896551724,17.655172413793103,256.0,17.655172413793103s79.44827586206897,32.556137931034485,79.44827586206897,72.56275862068966v87.72855172413793
		c-1.6595862068965517-0.8386206896551724-3.35448275862069-1.5801379310344827-5.031724137931034-2.3657931034482758c-3.4692413793103447-1.6242758620689655-6.991448275862069-3.142620689655172-10.575448275862069-4.546206896551724c-2.3040000000000003-0.9004137931034482-4.616827586206897-1.7478620689655173-6.947310344827587-2.551172413793103
		c-2.2951724137931033-0.785655172413793-4.572689655172414-1.571310344827586-6.903172413793103-2.2598620689655173c-3.857655172413793-1.1475862068965517-7.759448275862069-2.127448275862069-11.687724137931035-3.010206896551724c-1.7037241379310346-0.3795862068965517-3.4162758620689657-0.7415172413793104-5.137655172413793-1.0769655172413792
		c-4.616827586206897-0.8915862068965518-9.260137931034482-1.615448275862069-13.938758620689654-2.1362758620689655c-1.0593103448275862-0.11475862068965517-2.1186206896551725-0.1853793103448276-3.1779310344827585-0.28248275862068967C266.70786206896554,159.21434482758622,261.3671724137931,158.89655172413794,256.0,158.89655172413794s-10.707862068965518,0.3177931034482758-16.030896551724137,0.8121379310344827
		c-1.0593103448275862,0.09710344827586206-2.127448275862069,0.16772413793103447-3.1779310344827585,0.28248275862068967c-4.6786206896551725,0.5208275862068965-9.321931034482759,1.2446896551724136-13.938758620689654,2.1362758620689655c-1.7213793103448276,0.3266206896551724-3.4339310344827587,0.6973793103448276-5.137655172413793,1.0769655172413792
		c-3.9282758620689657,0.8827586206896552-7.830068965517241,1.8626206896551722-11.687724137931035,3.010206896551724c-2.3304827586206898,0.688551724137931-4.616827586206897,1.4830344827586208-6.903172413793103,2.2598620689655173c-2.3304827586206898,0.8033103448275861-4.652137931034483,1.6507586206896552-6.947310344827587,2.551172413793103
		c-3.592827586206896,1.3947586206896552-7.106206896551725,2.9219310344827587-10.575448275862069,4.546206896551724C179.9062068965517,176.35751724137933,178.21131034482758,177.09903448275864,176.55172413793105,177.9376551724138z M256.0,494.34482758620686c-87.61379310344829,0.0-158.89655172413794-71.28275862068965-158.89655172413794-158.89655172413794
		c0.0-57.70593103448276,31.02896551724138-108.18206896551725,77.17958620689656-136.01544827586207c8.121379310344828-4.89048275862069,16.61351724137931-9.012965517241378,25.361655172413794-12.367448275862069c1.553655172413793-0.5914482758620689,3.1161379310344826-1.1740689655172414,4.687448275862069-1.7213793103448276
		c2.4099310344827587-0.8386206896551724,4.828689655172414-1.6419310344827587,7.273931034482758-2.3657931034482758c3.0013793103448276-0.8739310344827587,6.046896551724139-1.6507586206896552,9.118896551724138-2.3481379310344828c2.2422068965517243-0.512,4.493241379310345-0.9622068965517241,6.753103448275862-1.377103448275862
		c3.2573793103448274-0.5914482758620689,6.541241379310344-1.1211034482758622,9.869241379310346-1.5095172413793105c1.5006896551724138-0.1853793103448276,3.010206896551724-0.3442758620689655,4.519724137931035-0.4766896551724138C246.5368275862069,176.85186206896552,251.23310344827587,176.55172413793105,256.0,176.55172413793105s9.463172413793103,0.3001379310344828,14.132965517241379,0.7150344827586207
		c1.5095172413793105,0.14124137931034483,3.010206896551724,0.3001379310344828,4.519724137931035,0.4766896551724138c3.328,0.38841379310344826,6.611862068965517,0.9180689655172414,9.869241379310346,1.5095172413793105c2.2598620689655173,0.4148965517241379,4.510896551724138,0.865103448275862,6.753103448275862,1.377103448275862
		c3.0719999999999996,0.6973793103448276,6.11751724137931,1.474206896551724,9.118896551724138,2.3481379310344828c2.445241379310345,0.7150344827586207,4.864000000000001,1.5271724137931033,7.273931034482758,2.3657931034482758c1.5801379310344827,0.5473103448275862,3.1337931034482756,1.1299310344827587,4.687448275862069,1.7213793103448276
		c8.748137931034483,3.35448275862069,17.240275862068966,7.476965517241379,25.361655172413794,12.367448275862069C383.86758620689653,227.26620689655172,414.8965517241379,277.74234482758624,414.8965517241379,335.44827586206895C414.8965517241379,423.0620689655172,343.61379310344824,494.34482758620686,256.0,494.34482758620686z"/>
	<path d="M361.9310344827586,326.6206896551724h-27.003586206896554c-1.7037241379310346-15.298206896551724-7.768275862068966-29.272275862068962-16.913655172413794-40.704l19.129379310344827-19.129379310344827c3.4515862068965517-3.4515862068965517,3.4515862068965517-9.030620689655171,0.0-12.482206896551723s-9.030620689655171-3.4515862068965517-12.482206896551723,0.0
		l-19.129379310344827,19.129379310344827c-11.431724137931033-9.145379310344827-25.405793103448275-15.209931034482759-40.704-16.913655172413794V229.51724137931035c0.0-4.881655172413794-3.9459310344827587-8.827586206896552-8.827586206896552-8.827586206896552s-8.827586206896552,3.9459310344827587-8.827586206896552,8.827586206896552v27.003586206896554
		c-15.298206896551724,1.7037241379310346-29.272275862068962,7.768275862068966-40.704,16.913655172413794l-19.129379310344827-19.129379310344827c-3.4515862068965517-3.4515862068965517-9.030620689655171-3.4515862068965517-12.482206896551723,0.0s-3.4515862068965517,9.030620689655171,0.0,12.482206896551723l19.129379310344827,19.129379310344827
		c-9.145379310344827,11.431724137931033-15.209931034482759,25.405793103448275-16.913655172413794,40.704H150.06896551724137c-4.881655172413794,0.0-8.827586206896552,3.9459310344827587-8.827586206896552,8.827586206896552s3.9459310344827587,8.827586206896552,8.827586206896552,8.827586206896552h27.003586206896554c1.7037241379310346,15.298206896551724,7.768275862068966,29.272275862068962,16.913655172413794,40.704
		l-19.129379310344827,19.129379310344827c-3.4515862068965517,3.4515862068965517-3.4515862068965517,9.030620689655171,0.0,12.482206896551723c1.7213793103448276,1.7213793103448276,3.9812413793103447,2.5864827586206895,6.241103448275862,2.5864827586206895s4.519724137931035-0.865103448275862,6.241103448275862-2.5864827586206895l19.129379310344827-19.129379310344827
		c11.431724137931033,9.145379310344827,25.405793103448275,15.209931034482759,40.704,16.913655172413794V441.37931034482756c0.0,4.881655172413794,3.9459310344827587,8.827586206896552,8.827586206896552,8.827586206896552s8.827586206896552-3.9459310344827587,8.827586206896552-8.827586206896552v-27.003586206896554c15.298206896551724-1.7037241379310346,29.272275862068962-7.768275862068966,40.704-16.913655172413794l19.129379310344827,19.129379310344827
		c1.7213793103448276,1.7213793103448276,3.9812413793103447,2.5864827586206895,6.241103448275862,2.5864827586206895s4.519724137931035-0.865103448275862,6.241103448275862-2.5864827586206895c3.4515862068965517-3.4515862068965517,3.4515862068965517-9.030620689655171,0.0-12.482206896551723l-19.129379310344827-19.129379310344827
		c9.145379310344827-11.431724137931033,15.209931034482759-25.405793103448275,16.913655172413794-40.704H361.9310344827586c4.881655172413794,0.0,8.827586206896552-3.9459310344827587,8.827586206896552-8.827586206896552S366.8126896551724,326.6206896551724,361.9310344827586,326.6206896551724z M256.0,397.2413793103448c-34.06565517241379,0.0-61.79310344827586-27.72744827586207-61.79310344827586-61.79310344827586s27.72744827586207-61.79310344827586,61.79310344827586-61.79310344827586
		s61.79310344827586,27.72744827586207,61.79310344827586,61.79310344827586S290.0656551724138,397.2413793103448,256.0,397.2413793103448z"/>
</g>
<g>
</g>
<g>
</g>
<g>
</g>
<g>
</g>
<g>
</g>
<g>
</g>
<g>
</g>
<g>
</g>
<g>
</g>
<g>
</g>
<g>
</g>
<g>
</g>
<g>
</g>
<g>
</g>
<g>
</g>
</svg>
