<?xml version="1.0" encoding="iso-8859-1"?>
<!-- Generator: Adobe Illustrator 19.0.0, SVG Export Plug-In . SVG Version: 6.00 Build 0)  -->
<svg version="1.1" id="Capa_1" xmlns="http://www.w3.org/2000/svg" xmlns:xlink="http://www.w3.org/1999/xlink" x="0px" y="0px"
	 viewBox="0 0 512 512" style="enable-background:new 0 0 60 60;" xml:space="preserve">
<path d="M230.4,162.13333333333333h119.46666666666667h51.2h110.93333333333334V25.6H401.06666666666666h-51.2H230.4C103.35573333333333,25.6,0.0,128.95573333333334,0.0,256.0s103.35573333333333,230.4,230.4,230.4h119.46666666666667h51.2h110.93333333333334V349.8666666666667H401.06666666666666h-51.2H230.4c-51.75466666666667,0.0-93.86666666666666-42.111999999999995-93.86666666666666-93.86666666666666
	S178.64533333333333,162.13333333333333,230.4,162.13333333333333z M494.93333333333334,42.666666666666664v102.4H401.06666666666666V42.666666666666664H494.93333333333334z M384.0,42.666666666666664v102.4h-17.066666666666666V42.666666666666664H384.0z M494.93333333333334,366.93333333333334v102.4H401.06666666666666V366.93333333333334H494.93333333333334z M384.0,366.93333333333334v102.4h-17.066666666666666V366.93333333333334H384.0z M119.46666666666667,256.0c0.0,61.16693333333333,49.7664,110.93333333333334,110.93333333333334,110.93333333333334h119.46666666666667
	v102.4H230.4C112.768,469.3333333333333,17.066666666666666,373.63199999999995,17.066666666666666,256.0S112.768,42.666666666666664,230.4,42.666666666666664h119.46666666666667v102.4H230.4C169.23306666666667,145.06666666666666,119.46666666666667,194.83306666666667,119.46666666666667,256.0z"/>
<g>
</g>
<g>
</g>
<g>
</g>
<g>
</g>
<g>
</g>
<g>
</g>
<g>
</g>
<g>
</g>
<g>
</g>
<g>
</g>
<g>
</g>
<g>
</g>
<g>
</g>
<g>
</g>
<g>
</g>
</svg>
