<?xml version="1.0" encoding="iso-8859-1"?>
<!-- Generator: Adobe Illustrator 19.0.0, SVG Export Plug-In . SVG Version: 6.00 Build 0)  -->
<svg version="1.1" id="Capa_1" xmlns="http://www.w3.org/2000/svg" xmlns:xlink="http://www.w3.org/1999/xlink" x="0px" y="0px"
	 viewBox="0 0 512 512" style="enable-background:new 0 0 55.017 55.017;" xml:space="preserve">
<g>
	<path d="M481.01961211989016,214.16391297235398H379.5911809077194c-5.146336586873148,0.0-9.306214442808585,4.159877855935438-9.306214442808585,9.306214442808585s4.159877855935438,9.306214442808585,9.306214442808585,9.306214442808585h84.70516385844374l26.978715669702087,251.2677899558318H21.10649435628987l31.669047748877617-251.2677899558318h84.85406328952868c5.146336586873148,0.0,9.306214442808585-4.159877855935438,9.306214442808585-9.306214442808585
		s-4.159877855935438-9.306214442808585-9.306214442808585-9.306214442808585H36.35937982805314L0.0,502.6565606994201h511.99999999999994L481.01961211989016,214.16391297235398z"/>
	<path d="M248.04783975862003,362.64456440736495c-1.3680135230928618,0.8096406565243468-2.82908919061381,1.526219168620608-4.14126542704982,2.3730846829161893c-2.0473671774178888,1.321482450878819-4.048203282621735,2.708108402857298-6.011814530054346,4.14126542704982
		c-4.14126542704982,3.0431321227984074-5.034662013559445,8.868822363996582-2.0008361052038457,13.0100877910464c1.8240180307904827,2.4847592562298924,4.653107221404293,3.7969354926659027,7.519421269789337,3.7969354926659027c1.9077739607757598,0.0,3.834160350437137-0.5862915098969409,5.499972735699873-1.796099387462057
		c1.656506170819928-1.2191140920079246,3.340930984968282-2.391697111801806,5.0998055146591055-3.5270552738244536c2.987294836141556-1.9356926041041855,6.160713961139284-3.75040442045186,9.436501445007906-5.406910591271788c4.355308359234418-2.2055728229456344,6.123489103368049-7.361215624261591,4.299471072577567-11.809586127924094
		c0.07444971554246868-0.07444971554246868,0.1675118599705545-0.13028700219932018,0.23265536107021464-0.20473671774178887c16.83494192704073-17.83070687242125,73.56562517040187-84.64932657178689,97.05451042405073-195.97026373666318c4.764781794717996-22.57687623825363,5.834996455640983-44.24174346111201,3.182725339440536-64.3896977297926
		c-8.003344420815383-61.188359961466446-46.019230419688455-93.53676136466909-109.93431121289782-93.53676136466909c-63.896468364323745,0.0-101.91235436319683,32.348401403202644-109.93431121289782,93.53676136466909c-2.642964901757638,20.157260483123395-1.572750240834651,41.82212770598178,3.192031553883345,64.3896977297926
		C174.79862587927366,277.4927022556664,230.63591253612518,344.05074795063337,248.04783975862003,362.64456440736495z M166.80458767290108,105.29051020593633c6.821455186578692-52.0403511641856,36.7502408346511-77.34394823418215,91.4893941872512-77.34394823418215c54.74845956704291,0.0,84.66793900067252,25.303597069996542,91.48008797280839,77.34394823418215
		c2.3730846829161893,18.054056019048655,1.3773197375356705,37.62502499227511-2.940763763927513,58.13592162422523C325.71750549830045,263.49615573368226,275.370885362706,326.99245687696526,258.29398186015226,346.25632077357903c-17.09551593143937-19.28247632549939-67.43282985259101-82.80669611211079-88.53932420888087-182.82988894341747
		C165.42726793536542,142.91553519821144,164.44080920442772,123.3538724394278,166.80458767290108,105.29051020593633z"/>
	<path d="M258.29398186015226,185.42632277296107c37.69947470781758,0.0,68.36345129687187-30.663976589054286,68.36345129687187-68.36345129687187s-30.663976589054286-68.36345129687187-68.36345129687187-68.36345129687187s-68.36345129687187,30.663976589054286-68.36345129687187,68.36345129687187
		S220.5945071523347,185.42632277296107,258.29398186015226,185.42632277296107z M258.29398186015226,67.3211552792773c27.425413962956902,0.0,49.751022411254695,22.316302233854987,49.751022411254695,49.751022411254695s-22.316302233854987,49.751022411254695-49.751022411254695,49.751022411254695s-49.751022411254695-22.316302233854987-49.751022411254695-49.751022411254695
		S230.8685678971954,67.3211552792773,258.29398186015226,67.3211552792773z"/>
	<path d="M292.47570750858824,345.91199083919514c-5.025355799116636,1.0609084464801788-8.226693567442789,6.011814530054346-7.156478906519802,11.04647654361379c0.9306214442808586,4.373920788120035,4.792700438046421,7.361215624261591,9.092171510623988,7.361215624261591c0.6421287965537924,0.0,1.3028700219932021-0.06514350109966009,1.9543050329898028-0.20473671774178887
		c5.4534416634858305-1.1539705909082645,11.362887834669284-2.131123107403166,17.55152043913699-2.912845120599087c5.0998055146591055-0.6235163676681752,8.729229147354452-5.276623589072467,8.087100350800661-10.376429103731573c-0.6328225821109839-5.1091117291019135-5.239398731301233-8.794372648454113-10.376429103731573-8.087100350800661
		C304.89950378973765,343.56682479960733,298.4502971808713,344.63703946053033,292.47570750858824,345.91199083919514z"/>
	<path d="M340.59814239235135,349.6903139029754c0.20473671774178887,4.9974371557882105,4.336695930348801,8.906047221767816,9.287602013922967,8.906047221767816c0.13959321664212876,0.0,0.26988021884144897,0.0,0.40947343548357773-0.009306214442808585l18.62173510005998-0.7724157987531126
		c5.127724157987531-0.23265536107021464,9.110783939509604-4.587963720304632,8.868822363996582-9.715687878292163c-0.23265536107021464-5.146336586873148-5.016049584673827-9.157315011723648-9.715687878292163-8.878128578439389l-18.575204027845935,0.7724157987531126
		C344.35785302724605,340.20728138575345,340.37479324572405,344.54397731610226,340.59814239235135,349.6903139029754z"/>
	<path d="M208.76630859552498,392.5082065543377c-4.783394223603612,3.6108112038097313-9.72499409273497,7.082029190977333-14.703818819637565,10.301979388189103c-4.3087772870203755,2.801170547285384-5.537197593471108,8.561717287383898-2.7360270461857237,12.879800788847081
		c1.7774869585764397,2.7453332606285326,4.7740880091608044,4.234327571477906,7.817220131959211,4.234327571477906c1.7402621008052055,0.0,3.4898304160532194-0.4839231510260464,5.062580656887871-1.4983005252921822c5.332460875729319-3.4619117727247937,10.646309322573021-7.184397549848228,15.774033480560552-11.0557827580566
		c4.0947343548357775-3.098969409455259,4.913681225802933-8.93396586509624,1.8240180307904827-13.038006434374829C218.70534562044458,390.2654088736208,212.8889615936892,389.40923714488247,208.76630859552498,392.5082065543377z"/>
	<path d="M416.1739098823999,331.14302851845787c-3.145500481669302,2.2055728229456344-7.230928622062271,3.806241707108711-12.526164640020356,4.895068796917316c-5.034662013559445,1.032989803151753-8.273224639656831,5.965283457840303-7.230928622062271,10.999945471399746
		c0.9120090153952414,4.401839431448461,4.783394223603612,7.426359125361252,9.110783939509604,7.426359125361252c0.6235163676681752,0.0,1.256338949779159-0.06514350109966009,1.889161531890143-0.1954305032989803c7.835832560844828-1.6192813130486936,14.201283239725901-4.2064089281494805,19.505825472126794-7.938200919715723l1.2470327353363504-0.9120090153952414
		c4.0947343548357775-3.1082756238980678,4.904375011360124-8.94327207953905,1.8054056019048657-13.038006434374829c-3.1082756238980678-4.0947343548357775-8.93396586509624-4.895068796917316-13.038006434374829-1.8054056019048657L416.1739098823999,331.14302851845787z"/>
	<path d="M82.45305996328406,403.9083192467782c1.3494010942072447-4.960212298016976-1.591362669720268-10.06932402711889-6.551574967737244-11.409418906883324c-4.922987440245742-1.3866259519784792-10.06932402711889,1.572750240834651-11.409418906883324,6.551574967737244
		c-1.1725830197938818,4.3180835014631835-1.8705491030045258,8.729229147354452-2.093898249631932,13.075231292146063C62.35163676681752,413.19592126070114,62.323718123489094,414.27544213606694,62.323718123489094,415.4108002980896c0.009306214442808585,1.8240180307904827,0.09306214442808586,3.6480360615809655,0.26988021884144897,5.462747877928639
		c0.493229365468855,4.792700438046421,4.532126433647781,8.35698056964211,9.250377156151734,8.35698056964211c0.3071050766126833,0.0,0.6235163676681752-0.01861242888561717,0.9585400876092842-0.04653107221404293c5.1091117291019135-0.5304542232400894,8.831597506225346-5.090499300216297,8.319755711870876-10.208917243761018
		c-0.13028700219932018-1.2191140920079246-0.1768180744133631-2.4568406129014666-0.18612428885617172-3.629423632695348c0.0-0.7724157987531126,0.027918643328425755-1.5448315975062252,0.06514350109966009-2.307941181816529C81.15018994129086,410.0225021357034,81.63411309231691,406.9421451551338,82.45305996328406,403.9083192467782z"/>
	<path d="M415.9691731646581,258.80582365450675c-7.389134267590017-0.98645873093771-14.927167966264971-0.381554792155152-22.204627660541284,1.6844248141483538c-4.950906083574168,1.3866259519784792-7.826526346402019,6.532962538851626-6.421287965537923,11.474562407982987
		c1.1539705909082645,4.104040569278586,4.8857625824745075,6.784230328807459,8.94327207953905,6.784230328807459c0.8468655142955812,0.0,1.6937310285911624-0.11167457331370302,2.5312903284439354-0.3536361488267262c4.839231510260465-1.3587073086500534,9.818056237163058-1.7867931730192483,14.65728774742352-1.1353581620226474
		c5.230092516858425,0.6514350109966011,9.790137593834633-2.8942326917134698,10.469491248159658-7.975425777486957C424.63325881091293,264.1755093880073,421.0596724648744,259.4944835232746,415.9691731646581,258.80582365450675z"/>
	<path d="M434.48853990584723,304.9088100041805c-1.5169129541777995,4.904375011360124,1.237726520893542,10.125161313775742,6.142101532253666,11.63276805351073c0.9213152298380499,0.2884926477270661,1.8333242452332914,0.41877964992638633,2.7453332606285326,0.41877964992638633c3.9830597815220745,0.0,7.659014486431465-2.559208971772361,8.887434792882198-6.560881182180053
		c0.9213152298380499-2.95937619281313,1.4889943108493737-5.965283457840303,1.703037243033971-8.961884508424667c0.04653107221404293-0.7724157987531126,0.07444971554246868-1.5541378119490339,0.07444971554246868-2.3265536107021463c0.0-4.355308359234418-0.8003344420815383-8.719922932911645-2.3730846829161893-12.954250504389549
		c-1.7867931730192483-4.829925295817656-7.175091335405419-7.268153479833505-11.95848555900903-5.490666521257065c-4.829925295817656,1.7867931730192483-7.277459694276314,7.147172692076993-5.490666521257065,11.95848555900903c0.8003344420815383,2.1590417507315918,1.2098078775651162,4.346002144791609,1.2098078775651162,6.477125252194774l-0.027918643328425755,1.0888270898086045
		C435.28887434792875,301.7353908791828,434.99107548575887,303.28022247668895,434.48853990584723,304.9088100041805z"/>
	<path d="M162.68193467473688,420.3058690950069c-5.4534416634858305,2.559208971772361-11.009251685842557,4.93229365468855-16.50922442154243,7.063416762091716c-4.792700438046421,1.8426304596760998-7.175091335405419,7.230928622062271-5.323154661286511,12.0329352745515
		c1.4238508097497136,3.6852609193521997,4.941599869131359,5.955977243397495,8.68269807514041,5.955977243397495c1.11674573313703,0.0,2.2521038951596775-0.1954305032989803,3.3502371994110907-0.6235163676681752c5.909446171183451-2.280022538488103,11.865423414580945-4.829925295817656,17.709726084664737-7.56595234200338
		c4.653107221404293-2.177654179617209,6.653943326608138-7.724157987531125,4.46698293254812-12.37726520893542C172.8908519184979,420.1290510205936,167.3629605394696,418.10960248650406,162.68193467473688,420.3058690950069z"/>
	<path d="M94.93269353109038,381.5640983695948c1.4983005252921822,0.0,3.02451969391279-0.36294236326953483,4.448370503662503-1.1353581620226474c2.680189759528872-1.461075667520948,5.537197593471108-2.3730846829161893,8.477961357398621-2.689495973971681c1.256338949779159-0.14889943108493736,2.540596542886744-0.14889943108493736,3.778323063780286,0.01861242888561717
		c5.239398731301233,0.6793536543250267,9.771525164949015-2.912845120599087,10.441572604831233-8.003344420815383c0.670047439882218-5.0998055146591055-2.912845120599087-9.771525164949015-8.003344420815383-10.441572604831233c-2.7732519039569583-0.36294236326953483-5.593034880127959-0.381554792155152-8.29183706854245-0.07444971554246868
		c-5.3417670901721275,0.5862915098969409-10.497409891488083,2.2241852518312517-15.31802897286293,4.848537724703273c-4.513514004762164,2.466146827344275-6.179326390024901,8.105712779686277-3.713179562680626,12.619226784448442C88.4462620644528,379.8145300543468,91.63829361833614,381.5640983695948,94.93269353109038,381.5640983695948z"/>
	<path d="M92.99700092698619,454.5341258156569c2.0101423196466546,0.5211480087972807,4.057509497064543,0.9120090153952414,6.086264245596815,1.1539705909082645c2.382390897358998,0.2884926477270661,4.764781794717996,0.4373920788120035,7.156478906519802,0.4373920788120035c2.912845120599087,0.0,5.834996455640983-0.20473671774178887,8.74784157624007-0.5769852954541322
		c5.0998055146591055-0.6421287965537924,8.719922932911645-5.295236017958085,8.068487921915043-10.39504153261719s-5.276623589072467-8.692004289583219-10.39504153261719-8.068487921915043c-3.7597106348946685,0.4839231510260464-7.556646127560572,0.5955977243397494-11.31635676245524,0.13959321664212876
		c-1.2284203064507333-0.15820564552774596-2.4568406129014666-0.3908610065979606-3.666648490466583-0.6979660832106439c-4.978824726902594-1.3307886653216277-10.050711598233272,1.6844248141483538-11.353581620226473,6.663249541050947C85.04949379282765,448.16867513677585,88.0274824145264,453.2498682225493,92.99700092698619,454.5341258156569z"/>
</g>
<g>
</g>
<g>
</g>
<g>
</g>
<g>
</g>
<g>
</g>
<g>
</g>
<g>
</g>
<g>
</g>
<g>
</g>
<g>
</g>
<g>
</g>
<g>
</g>
<g>
</g>
<g>
</g>
<g>
</g>
</svg>
