<?xml version="1.0" encoding="iso-8859-1"?>
<!-- Generator: Adobe Illustrator 19.0.0, SVG Export Plug-In . SVG Version: 6.00 Build 0)  -->
<svg version="1.1" id="Capa_1" xmlns="http://www.w3.org/2000/svg" xmlns:xlink="http://www.w3.org/1999/xlink" x="0px" y="0px"
	 viewBox="0 0 512 512" style="enable-background:new 0 0 60 60;" xml:space="preserve">
<path d="M507.0762666666667,98.90986666666666l-128.0-59.733333333333334c-0.128-0.05973333333333333-0.2730666666666667-0.0768-0.4010666666666667-0.128c-0.3584-0.14506666666666668-0.7253333333333334-0.256-1.0922666666666667-0.34986666666666666
	c-0.3072-0.0768-0.6058666666666666-0.1536-0.9130666666666666-0.19626666666666667c-0.384-0.05973333333333333-0.768-0.06826666666666667-1.1605333333333334-0.06826666666666667c-0.3157333333333333,0.0-0.6314666666666666,0.0-0.9472,0.034133333333333335
	c-0.3669333333333333,0.034133333333333335-0.7168,0.11946666666666667-1.0752,0.2048c-0.3413333333333333,0.08533333333333333-0.6826666666666666,0.17066666666666666-1.0154666666666665,0.29013333333333335c-0.11946666666666667,0.042666666666666665-0.24746666666666667,0.0512-0.3669333333333333,0.1024L256.0,88.82346666666668
	L139.89546666666666,39.0656c-0.0768-0.034133333333333335-0.1536-0.034133333333333335-0.2304-0.06826666666666667c-0.3413333333333333-0.13653333333333334-0.6912-0.21333333333333335-1.0410666666666666-0.2986666666666667c-0.32426666666666665-0.08533333333333333-0.6485333333333333-0.1792-0.9813333333333334-0.2304
	c-0.3584-0.042666666666666665-0.7082666666666667-0.034133333333333335-1.0666666666666667-0.034133333333333335c-0.3328,0.0-0.6570666666666667-0.0256-0.9813333333333334,0.017066666666666667c-0.3669333333333333,0.042666666666666665-0.7253333333333334,0.14506666666666668-1.0837333333333334,0.2304
	c-0.3157333333333333,0.0768-0.6314666666666666,0.13653333333333334-0.9386666666666666,0.24746666666666667c-0.06826666666666667,0.0256-0.14506666666666668,0.0256-0.21333333333333335,0.05973333333333333l-128.0,51.2C2.1248,91.48586666666667,0.0,94.6176,0.0,98.10773333333333v366.93333333333334
	c0.0,2.833066666666667,1.4080000000000001,5.4784,3.7461333333333333,7.0656C5.179733333333333,473.07093333333336,6.852266666666667,473.57439999999997,8.533333333333333,473.57439999999997c1.0666666666666667,0.0,2.1418666666666666-0.19626666666666667,3.1744-0.6058666666666666l124.72319999999999-49.885866666666665l116.21546666666666,49.800533333333334
	c0.11946666666666667,0.0512,0.24746666666666667,0.0256,0.3669333333333333,0.0768c0.9728,0.3669333333333333,1.9712,0.6144,2.9951999999999996,0.6144s2.030933333333333-0.24746666666666667,2.9951999999999996-0.6144
	c0.11946666666666667-0.042666666666666665,0.24746666666666667-0.0256,0.3669333333333333-0.0768l116.21546666666666-49.800533333333334l124.72319999999999,49.885866666666665c1.024,0.4096,2.0991999999999997,0.6058666666666666,3.1744,0.6058666666666666
	c1.6810666666666667,0.0,3.3536-0.5034666666666666,4.7872-1.4677333333333331C510.592,470.5194666666667,512.0,467.8741333333333,512.0,465.04106666666667v-358.4C512.0,103.3216,510.08,100.30933333333334,507.0762666666667,98.90986666666666z M17.066666666666666,103.8848l110.93333333333334-44.373333333333335
	V408.064l-110.93333333333334,44.373333333333335V103.8848z M145.06666666666666,59.8528l102.4,43.88693333333333V452.09599999999995l-102.4-43.88693333333333V59.8528z M264.5333333333333,103.7312l102.4-43.88693333333333v348.3648L264.5333333333333,452.09599999999995V103.7312z M494.93333333333334,452.43733333333336l-110.93333333333334-44.373333333333335
	V60.30506666666667l110.93333333333334,51.7632V452.43733333333336z"/>
<g>
</g>
<g>
</g>
<g>
</g>
<g>
</g>
<g>
</g>
<g>
</g>
<g>
</g>
<g>
</g>
<g>
</g>
<g>
</g>
<g>
</g>
<g>
</g>
<g>
</g>
<g>
</g>
<g>
</g>
</svg>
