<?xml version="1.0" encoding="iso-8859-1"?>
<!-- Generator: Adobe Illustrator 19.0.0, SVG Export Plug-In . SVG Version: 6.00 Build 0)  -->
<svg version="1.1" id="Capa_1" xmlns="http://www.w3.org/2000/svg" xmlns:xlink="http://www.w3.org/1999/xlink" x="0px" y="0px"
	 viewBox="0 0 512 512" style="enable-background:new 0 0 54 54;" xml:space="preserve">
<g>
	<path d="M507.4109629629629,10.837333333333333c-2.844444444444444-1.7256296296296294-6.390518518518519-1.8014814814814815-9.320296296296295-0.256L341.3333333333333,93.57274074074073L184.58548148148148,10.581333333333333c-0.12325925925925925-0.06637037037037037-0.2654814814814815-0.08533333333333332-0.3887407407407407-0.14222222222222222
		c-0.4551111111111111-0.21807407407407406-0.9197037037037037-0.37925925925925924-1.3937777777777776-0.5214814814814814c-0.2654814814814815-0.07585185185185185-0.5214814814814814-0.16118518518518518-0.786962962962963-0.21807407407407406c-0.5214814814814814-0.10429629629629629-1.0524444444444443-0.14222222222222222-1.5928888888888888-0.16118518518518518
		c-0.23703703703703705-0.009481481481481481-0.4740740740740741-0.037925925925925925-0.7205925925925926-0.028444444444444442c-0.512,0.028444444444444442-1.0145185185185184,0.12325925925925925-1.517037037037037,0.23703703703703705c-0.28444444444444444,0.056888888888888885-0.5688888888888889,0.09481481481481481-0.8438518518518517,0.18014814814814814
		c-0.06637037037037037,0.018962962962962963-0.13274074074074074,0.018962962962962963-0.18962962962962962,0.037925925925925925l-170.66666666666666,56.888888888888886C2.6074074074074076,68.14340740740741,0.0,71.76533333333333,0.0,75.85185185185185v407.7037037037037c0.0,3.0435555555555553,1.460148148148148,5.906962962962963,3.944296296296296,7.6989629629629635
		C5.57511111111111,492.4207407407407,7.518814814814815,493.037037037037,9.481481481481481,493.037037037037c1.005037037037037,0.0,2.0195555555555553-0.16118518518518518,2.9961481481481482-0.493037037037037l167.31022222222222-55.77007407407407l157.93303703703702,65.03348148148147c0.13274074074074074,0.056888888888888885,0.28444444444444444,0.037925925925925925,0.41718518518518516,0.08533333333333332
		C339.1810370370371,502.2625185185185,340.2429629629629,502.5185185185185,341.3333333333333,502.5185185185185c0.8533333333333333,0.0,1.6971851851851851-0.14222222222222222,2.522074074074074-0.36977777777777776c0.2654814814814815-0.07585185185185185,0.512-0.1991111111111111,0.7774814814814814-0.2939259259259259
		c0.37925925925925924-0.14222222222222222,0.7774814814814814-0.2465185185185185,1.1377777777777778-0.4361481481481481l161.18518518518516-85.33333333333333C510.0562962962963,414.445037037037,512.0,411.2118518518518,512.0,407.7037037037037V18.962962962962962C512.0,15.634962962962963,510.2554074074074,12.553481481481482,507.4109629629629,10.837333333333333z M18.962962962962962,82.688l151.7037037037037-50.56474074074074
		v255.92414814814813c-4.077037037037036,0.7395555555555555-8.097185185185184,1.573925925925926-11.984592592592593,2.597925925925926c-5.063111111111111,1.3463703703703702-8.078222222222221,6.53274074074074-6.731851851851851,11.595851851851853c1.1282962962962961,4.247703703703704,4.958814814814815,7.054222222222222,9.15911111111111,7.054222222222222
		c0.7964444444444444,0.0,1.6213333333333333-0.10429629629629629,2.4367407407407407-0.3128888888888889c2.2755555555555556-0.6068148148148148,4.759703703703703-0.9102222222222222,7.120592592592592-1.4032592592592592v112.26074074074073L18.962962962962962,470.39525925925926V82.688z M189.62962962962962,304.9244444444444
		c3.0435555555555553-0.23703703703703705,5.9922962962962965-0.6257777777777778,9.111703703703704-0.6921481481481481c5.233777777777778-0.11377777777777777,9.386666666666667-4.4468148148148146,9.28237037037037-9.68059259259259c-0.11377777777777777-5.167407407407407-4.333037037037037-9.28237037037037-9.481481481481481-9.28237037037037
		c-0.06637037037037037,0.0-0.14222222222222222,0.0-0.20859259259259258,0.0c-2.9392592592592592,0.06637037037037037-5.8311111111111105,0.22755555555555554-8.704,0.42666666666666664V34.711703703703705l142.22222222222223,75.29244444444444v200.9505185185185c-6.769777777777777-0.2939259259259259-13.653333333333332-1.0903703703703704-20.86874074074074-2.484148148148148
		c-5.157925925925926-1.0145185185185184-10.11674074074074,2.360888888888889-11.112296296296295,7.499851851851852s2.3703703703703702,10.11674074074074,7.509333333333333,11.112296296296295c8.400592592592592,1.6308148148148145,16.554666666666666,2.4272592592592592,24.481185185185183,2.740148148148148v149.05837037037037L189.62962962962962,420.31407407407403V304.9244444444444z
		 M493.037037037037,401.9863703703703l-142.22222222222223,75.29244444444444v-148.48c3.527111111111111-1.6023703703703704,5.8785185185185185-5.205333333333334,5.565629629629629-9.29185185185185c-0.27496296296296296-3.546074074074074-2.5505185185185186-6.390518518518519-5.565629629629629-7.784296296296295V110.00414814814815l142.22222222222223-75.29244444444444V401.9863703703703z"/>
	<path d="M104.29629629629629,85.33333333333333c-26.140444444444444,0.0-47.407407407407405,21.26696296296296-47.407407407407405,47.407407407407405c0.0,22.897777777777776,16.31762962962963,42.04088888888889,37.925925925925924,46.449777777777776V199.1111111111111c0.0,5.2432592592592595,4.247703703703704,9.481481481481481,9.481481481481481,9.481481481481481s9.481481481481481-4.238222222222222,9.481481481481481-9.481481481481481v-19.92059259259259
		c21.608296296296295-4.408888888888889,37.925925925925924-23.552,37.925925925925924-46.449777777777776C151.7037037037037,106.60029629629629,130.43674074074073,85.33333333333333,104.29629629629629,85.33333333333333z M104.29629629629629,161.18518518518516c-15.682370370370368,0.0-28.444444444444443-12.762074074074075-28.444444444444443-28.444444444444443s12.762074074074075-28.444444444444443,28.444444444444443-28.444444444444443s28.444444444444443,12.762074074074075,28.444444444444443,28.444444444444443S119.97866666666665,161.18518518518516,104.29629629629629,161.18518518518516z"/>
	<path d="M427.33037037037036,262.381037037037c1.1377777777777778,0.4456296296296296,2.304,0.6447407407407407,3.451259259259259,0.6447407407407407c3.7925925925925927,0.0,7.367111111111111-2.285037037037037,8.83674074074074-6.030222222222222c4.456296296296296-11.368296296296297,8.030814814814814-24.20622222222222,10.647703703703703-38.15348148148148
		c0.967111111111111-5.138962962962963-2.4272592592592592-10.088296296296296-7.575703703703704-11.06488888888889c-5.176888888888889-0.8533333333333333-10.097777777777777,2.4367407407407407-11.06488888888889,7.5851851851851855c-2.389333333333333,12.781037037037038-5.641481481481481,24.46222222222222-9.661629629629628,34.730666666666664
		C420.058074074074,254.95703703703703,422.45688888888884,260.46577777777776,427.33037037037036,262.381037037037z"/>
	<path d="M121.41037037037036,306.65007407407404c-11.444148148148148,7.177481481481482-21.759999999999998,16.165925925925926-30.67259259259259,26.737777777777776c-3.375407407407407,4.001185185185185-2.863407407407407,9.983999999999998,1.1377777777777778,13.359407407407407
		c1.7825185185185184,1.4980740740740741,3.9537777777777774,2.228148148148148,6.1060740740740735,2.228148148148148c2.702222222222222,0.0,5.3759999999999994-1.1472592592592592,7.253333333333333-3.3659259259259255c7.642074074074074-9.064296296296295,16.469333333333335-16.77274074074074,26.24474074074074-22.888296296296296
		c4.437333333333333-2.787555555555555,5.774222222222222-8.637629629629629,2.9961481481481482-13.074962962962962C131.6977777777778,305.20888888888885,125.83822222222221,303.8625185185185,121.41037037037036,306.65007407407404z"/>
	<path d="M81.79674074074074,362.91318518518517c-4.759703703703703-2.180740740740741-10.391703703703705-0.12325925925925925-12.581925925925924,4.636444444444444c-9.728,21.105777777777778-12.136296296296296,38.144-12.240592592592591,38.864592592592594
		c-0.711111111111111,5.18637037037037,2.9108148148148145,9.955555555555556,8.097185185185184,10.666666666666666c0.4361481481481481,0.06637037037037037,0.8817777777777778,0.09481481481481481,1.3084444444444445,0.09481481481481481c4.655407407407407,0.0,8.713481481481482-3.432296296296296,9.386666666666667-8.163555555555554
		c0.018962962962962963-0.1517037037037037,2.1902222222222223-15.141925925925925,10.666666666666666-33.507555555555555C88.6234074074074,370.73540740740737,86.54696296296297,365.1128888888889,81.79674074074074,362.91318518518517z"/>
	<path d="M383.2699259259259,319.8008888888889c1.4506666666666665,0.0,2.9297777777777774-0.33185185185185184,4.304592592592592-1.0334814814814814c12.250074074074075-6.2672592592592595,23.049481481481482-15.160888888888888,32.08533333333333-26.415407407407407c3.2805925925925923-4.086518518518519,2.6263703703703705-10.059851851851851-1.460148148148148-13.330962962962962
		c-4.077037037037036-3.252148148148148-10.05037037037037-2.616888888888889-13.330962962962962,1.460148148148148c-7.3576296296296295,9.168592592592592-16.08059259259259,16.365037037037037-25.93185185185185,21.399703703703704c-4.664888888888888,2.389333333333333-6.513777777777778,8.097185185185184-4.124444444444444,12.762074074074075
		C376.5001481481482,317.91407407407405,379.82814814814816,319.8008888888889,383.2699259259259,319.8008888888889z"/>
	<path d="M276.57481481481483,298.02192592592587c-4.181333333333333-1.754074074074074-6.6275555555555545-2.9677037037037035-6.7887407407407405-3.0530370370370368c-0.6162962962962962-0.3128888888888889-1.2705185185185186-0.5688888888888889-1.9437037037037035-0.7395555555555555
		c-10.268444444444443-2.635851851851852-20.385185185185183-4.721777777777778-30.084740740740738-6.200888888888889c-5.167407407407407-0.8154074074074072-10.012444444444444,2.759111111111111-10.808888888888887,7.935999999999999c-0.786962962962963,5.176888888888889,2.7685925925925923,10.021925925925926,7.9454814814814805,10.808888888888887
		c8.779851851851852,1.3463703703703702,17.948444444444444,3.2237037037037037,27.27822222222222,5.594074074074073c1.2705185185185186,0.6068148148148148,3.6977777777777776,1.754074074074074,7.092148148148148,3.1668148148148147c1.1946666666666665,0.5025185185185185,2.4367407407407407,0.730074074074074,3.65037037037037,0.730074074074074
		c3.707259259259259,0.0,7.23437037037037-2.180740740740741,8.751407407407408-5.821629629629629C283.6859259259259,305.5881481481481,281.41037037037034,300.032,276.57481481481483,298.02192592592587z"/>
	<path d="M444.89955555555554,188.9754074074074c0.20859259259259258,0.009481481481481481,0.4077037037037036,0.018962962962962963,0.6162962962962962,0.018962962962962963c4.958814814814815,0.0,9.130666666666666-3.8494814814814817,9.453037037037037-8.884148148148148c0.5878518518518518-9.111703703703704,0.8817777777777778-18.75437037037037,0.8817777777777778-28.63407407407407
		c0.0-3.2900740740740737-0.028444444444444442-6.6275555555555545-0.09481481481481481-10.031407407407407c-0.09481481481481481-5.2432592592592595-4.645925925925925-9.22548148148148-9.652148148148148-9.310814814814814c-5.233777777777778,0.09481481481481481-9.40562962962963,4.41837037037037-9.310814814814814,9.652148148148148
		c0.056888888888888885,3.2900740740740737,0.09481481481481481,6.523259259259258,0.09481481481481481,9.690074074074074c0.0,9.481481481481481-0.28444444444444444,18.70696296296296-0.8438518518518517,27.42992592592592C435.712,184.13037037037037,439.67525925925924,188.63407407407405,444.89955555555554,188.9754074074074z"/>
	<path d="M78.62992592592592,272.1848888888889C80.47881481481481,274.0337777777778,82.90607407407407,274.96296296296293,85.33333333333333,274.96296296296293s4.8545185185185185-0.9291851851851851,6.703407407407407-2.7780740740740737L104.29629629629629,259.92533333333336l12.259555555555554,12.259555555555554C118.40474074074073,274.0337777777778,120.832,274.96296296296293,123.25925925925925,274.96296296296293
		s4.8545185185185185-0.9291851851851851,6.703407407407407-2.7780740740740737c3.707259259259259-3.707259259259259,3.707259259259259-9.699555555555554,0.0-13.406814814814814L117.7031111111111,246.5185185185185l12.259555555555554-12.259555555555554c3.707259259259259-3.707259259259259,3.707259259259259-9.699555555555554,0.0-13.406814814814814
		s-9.699555555555554-3.707259259259259-13.406814814814814,0.0L104.29629629629629,233.11170370370368l-12.259555555555554-12.259555555555554c-3.707259259259259-3.707259259259259-9.699555555555554-3.707259259259259-13.406814814814814,0.0s-3.707259259259259,9.699555555555554,0.0,13.406814814814814L90.88948148148148,246.5185185185185l-12.259555555555554,12.259555555555554
		C74.92266666666666,262.4758518518518,74.92266666666666,268.47762962962963,78.62992592592592,272.1848888888889z"/>
</g>
<g>
</g>
<g>
</g>
<g>
</g>
<g>
</g>
<g>
</g>
<g>
</g>
<g>
</g>
<g>
</g>
<g>
</g>
<g>
</g>
<g>
</g>
<g>
</g>
<g>
</g>
<g>
</g>
<g>
</g>
</svg>
