<?xml version="1.0" encoding="iso-8859-1"?>
<!-- Generator: Adobe Illustrator 19.0.0, SVG Export Plug-In . SVG Version: 6.00 Build 0)  -->
<svg version="1.1" id="Capa_1" xmlns="http://www.w3.org/2000/svg" xmlns:xlink="http://www.w3.org/1999/xlink" x="0px" y="0px"
	 viewBox="0 0 512 512" style="enable-background:new 0 0 55 55;" xml:space="preserve">
<path d="M508.1274181818182,20.3776c-2.4296727272727274-1.7501090909090908-5.557527272727272-2.2434909090909088-8.387490909090909-1.2753454545454546l-165.0501818181818,55.01672727272727L179.00450909090907,37.48770909090909c-0.3909818181818182-0.09309090909090909-0.7726545454545455,0.03723636363636364-1.1636363636363636,0.0
	c-0.9960727272727272-0.10239999999999999-1.9921454545454544-0.23272727272727273-2.9882181818181817-0.01861818181818182l-167.56363636363636,37.236363636363635C3.0347636363636363,75.65498181818182,0.0,79.42516363636364,0.0,83.79112727272727v400.29090909090905c0.0,2.8299636363636362,1.2846545454545455,5.492363636363636,3.4909090909090907,7.261090909090909
	c1.6663272727272727,1.3405090909090907,3.7236363636363636,2.048,5.818181818181818,2.048c0.6702545454545453,0.0,1.3498181818181816-0.07447272727272727,2.0200727272727272-0.2141090909090909l165.7669818181818-36.83607272727272l156.41134545454545,27.601454545454544c0.5399272727272727,0.10239999999999999,1.0798545454545454,0.14894545454545455,1.619781818181818,0.14894545454545455
	c1.1263999999999998,0.0,2.234181818181818-0.22341818181818182,3.2767999999999997-0.6144c0.027927272727272728-0.00930909090909091,0.06516363636363637,0.0,0.09309090909090909-0.01861818181818182l167.56363636363636-65.16363636363636C509.6448,416.8890181818182,512.0,413.4446545454545,512.0,409.60930909090905v-381.67272727272723
	C512.0,24.939054545454542,510.56639999999993,22.13701818181818,508.1274181818182,20.3776z M18.618181818181817,91.24770909090908l148.94545454545454-33.09381818181818v381.2165818181818L18.618181818181817,472.4736V91.24770909090908z M186.1818181818182,58.30283636363636l139.63636363636363,32.85178181818181v372.5125818181818l-139.63636363636363-24.631854545454544V58.30283636363636z
	 M493.3818181818182,403.2418909090909l-148.94545454545454,57.92116363636364V90.49367272727272l148.94545454545454-49.64538181818182V403.2418909090909z"/>
<g>
</g>
<g>
</g>
<g>
</g>
<g>
</g>
<g>
</g>
<g>
</g>
<g>
</g>
<g>
</g>
<g>
</g>
<g>
</g>
<g>
</g>
<g>
</g>
<g>
</g>
<g>
</g>
<g>
</g>
</svg>
