<?xml version="1.0" encoding="iso-8859-1"?>
<!-- Generator: Adobe Illustrator 19.0.0, SVG Export Plug-In . SVG Version: 6.00 Build 0)  -->
<svg version="1.1" id="Capa_1" xmlns="http://www.w3.org/2000/svg" xmlns:xlink="http://www.w3.org/1999/xlink" x="0px" y="0px"
	 viewBox="0 0 512 512" style="enable-background:new 0 0 58 58;" xml:space="preserve">
<g>
	<path d="M388.41379310344826,247.17241379310343c-4.872827586206897,0.0-8.827586206896552,3.9459310344827587-8.827586206896552,8.827586206896552v52.96551724137931c0.0,68.14896551724138-55.43724137931034,123.58620689655172-123.58620689655172,123.58620689655172s-123.58620689655172-55.43724137931034-123.58620689655172-123.58620689655172v-52.96551724137931c0.0-4.881655172413794-3.9547586206896552-8.827586206896552-8.827586206896552-8.827586206896552s-8.827586206896552,3.9459310344827587-8.827586206896552,8.827586206896552v52.96551724137931
		c0.0,74.90206896551723,58.65048275862069,136.20082758620688,132.41379310344828,140.7911724137931V494.34482758620686h-44.13793103448276c-4.872827586206897,0.0-8.827586206896552,3.9459310344827587-8.827586206896552,8.827586206896552s3.9547586206896552,8.827586206896552,8.827586206896552,8.827586206896552h105.93103448275862c4.872827586206897,0.0,8.827586206896552-3.9459310344827587,8.827586206896552-8.827586206896552s-3.9547586206896552-8.827586206896552-8.827586206896552-8.827586206896552h-44.13793103448276v-44.58813793103448
		c73.76331034482759-4.590344827586207,132.41379310344828-65.89793103448275,132.41379310344828-140.7911724137931v-52.96551724137931C397.2413793103448,251.11834482758618,393.28662068965514,247.17241379310343,388.41379310344826,247.17241379310343z"/>
	<path d="M256.0,406.0689655172414c53.53931034482759,0.0,97.10344827586206-43.56413793103448,97.10344827586206-97.10344827586206V97.10344827586206c0.0-53.53931034482759-43.56413793103448-97.10344827586206-97.10344827586206-97.10344827586206S158.89655172413794,43.56413793103448,158.89655172413794,97.10344827586206v211.86206896551724C158.89655172413794,362.5048275862069,202.4606896551724,406.0689655172414,256.0,406.0689655172414z M198.34703448275863,42.60193103448275
		C199.72413793103448,43.49351724137931,201.26896551724138,44.13793103448276,203.0344827586207,44.13793103448276c4.872827586206897,0.0,8.827586206896552-3.9547586206896552,8.827586206896552-8.827586206896552c0.0-1.3064827586206895-0.3177931034482758-2.5246896551724136-0.8297931034482758-3.636965517241379C223.83227586206897,22.85462068965517,239.31586206896552,17.655172413793103,256.0,17.655172413793103
		s32.16772413793103,5.199448275862069,44.967724137931036,14.018206896551725C300.45572413793104,32.78565517241379,300.13793103448273,34.00386206896552,300.13793103448273,35.310344827586206c0.0,4.872827586206897,3.9547586206896552,8.827586206896552,8.827586206896552,8.827586206896552c1.7655172413793103,0.0,3.310344827586207-0.6444137931034483,4.687448275862069-1.5359999999999998
		c5.208275862068965,5.499586206896551,9.622068965517242,11.731862068965517,13.100137931034482,18.53793103448276C326.73544827586204,61.369379310344826,326.6206896551724,61.56358620689655,326.6206896551724,61.79310344827586c0.0,2.816,1.4035862068965517,5.217103448275862,3.460413793103448,6.832551724137931C333.49737931034485,77.47972413793103,335.44827586206895,87.05765517241379,335.44827586206895,97.10344827586206v8.827586206896552
		c-4.872827586206897,0.0-8.827586206896552,3.9547586206896552-8.827586206896552,8.827586206896552s3.9547586206896552,8.827586206896552,8.827586206896552,8.827586206896552v35.310344827586206c-4.872827586206897,0.0-8.827586206896552,3.9547586206896552-8.827586206896552,8.827586206896552s3.9547586206896552,8.827586206896552,8.827586206896552,8.827586206896552v35.310344827586206c-4.872827586206897,0.0-8.827586206896552,3.9547586206896552-8.827586206896552,8.827586206896552s3.9547586206896552,8.827586206896552,8.827586206896552,8.827586206896552v35.310344827586206c-4.872827586206897,0.0-8.827586206896552,3.9547586206896552-8.827586206896552,8.827586206896552
		s3.9547586206896552,8.827586206896552,8.827586206896552,8.827586206896552v26.482758620689655c0.0,3.0278620689655176-0.20303448275862068,5.993931034482759-0.5384827586206896,8.93351724137931C330.3017931034483,318.1903448275862,326.6206896551724,321.93324137931035,326.6206896551724,326.6206896551724c0.0,3.328,1.9155862068965517,6.11751724137931,4.63448275862069,7.627034482758621
		c-6.761931034482759,20.056275862068965-21.300965517241377,36.51972413793103-40.04193103448276,45.832827586206896C291.2220689655173,379.904,291.3103448275862,379.7627586206897,291.3103448275862,379.58620689655174c0.0-4.872827586206897-3.9547586206896552-8.827586206896552-8.827586206896552-8.827586206896552s-8.827586206896552,3.9547586206896552-8.827586206896552,8.827586206896552
		c0.0,2.3922758620689657,0.9710344827586207,4.546206896551724,2.515862068965517,6.135172413793103C269.7180689655172,387.41627586206897,262.98262068965516,388.41379310344826,256.0,388.41379310344826s-13.718068965517242-0.9975172413793103-20.17103448275862-2.692413793103448C237.37379310344826,384.13241379310347,238.3448275862069,381.9784827586207,238.3448275862069,379.58620689655174
		c0.0-4.872827586206897-3.9547586206896552-8.827586206896552-8.827586206896552-8.827586206896552s-8.827586206896552,3.9547586206896552-8.827586206896552,8.827586206896552c0.0,0.17655172413793105,0.08827586206896552,0.3177931034482758,0.09710344827586206,0.4943448275862069c-18.74096551724138-9.321931034482759-33.28882758620689-25.77655172413793-40.04193103448276-45.832827586206896
		C183.46372413793105,332.7382068965517,185.3793103448276,329.9486896551724,185.3793103448276,326.6206896551724c0.0-4.687448275862069-3.681103448275862-8.430344827586206-8.289103448275862-8.721655172413794C176.75475862068964,314.9594482758621,176.55172413793105,311.99337931034484,176.55172413793105,308.9655172413793v-26.482758620689655c4.872827586206897,0.0,8.827586206896552-3.9547586206896552,8.827586206896552-8.827586206896552
		s-3.9547586206896552-8.827586206896552-8.827586206896552-8.827586206896552v-35.310344827586206c4.872827586206897,0.0,8.827586206896552-3.9547586206896552,8.827586206896552-8.827586206896552s-3.9547586206896552-8.827586206896552-8.827586206896552-8.827586206896552v-35.310344827586206c4.872827586206897,0.0,8.827586206896552-3.9547586206896552,8.827586206896552-8.827586206896552s-3.9547586206896552-8.827586206896552-8.827586206896552-8.827586206896552v-35.310344827586206c4.872827586206897,0.0,8.827586206896552-3.9547586206896552,8.827586206896552-8.827586206896552s-3.9547586206896552-8.827586206896552-8.827586206896552-8.827586206896552v-8.827586206896552
		c0.0-10.045793103448275,1.950896551724138-19.623724137931035,5.367172413793103-28.477793103448274C183.97572413793105,67.01020689655172,185.3793103448276,64.60910344827586,185.3793103448276,61.79310344827586c0.0-0.22951724137931034-0.11475862068965517-0.4237241379310345-0.13241379310344828-0.6532413793103448
		C188.7249655172414,54.33379310344828,193.13875862068966,48.101517241379305,198.34703448275863,42.60193103448275z"/>
	<circle cx="256.0" cy="35.310344827586206" r="8.827586206896552"/>
	<circle cx="229.51724137931035" cy="61.79310344827586" r="8.827586206896552"/>
	<circle cx="229.51724137931035" cy="114.75862068965517" r="8.827586206896552"/>
	<circle cx="203.0344827586207" cy="88.27586206896552" r="8.827586206896552"/>
	<circle cx="256.0" cy="88.27586206896552" r="8.827586206896552"/>
	<circle cx="203.0344827586207" cy="141.24137931034483" r="8.827586206896552"/>
	<circle cx="256.0" cy="141.24137931034483" r="8.827586206896552"/>
	<circle cx="282.48275862068965" cy="61.79310344827586" r="8.827586206896552"/>
	<circle cx="282.48275862068965" cy="114.75862068965517" r="8.827586206896552"/>
	<circle cx="308.9655172413793" cy="88.27586206896552" r="8.827586206896552"/>
	<circle cx="308.9655172413793" cy="141.24137931034483" r="8.827586206896552"/>
	<circle cx="229.51724137931035" cy="167.72413793103448" r="8.827586206896552"/>
	<circle cx="229.51724137931035" cy="220.68965517241378" r="8.827586206896552"/>
	<circle cx="203.0344827586207" cy="194.20689655172413" r="8.827586206896552"/>
	<circle cx="256.0" cy="194.20689655172413" r="8.827586206896552"/>
	<circle cx="203.0344827586207" cy="247.17241379310343" r="8.827586206896552"/>
	<circle cx="256.0" cy="247.17241379310343" r="8.827586206896552"/>
	<circle cx="282.48275862068965" cy="167.72413793103448" r="8.827586206896552"/>
	<circle cx="282.48275862068965" cy="220.68965517241378" r="8.827586206896552"/>
	<circle cx="308.9655172413793" cy="194.20689655172413" r="8.827586206896552"/>
	<circle cx="308.9655172413793" cy="247.17241379310343" r="8.827586206896552"/>
	<circle cx="229.51724137931035" cy="273.6551724137931" r="8.827586206896552"/>
	<circle cx="229.51724137931035" cy="326.6206896551724" r="8.827586206896552"/>
	<circle cx="203.0344827586207" cy="300.13793103448273" r="8.827586206896552"/>
	<circle cx="256.0" cy="300.13793103448273" r="8.827586206896552"/>
	<circle cx="203.0344827586207" cy="353.1034482758621" r="8.827586206896552"/>
	<circle cx="256.0" cy="353.1034482758621" r="8.827586206896552"/>
	<circle cx="282.48275862068965" cy="273.6551724137931" r="8.827586206896552"/>
	<circle cx="282.48275862068965" cy="326.6206896551724" r="8.827586206896552"/>
	<circle cx="308.9655172413793" cy="300.13793103448273" r="8.827586206896552"/>
	<circle cx="308.9655172413793" cy="353.1034482758621" r="8.827586206896552"/>
</g>
<g>
</g>
<g>
</g>
<g>
</g>
<g>
</g>
<g>
</g>
<g>
</g>
<g>
</g>
<g>
</g>
<g>
</g>
<g>
</g>
<g>
</g>
<g>
</g>
<g>
</g>
<g>
</g>
<g>
</g>
</svg>
