<?xml version="1.0" encoding="iso-8859-1"?>
<!-- Generator: Adobe Illustrator 19.0.0, SVG Export Plug-In . SVG Version: 6.00 Build 0)  -->
<svg version="1.1" id="Capa_1" xmlns="http://www.w3.org/2000/svg" xmlns:xlink="http://www.w3.org/1999/xlink" x="0px" y="0px"
	 viewBox="0 0 512 512" style="enable-background:new 0 0 44 44;" xml:space="preserve">
<path d="M442.8683636363636,325.8181818181818H69.13163636363636C31.01090909090909,325.8181818181818,0.0,294.5047272727273,0.0,256.0s31.01090909090909-69.81818181818181,69.13163636363636-69.81818181818181h373.7250909090909C480.9890909090909,186.1818181818182,512.0,217.49527272727272,512.0,256.0S480.9890909090909,325.8181818181818,442.8683636363636,325.8181818181818z M69.13163636363636,209.45454545454547
	C44.27636363636364,209.45454545454547,23.272727272727273,230.77236363636365,23.272727272727273,256.0s21.003636363636364,46.54545454545455,45.85890909090909,46.54545454545455h373.7250909090909C467.7236363636364,302.54545454545456,488.72727272727275,281.22763636363635,488.72727272727275,256.0s-21.003636363636364-46.54545454545455-45.85890909090909-46.54545454545455H69.13163636363636z"/>
<g>
</g>
<g>
</g>
<g>
</g>
<g>
</g>
<g>
</g>
<g>
</g>
<g>
</g>
<g>
</g>
<g>
</g>
<g>
</g>
<g>
</g>
<g>
</g>
<g>
</g>
<g>
</g>
<g>
</g>
</svg>
