<?xml version="1.0" encoding="iso-8859-1"?>
<!-- Generator: Adobe Illustrator 19.0.0, SVG Export Plug-In . SVG Version: 6.00 Build 0)  -->
<svg version="1.1" id="Capa_1" xmlns="http://www.w3.org/2000/svg" xmlns:xlink="http://www.w3.org/1999/xlink" x="0px" y="0px"
	 viewBox="0 0 512 512" style="enable-background:new 0 0 60 60;" xml:space="preserve">
<g>
	<path d="M68.26666666666667,187.73333333333332c-37.64053333333333,0.0-68.26666666666667,30.626133333333332-68.26666666666667,68.26666666666667s30.626133333333332,68.26666666666667,68.26666666666667,68.26666666666667s68.26666666666667-30.626133333333332,68.26666666666667-68.26666666666667S105.90719999999999,187.73333333333332,68.26666666666667,187.73333333333332z M68.26666666666667,307.2c-28.236800000000002,0.0-51.2-22.963199999999997-51.2-51.2s22.963199999999997-51.2,51.2-51.2s51.2,22.963199999999997,51.2,51.2
		S96.50346666666665,307.2,68.26666666666667,307.2z"/>
	<path d="M443.73333333333335,187.73333333333332c-37.64053333333333,0.0-68.26666666666667,30.626133333333332-68.26666666666667,68.26666666666667s30.626133333333332,68.26666666666667,68.26666666666667,68.26666666666667s68.26666666666667-30.626133333333332,68.26666666666667-68.26666666666667S481.3738666666667,187.73333333333332,443.73333333333335,187.73333333333332z M443.73333333333335,307.2c-28.236800000000002,0.0-51.2-22.963199999999997-51.2-51.2s22.963199999999997-51.2,51.2-51.2
		s51.2,22.963199999999997,51.2,51.2S471.9701333333333,307.2,443.73333333333335,307.2z"/>
	<path d="M256.0,187.73333333333332c-37.64053333333333,0.0-68.26666666666667,30.626133333333332-68.26666666666667,68.26666666666667s30.626133333333332,68.26666666666667,68.26666666666667,68.26666666666667s68.26666666666667-30.626133333333332,68.26666666666667-68.26666666666667S293.64053333333334,187.73333333333332,256.0,187.73333333333332z M256.0,307.2c-28.236800000000002,0.0-51.2-22.963199999999997-51.2-51.2s22.963199999999997-51.2,51.2-51.2
		s51.2,22.963199999999997,51.2,51.2S284.23679999999996,307.2,256.0,307.2z"/>
</g>
<g>
</g>
<g>
</g>
<g>
</g>
<g>
</g>
<g>
</g>
<g>
</g>
<g>
</g>
<g>
</g>
<g>
</g>
<g>
</g>
<g>
</g>
<g>
</g>
<g>
</g>
<g>
</g>
<g>
</g>
</svg>
