<?xml version="1.0" encoding="iso-8859-1"?>
<!-- Generator: Adobe Illustrator 19.0.0, SVG Export Plug-In . SVG Version: 6.00 Build 0)  -->
<svg version="1.1" id="Capa_1" xmlns="http://www.w3.org/2000/svg" xmlns:xlink="http://www.w3.org/1999/xlink" x="0px" y="0px"
	 viewBox="0 0 512 512" style="enable-background:new 0 0 60 60;" xml:space="preserve">
<g>
	<path d="M0.0,0.0v512.0h512.0V0.0H0.0z M494.93333333333334,494.93333333333334H17.066666666666666V17.066666666666666h477.8666666666667V494.93333333333334z"/>
	<polygon points="136.61013333333332,387.456 257.2885333333333,266.7776 377.9669333333333,387.456 390.0330666666667,375.38986666666665 269.3546666666667,254.71146666666667 390.0330666666667,134.03306666666668 377.9669333333333,121.96693333333333 
		257.2885333333333,242.64533333333333 136.61013333333332,121.96693333333333 124.544,134.03306666666668 245.2224,254.71146666666667 124.544,375.38986666666665 	"/>
</g>
<g>
</g>
<g>
</g>
<g>
</g>
<g>
</g>
<g>
</g>
<g>
</g>
<g>
</g>
<g>
</g>
<g>
</g>
<g>
</g>
<g>
</g>
<g>
</g>
<g>
</g>
<g>
</g>
<g>
</g>
</svg>
