<?xml version="1.0" encoding="iso-8859-1"?>
<!-- Generator: Adobe Illustrator 19.0.0, SVG Export Plug-In . SVG Version: 6.00 Build 0)  -->
<svg version="1.1" id="Capa_1" xmlns="http://www.w3.org/2000/svg" xmlns:xlink="http://www.w3.org/1999/xlink" x="0px" y="0px"
	 viewBox="0 0 512 512" style="enable-background:new 0 0 58 58;" xml:space="preserve">
<g>
	<path d="M392.82758620689657,247.17241379310343c-4.872827586206897,0.0-8.827586206896552,3.9459310344827587-8.827586206896552,8.827586206896552v52.96551724137931c0.0,68.14896551724138-55.43724137931034,123.58620689655172-123.58620689655172,123.58620689655172s-123.58620689655172-55.43724137931034-123.58620689655172-123.58620689655172v-52.96551724137931c0.0-4.881655172413794-3.9547586206896552-8.827586206896552-8.827586206896552-8.827586206896552s-8.827586206896552,3.9459310344827587-8.827586206896552,8.827586206896552v52.96551724137931
		c0.0,74.90206896551723,58.65048275862069,136.20082758620688,132.41379310344828,140.7911724137931V494.34482758620686h-44.13793103448276c-4.872827586206897,0.0-8.827586206896552,3.9459310344827587-8.827586206896552,8.827586206896552s3.9547586206896552,8.827586206896552,8.827586206896552,8.827586206896552h105.93103448275862c4.872827586206897,0.0,8.827586206896552-3.9459310344827587,8.827586206896552-8.827586206896552s-3.9547586206896552-8.827586206896552-8.827586206896552-8.827586206896552h-44.13793103448276v-44.58813793103448
		c73.76331034482759-4.590344827586207,132.41379310344828-65.89793103448275,132.41379310344828-140.7911724137931v-52.96551724137931C401.6551724137931,251.11834482758618,397.70041379310345,247.17241379310343,392.82758620689657,247.17241379310343z"/>
	<path d="M260.41379310344826,406.0689655172414c53.53931034482759,0.0,97.10344827586206-43.56413793103448,97.10344827586206-97.10344827586206V97.10344827586206c0.0-53.53931034482759-43.56413793103448-97.10344827586206-97.10344827586206-97.10344827586206s-97.10344827586206,43.56413793103448-97.10344827586206,97.10344827586206v211.86206896551724C163.3103448275862,362.5048275862069,206.87448275862067,406.0689655172414,260.41379310344826,406.0689655172414z M180.9655172413793,97.10344827586206
		c0.0-43.81131034482759,35.64579310344828-79.44827586206897,79.44827586206897-79.44827586206897s79.44827586206897,35.63696551724138,79.44827586206897,79.44827586206897v211.86206896551724c0.0,43.81131034482759-35.64579310344828,79.44827586206897-79.44827586206897,79.44827586206897s-79.44827586206897-35.63696551724138-79.44827586206897-79.44827586206897V97.10344827586206z"/>
	<path d="M460.8617931034483,37.896827586206896c-3.4515862068965517-3.4515862068965517-9.030620689655171-3.4515862068965517-12.482206896551723,0.0l-79.44827586206897,79.44827586206897c-3.4515862068965517,3.4515862068965517-3.4515862068965517,9.030620689655171,0.0,12.482206896551723C370.6526896551724,131.5486896551724,372.9125517241379,132.41379310344828,375.17241379310343,132.41379310344828
		s4.519724137931035-0.865103448275862,6.241103448275862-2.5864827586206895l79.44827586206897-79.44827586206897C464.3133793103448,46.92744827586207,464.3133793103448,41.34841379310345,460.8617931034483,37.896827586206896z"/>
	<path d="M328.448,182.7928275862069c3.4515862068965517-3.4515862068965517,3.4515862068965517-9.030620689655171,0.0-12.482206896551723s-9.030620689655171-3.4515862068965517-12.482206896551723,0.0l-123.58620689655172,123.58620689655172c-3.4515862068965517,3.4515862068965517-3.4515862068965517,9.030620689655171,0.0,12.482206896551723
		C194.10096551724138,308.1004137931034,196.36082758620688,308.9655172413793,198.6206896551724,308.9655172413793s4.519724137931035-0.865103448275862,6.241103448275862-2.5864827586206895L328.448,182.7928275862069z"/>
	<path d="M112.93131034482758,373.34510344827584l-61.79310344827586,61.79310344827586c-3.4515862068965517,3.4515862068965517-3.4515862068965517,9.030620689655171,0.0,12.482206896551723C52.85958620689655,449.34179310344825,55.11944827586207,450.2068965517241,57.37931034482759,450.2068965517241s4.519724137931035-0.865103448275862,6.241103448275862-2.5864827586206895l61.79310344827586-61.79310344827586
		c3.4515862068965517-3.4515862068965517,3.4515862068965517-9.030620689655171,0.0-12.482206896551723S116.38289655172413,369.8935172413793,112.93131034482758,373.34510344827584z"/>
</g>
<g>
</g>
<g>
</g>
<g>
</g>
<g>
</g>
<g>
</g>
<g>
</g>
<g>
</g>
<g>
</g>
<g>
</g>
<g>
</g>
<g>
</g>
<g>
</g>
<g>
</g>
<g>
</g>
<g>
</g>
</svg>
