<?xml version="1.0" encoding="iso-8859-1"?>
<!-- Generator: Adobe Illustrator 19.0.0, SVG Export Plug-In . SVG Version: 6.00 Build 0)  -->
<svg version="1.1" id="Capa_1" xmlns="http://www.w3.org/2000/svg" xmlns:xlink="http://www.w3.org/1999/xlink" x="0px" y="0px"
	 viewBox="0 0 512 512" style="enable-background:new 0 0 59.986 59.986;" xml:space="preserve">
<path d="M437.11959457206683,74.9401527022972C337.29043443470147-24.897542759977327,174.83759543893578-24.889007435068184,74.99989997666123,74.9401527022972C26.638749041443003,123.30130363751542,0.0,187.60644150301738,0.0,256.0S26.638749041443003,388.69869636248455,74.99989997666123,437.05984729770285
	c49.914580068682696,49.92311539359184,115.49148134564733,74.87187010302404,181.05984729770282,74.87187010302404s131.1452672290201-24.957290034341348,181.05984729770282-74.87187010302404C536.9572900343413,337.2221518354283,536.9572900343413,174.77784816457174,437.11959457206683,74.9401527022972z M87.06884939819292,87.0091021238289
	C133.66318807721802,40.42329876971293,194.861467675791,17.130397092654952,256.05974727436404,17.130397092654952c58.535258226919616,0.0,117.04491047911179,21.372453572500252,162.80278731704067,63.99786616877272L358.48364618410966,141.5071516687227v-55.30037008635348c0.0-9.619311172606942-4.984629746940953-18.214383356116425-13.340712832994365-22.985629980328746
	c-8.347547761144266-4.788317274030608-18.291201280298736-4.720034674757444-26.587537091988132,0.16217117327376387c-0.5377254692761645,0.31580702163838226-1.0327743140066015,0.6913613176407829-1.4851465341913113,1.1181275630980563L204.04547727803154,169.71640049344848c-1.2717634114626746,0.6145433934584736-2.6715566965625315,0.9303504150968559-4.088420631480679,0.9303504150968559
	h-71.04804454372687c-14.603940919547895,0.0-26.49364851798753,11.889707598439637-26.49364851798753,26.49364851798753v109.19241156269796c0.0,14.603940919547895,11.88117227353049,26.49364851798753,26.49364851798753,26.49364851798753h38.255326242789984L81.17947521088253,418.8113226419498
	C39.80875537625446,374.4361684393025,17.070649818290935,316.97636115093525,17.070649818290935,256.0C17.070649818290935,192.16430500450105,41.934051278631685,132.15243556829927,87.06884939819292,87.0091021238289z M184.24352348881405,315.7472743640183h-55.32597606108092c-5.189477544760444,0.0-9.422998699696597-4.2249858300270065-9.422998699696597-9.422998699696597
	V197.1318641016237c0.0-5.189477544760444,4.2249858300270065-9.422998699696597,9.422998699696597-9.422998699696597h71.04804454372687c4.702964024939153,0.0,9.346180775514286-1.2546927616443837,13.417530757176676-3.65311906111426c0.5377254692761645-0.3072716967292368,1.041309638915747-0.6828259927316375,1.5022171840096021-1.1181275630980563l113.04184309672257-105.24055612976362
	c3.9689260827526427-1.9289834294668757,7.408662021138266-0.45237222018470974,8.748708031874104,0.31580702163838226C338.0927549761611,78.84079618577668,341.4129963658187,81.27336378488314,341.4129963658187,86.19824625746008v72.37101990464441L184.24352348881405,315.7472743640183z M341.4129963658187,182.71570033007703v234.5421931784083
	c0.0,4.924882472576934-3.320241389657587,7.357450071683393-4.74564064948488,8.176841262961357c-1.3485813356449838,0.768179241823092-4.796852598939753,2.2362551261961126-8.748708031874104,0.31580702163838226l-113.04184309672257-105.24055612976362c-0.46090754509385523-0.4353015703664188-0.9644917147334379-0.8108558663688195-1.5022171840096021-1.1181275630980563
	c-1.9119127796485849-1.1266628880072018-3.9774614076617882-1.9545894041943122-6.085686660220718-2.5605974727436402L341.4129963658187,182.71570033007703z M425.0506451505351,424.9908978761711c-91.1572700296736,91.14873470476445-238.20384756443173,93.06918280932217-331.79368519321173,5.880838862401227l98.05381255626313-98.05381255626313h8.646284132964357
	c1.4168639349181478,0.0,2.808121895108859,0.31580702163838226,4.088420631480679,0.9303504150968559L317.0702497249359,438.9717600773514c0.45237222018470974,0.4267662454572734,0.9559563898242924,0.8023205414596739,1.4851465341913113,1.1181275630980563c4.19937985529957,2.46670889874304,8.816990631147267,3.704331010569133,13.434601406994966,3.704331010569133
	c4.515186876937952,0.0,9.030373753875905-1.1778748374620747,13.152935684993166-3.542159837295369C353.4990164371687,435.4722768646018,358.48364618410966,426.8772046810922,358.48364618410966,417.26642883339446V165.64505051178608l72.44783782882672-72.44783782882672C518.1283632847665,186.78705031173942,516.2079151802087,333.83362784649756,425.0506451505351,424.9908978761711z
	"/>
<g>
</g>
<g>
</g>
<g>
</g>
<g>
</g>
<g>
</g>
<g>
</g>
<g>
</g>
<g>
</g>
<g>
</g>
<g>
</g>
<g>
</g>
<g>
</g>
<g>
</g>
<g>
</g>
<g>
</g>
</svg>
