<?xml version="1.0" encoding="iso-8859-1"?>
<!-- Generator: Adobe Illustrator 19.0.0, SVG Export Plug-In . SVG Version: 6.00 Build 0)  -->
<svg version="1.1" id="Capa_1" xmlns="http://www.w3.org/2000/svg" xmlns:xlink="http://www.w3.org/1999/xlink" x="0px" y="0px"
	 viewBox="0 0 512 512" style="enable-background:new 0 0 58 58;" xml:space="preserve">
<g>
	<path d="M26.482758620689655,379.58620689655174c4.872827586206897,0.0,8.827586206896552-3.9459310344827587,8.827586206896552-8.827586206896552c0.0-14.600827586206895,11.88193103448276-26.482758620689655,26.482758620689655-26.482758620689655s26.482758620689655,11.88193103448276,26.482758620689655,26.482758620689655c0.0,4.881655172413794,3.9547586206896552,8.827586206896552,8.827586206896552,8.827586206896552s8.827586206896552-3.9459310344827587,8.827586206896552-8.827586206896552c0.0-24.337655172413793-19.800275862068965-44.13793103448276-44.13793103448276-44.13793103448276
		s-44.13793103448276,19.800275862068965-44.13793103448276,44.13793103448276C17.655172413793103,375.64027586206896,21.60993103448276,379.58620689655174,26.482758620689655,379.58620689655174z"/>
	<path d="M26.482758620689655,326.6206896551724c4.872827586206897,0.0,8.827586206896552-3.9459310344827587,8.827586206896552-8.827586206896552c0.0-14.600827586206895,11.88193103448276-26.482758620689655,26.482758620689655-26.482758620689655s26.482758620689655,11.88193103448276,26.482758620689655,26.482758620689655c0.0,4.881655172413794,3.9547586206896552,8.827586206896552,8.827586206896552,8.827586206896552s8.827586206896552-3.9459310344827587,8.827586206896552-8.827586206896552c0.0-24.337655172413793-19.800275862068965-44.13793103448276-44.13793103448276-44.13793103448276
		s-44.13793103448276,19.800275862068965-44.13793103448276,44.13793103448276C17.655172413793103,322.6747586206896,21.60993103448276,326.6206896551724,26.482758620689655,326.6206896551724z"/>
	<path d="M26.482758620689655,273.6551724137931c4.872827586206897,0.0,8.827586206896552-3.9459310344827587,8.827586206896552-8.827586206896552c0.0-14.600827586206895,11.88193103448276-26.482758620689655,26.482758620689655-26.482758620689655s26.482758620689655,11.88193103448276,26.482758620689655,26.482758620689655c0.0,4.881655172413794,3.9547586206896552,8.827586206896552,8.827586206896552,8.827586206896552s8.827586206896552-3.9459310344827587,8.827586206896552-8.827586206896552c0.0-24.337655172413793-19.800275862068965-44.13793103448276-44.13793103448276-44.13793103448276
		s-44.13793103448276,19.800275862068965-44.13793103448276,44.13793103448276C17.655172413793103,269.70924137931036,21.60993103448276,273.6551724137931,26.482758620689655,273.6551724137931z"/>
	<path d="M26.482758620689655,220.68965517241378c4.872827586206897,0.0,8.827586206896552-3.9459310344827587,8.827586206896552-8.827586206896552c0.0-14.600827586206895,11.88193103448276-26.482758620689655,26.482758620689655-26.482758620689655s26.482758620689655,11.88193103448276,26.482758620689655,26.482758620689655c0.0,4.881655172413794,3.9547586206896552,8.827586206896552,8.827586206896552,8.827586206896552s8.827586206896552-3.9459310344827587,8.827586206896552-8.827586206896552c0.0-24.337655172413793-19.800275862068965-44.13793103448276-44.13793103448276-44.13793103448276
		s-44.13793103448276,19.800275862068965-44.13793103448276,44.13793103448276C17.655172413793103,216.74372413793103,21.60993103448276,220.68965517241378,26.482758620689655,220.68965517241378z"/>
	<path d="M35.310344827586206,158.89655172413794c0.0-14.600827586206895,11.88193103448276-26.482758620689655,26.482758620689655-26.482758620689655s26.482758620689655,11.88193103448276,26.482758620689655,26.482758620689655c0.0,4.881655172413794,3.9547586206896552,8.827586206896552,8.827586206896552,8.827586206896552s8.827586206896552-3.9459310344827587,8.827586206896552-8.827586206896552c0.0-24.337655172413793-19.800275862068965-44.13793103448276-44.13793103448276-44.13793103448276s-44.13793103448276,19.800275862068965-44.13793103448276,44.13793103448276
		c0.0,4.881655172413794,3.9547586206896552,8.827586206896552,8.827586206896552,8.827586206896552S35.310344827586206,163.77820689655172,35.310344827586206,158.89655172413794z"/>
	<path d="M459.06096551724136,0.03531034482758621H441.37931034482756h-61.79310344827586H167.72413793103448V0.0H52.96551724137931v62.68468965517241C32.84744827586207,66.78951724137931,17.655172413793103,84.61241379310346,17.655172413793103,105.93103448275862c0.0,4.881655172413794,3.9547586206896552,8.827586206896552,8.827586206896552,8.827586206896552s8.827586206896552-3.9459310344827587,8.827586206896552-8.827586206896552c0.0-14.600827586206895,11.88193103448276-26.482758620689655,26.482758620689655-26.482758620689655
		s26.482758620689655,11.88193103448276,26.482758620689655,26.482758620689655c0.0,4.881655172413794,3.9547586206896552,8.827586206896552,8.827586206896552,8.827586206896552s8.827586206896552-3.9459310344827587,8.827586206896552-8.827586206896552c0.0-21.318620689655173-15.192275862068966-39.14151724137931-35.310344827586206-43.246344827586206V17.655172413793103h79.44827586206897v476.6896551724138H70.62068965517241v-35.310344827586206v-26.482758620689655c0.0-4.881655172413794-3.9547586206896552-8.827586206896552-8.827586206896552-8.827586206896552s-8.827586206896552,3.9459310344827587-8.827586206896552,8.827586206896552v16.022068965517242
		C42.71668965517242,444.91917241379315,35.310344827586206,435.2176551724138,35.310344827586206,423.7241379310345c0.0-14.600827586206895,11.88193103448276-26.482758620689655,26.482758620689655-26.482758620689655s26.482758620689655,11.88193103448276,26.482758620689655,26.482758620689655c0.0,4.881655172413794,3.9547586206896552,8.827586206896552,8.827586206896552,8.827586206896552s8.827586206896552-3.9459310344827587,8.827586206896552-8.827586206896552c0.0-24.337655172413793-19.800275862068965-44.13793103448276-44.13793103448276-44.13793103448276s-44.13793103448276,19.800275862068965-44.13793103448276,44.13793103448276
		c0.0,21.318620689655173,15.192275862068966,39.14151724137931,35.310344827586206,43.246344827586206V512.0h97.10344827586206h17.655172413793103h211.86206896551724h61.79310344827586h17.681655172413794C478.5169655172414,512.0,494.34482758620686,496.17213793103446,494.34482758620686,476.72496551724134V35.310344827586206C494.34482758620686,15.863172413793103,478.5169655172414,0.03531034482758621,459.06096551724136,0.03531034482758621z M167.72413793103448,494.34482758620686
		V17.69048275862069h211.86206896551724V494.34482758620686H167.72413793103448z M397.2413793103448,494.34482758620686V17.69048275862069h26.482758620689655V494.34482758620686H397.2413793103448z M476.6896551724138,476.72496551724134C476.6896551724138,486.4353103448276,468.78013793103446,494.34482758620686,459.06096551724136,494.34482758620686H441.37931034482756V17.69048275862069h17.681655172413794C468.78013793103446,17.69048275862069,476.6896551724138,25.591172413793103,476.6896551724138,35.310344827586206
		V476.72496551724134z"/>
</g>
<g>
</g>
<g>
</g>
<g>
</g>
<g>
</g>
<g>
</g>
<g>
</g>
<g>
</g>
<g>
</g>
<g>
</g>
<g>
</g>
<g>
</g>
<g>
</g>
<g>
</g>
<g>
</g>
<g>
</g>
</svg>
