<?xml version="1.0" encoding="iso-8859-1"?>
<!-- Generator: Adobe Illustrator 19.0.0, SVG Export Plug-In . SVG Version: 6.00 Build 0)  -->
<svg version="1.1" id="Capa_1" xmlns="http://www.w3.org/2000/svg" xmlns:xlink="http://www.w3.org/1999/xlink" x="0px" y="0px"
	 viewBox="0 0 512 512" style="enable-background:new 0 0 60 60;" xml:space="preserve">
<g>
	<path d="M341.36746666666664,0.034133333333333335H324.26666666666665h-59.733333333333334H8.533333333333333V145.15200000000002v170.66666666666666V460.8h34.13333333333333v50.0736l34.13333333333333-22.749866666666666l34.13333333333333,22.749866666666666V460.8h153.6h59.733333333333334h17.1008C360.1664,460.8,375.46666666666664,445.4997333333333,375.46666666666664,426.70079999999996V315.8186666666667v-170.66666666666666V34.13333333333333
		C375.46666666666664,15.334399999999999,360.1664,0.034133333333333335,341.36746666666664,0.034133333333333335z M25.6,17.1008h238.93333333333334V145.15200000000002H25.6V17.1008z M264.5333333333333,298.75199999999995H25.6v-136.53333333333333h238.93333333333334V298.75199999999995z M93.86666666666666,478.99306666666666l-17.066666666666666-11.383466666666667l-17.066666666666666,11.383466666666667V460.8h34.13333333333333
		V478.99306666666666z M110.93333333333334,443.73333333333335H42.666666666666664H25.6V315.8186666666667h238.93333333333334V443.73333333333335H110.93333333333334z M281.6,443.73333333333335V315.8186666666667v-170.66666666666666V17.1008h25.6V145.15200000000002v170.66666666666666V443.73333333333335H281.6z M324.26666666666665,162.21866666666668h34.13333333333333v136.53333333333333h-34.13333333333333V162.21866666666668z M358.4,426.70079999999996
		C358.4,436.08746666666667,350.7541333333333,443.73333333333335,341.36746666666664,443.73333333333335H324.26666666666665V315.8186666666667h34.13333333333333V426.70079999999996z M324.26666666666665,145.15200000000002V17.1008h17.1008C350.7541333333333,17.1008,358.4,24.738133333333334,358.4,34.13333333333333v111.01866666666666H324.26666666666665z"/>
	<path d="M477.99466666666666,0.0h-34.3808C429.55946666666665,0.0,418.1333333333333,11.426133333333333,418.1333333333333,25.471999999999998V59.733333333333334v51.2v318.0032l34.13333333333333,59.733333333333334V503.46666666666664c0.0,4.718933333333334,3.8144,8.533333333333333,8.533333333333333,8.533333333333333s8.533333333333333-3.8144,8.533333333333333-8.533333333333333v-14.7968l34.13333333333333-59.733333333333334V110.93333333333334V59.733333333333334V25.471999999999998
		C503.46666666666664,11.426133333333333,492.0405333333333,0.0,477.99466666666666,0.0z M435.2,76.8h51.2v17.066666666666666h-51.2V76.8z M460.8,469.1968L441.3696,435.2h38.860800000000005L460.8,469.1968z M486.4,418.1333333333333h-51.2V110.93333333333334h51.2V418.1333333333333z M435.2,59.733333333333334V25.471999999999998
		C435.2,20.8384,438.9717333333333,17.066666666666666,443.6053333333333,17.066666666666666h34.3808C482.62826666666666,17.066666666666666,486.4,20.8384,486.4,25.471999999999998V59.733333333333334H435.2z"/>
</g>
<g>
</g>
<g>
</g>
<g>
</g>
<g>
</g>
<g>
</g>
<g>
</g>
<g>
</g>
<g>
</g>
<g>
</g>
<g>
</g>
<g>
</g>
<g>
</g>
<g>
</g>
<g>
</g>
<g>
</g>
</svg>
