<?xml version="1.0" encoding="iso-8859-1"?>
<!-- Generator: Adobe Illustrator 19.0.0, SVG Export Plug-In . SVG Version: 6.00 Build 0)  -->
<svg version="1.1" id="Capa_1" xmlns="http://www.w3.org/2000/svg" xmlns:xlink="http://www.w3.org/1999/xlink" x="0px" y="0px"
	 viewBox="0 0 512 512" style="enable-background:new 0 0 60 60;" xml:space="preserve">
<g>
	<path d="M486.528,0.0h-34.3808C438.09279999999995,0.0,426.6666666666667,11.426133333333333,426.6666666666667,25.471999999999998V59.733333333333334v51.2v318.0032l34.13333333333333,59.733333333333334V503.46666666666664c0.0,4.718933333333334,3.8144,8.533333333333333,8.533333333333333,8.533333333333333s8.533333333333333-3.8144,8.533333333333333-8.533333333333333v-14.7968l34.13333333333333-59.733333333333334V110.93333333333334V59.733333333333334V25.471999999999998
		C512.0,11.426133333333333,500.5738666666667,0.0,486.528,0.0z M443.73333333333335,76.8h51.2v17.066666666666666h-51.2V76.8z M469.3333333333333,469.1968L449.9029333333333,435.2h38.860800000000005L469.3333333333333,469.1968z M494.93333333333334,418.1333333333333h-51.2V110.93333333333334h51.2V418.1333333333333z M443.73333333333335,59.733333333333334V25.471999999999998
		C443.73333333333335,20.8384,447.50506666666666,17.066666666666666,452.13866666666667,17.066666666666666h34.3808C491.16159999999996,17.066666666666666,494.93333333333334,20.8384,494.93333333333334,25.471999999999998V59.733333333333334H443.73333333333335z"/>
	<path d="M0.0,0.0v512.0h85.33333333333333h307.2V0.0H85.33333333333333H0.0z M17.066666666666666,494.93333333333334V17.066666666666666h51.2v477.8666666666667H17.066666666666666z M375.46666666666664,17.066666666666666v477.8666666666667H85.33333333333333V17.066666666666666H375.46666666666664z"/>
	<path d="M332.8,204.8V85.33333333333333H128.0v119.46666666666667H332.8z M145.06666666666666,102.4h170.66666666666666v85.33333333333333H145.06666666666666V102.4z"/>
	<rect x="170.66666666666666" y="119.46666666666667" width="119.46666666666667" height="17.066666666666666"/>
	<rect x="170.66666666666666" y="153.6" width="119.46666666666667" height="17.066666666666666"/>
</g>
<g>
</g>
<g>
</g>
<g>
</g>
<g>
</g>
<g>
</g>
<g>
</g>
<g>
</g>
<g>
</g>
<g>
</g>
<g>
</g>
<g>
</g>
<g>
</g>
<g>
</g>
<g>
</g>
<g>
</g>
</svg>
