<?xml version="1.0" encoding="iso-8859-1"?>
<!-- Generator: Adobe Illustrator 19.0.0, SVG Export Plug-In . SVG Version: 6.00 Build 0)  -->
<svg version="1.1" id="Capa_1" xmlns="http://www.w3.org/2000/svg" xmlns:xlink="http://www.w3.org/1999/xlink" x="0px" y="0px"
	 viewBox="0 0 512 512" style="enable-background:new 0 0 59.864 59.864;" xml:space="preserve">
<path d="M405.70680208472544,0.0h-17.139649873045574h-59.86903648269411h-256.5815849258319v145.45610049445412v171.05438995055462v145.30215154349864h34.21087799011092v50.18735801149273l34.21087799011092-22.80155018040893l34.21087799011092,22.80155018040893v-50.18735801149273h153.94895095549916h59.86903648269411h17.139649873045574c18.84164105305359,0.0,34.17666711212081-15.335026059067221,34.17666711212081-34.17666711212081
	V316.5104904450087v-171.05438995055462V34.17666711212081C439.88346919684625,15.335026059067221,424.54844313777903,0.0,405.70680208472544,0.0z M89.22196979820929,17.10543899505546h239.47614593077645v128.35066149939865h-239.47614593077645V17.10543899505546z M328.6981157289858,299.40505144995325h-239.47614593077645v-136.8435119604437h239.47614593077645V299.40505144995325z M157.64372577843113,480.04703995723645
	l-17.10543899505546-11.409327809701994l-17.10543899505546,11.409327809701994v-18.234397968729123h34.21087799011092V480.04703995723645z M174.74916477348657,444.7072029934519h-68.42175598022185h-17.10543899505546V316.5104904450087h239.47614593077645v128.19671254844317H174.74916477348657z M345.80355472404125,444.7072029934519V316.5104904450087v-171.05438995055462V17.10543899505546h25.65815849258319v128.35066149939865v171.05438995055462
	v128.19671254844317H345.80355472404125z M388.56715221167985,162.56153948950958h34.21087799011092v136.8435119604437h-34.21087799011092V162.56153948950958z M422.7780302017908,427.6359748763865c0.0,9.416544166778031-7.663236669784847,17.07122811706535-17.07122811706535,17.07122811706535h-17.139649873045574V316.5104904450087h34.21087799011092V427.6359748763865z M388.56715221167985,145.45610049445412V17.10543899505546
	h17.139649873045574c9.416544166778031,0.0,17.07122811706535,7.663236669784847,17.07122811706535,17.07122811706535v111.2794333823333H388.56715221167985z"/>
<g>
</g>
<g>
</g>
<g>
</g>
<g>
</g>
<g>
</g>
<g>
</g>
<g>
</g>
<g>
</g>
<g>
</g>
<g>
</g>
<g>
</g>
<g>
</g>
<g>
</g>
<g>
</g>
<g>
</g>
</svg>
