<?xml version="1.0" encoding="iso-8859-1"?>
<!-- Generator: Adobe Illustrator 19.0.0, SVG Export Plug-In . SVG Version: 6.00 Build 0)  -->
<svg version="1.1" id="Capa_1" xmlns="http://www.w3.org/2000/svg" xmlns:xlink="http://www.w3.org/1999/xlink" x="0px" y="0px"
	 viewBox="0 0 512 512" style="enable-background:new 0 0 42 42;" xml:space="preserve">
<g>
	<path d="M176.76190476190476,0.0c-6.7291428571428575,0.0-12.19047619047619,5.449142857142857-12.19047619047619,12.19047619047619v487.6190476190476c0.0,6.741333333333333,5.461333333333333,12.19047619047619,12.19047619047619,12.19047619047619s12.19047619047619-5.449142857142857,12.19047619047619-12.19047619047619V12.19047619047619C188.95238095238093,5.449142857142857,183.4910476190476,0.0,176.76190476190476,0.0z"/>
	<path d="M335.23809523809524,0.0c-6.7291428571428575,0.0-12.19047619047619,5.449142857142857-12.19047619047619,12.19047619047619v487.6190476190476c0.0,6.741333333333333,5.461333333333333,12.19047619047619,12.19047619047619,12.19047619047619s12.19047619047619-5.449142857142857,12.19047619047619-12.19047619047619V12.19047619047619C347.4285714285714,5.449142857142857,341.9672380952381,0.0,335.23809523809524,0.0z"/>
</g>
<g>
</g>
<g>
</g>
<g>
</g>
<g>
</g>
<g>
</g>
<g>
</g>
<g>
</g>
<g>
</g>
<g>
</g>
<g>
</g>
<g>
</g>
<g>
</g>
<g>
</g>
<g>
</g>
<g>
</g>
</svg>
