<?xml version="1.0" encoding="iso-8859-1"?>
<!-- Generator: Adobe Illustrator 19.0.0, SVG Export Plug-In . SVG Version: 6.00 Build 0)  -->
<svg version="1.1" id="Capa_1" xmlns="http://www.w3.org/2000/svg" xmlns:xlink="http://www.w3.org/1999/xlink" x="0px" y="0px"
	 viewBox="0 0 512 512" style="enable-background:new 0 0 59.999 59.999;" xml:space="preserve">
<g>
	<path d="M440.9673494558242,187.13058550975845c-101.45449090818178-101.45449090818178-266.52604210070166-101.45449090818178-367.9805330088834,0.0L5.231020517008616,254.89491491524856l65.8016300271671,65.8016300271671c49.14428573809563,49.14428573809563,114.48510808513474,76.21247020783677,183.9902665044417,76.21247020783677
		s134.83744729078816-27.05965099418323,183.98173302888378-76.21247020783677l67.76432940549007-67.76432940549007L440.9673494558242,187.13058550975845z M426.9383156385939,308.63021050350835c-45.91863197719962,45.91863197719962-106.97564959415989,71.21185353089217-171.9153985899765,71.21185353089217
		s-125.99676661277687-25.284688078134632-171.9153985899765-71.21185353089217L29.36368939482324,254.89491491524856l55.69799496658277-55.69799496658277c94.79837997299954-94.78984649744162,249.0580176336272-94.78984649744162,343.8393306555109,0.0l53.735295588259795,53.735295588259795L426.9383156385939,308.63021050350835z"/>
	<path d="M253.18821980366337,144.8045467424457c-60.28900481674694,0.0-109.33942232370538,49.050417506958446-109.33942232370538,109.33942232370538s49.050417506958446,109.33942232370538,109.33942232370538,109.33942232370538s109.33942232370538-49.050417506958446,109.33942232370538-109.33942232370538
		S313.4772246204103,144.8045467424457,253.18821980366337,144.8045467424457z M253.18821980366337,346.4079067984466c-50.8765812763546,0.0-92.27247120785346-41.39588993149885-92.27247120785346-92.27247120785346c0.0-50.8765812763546,41.39588993149885-92.27247120785346,92.27247120785346-92.27247120785346
		s92.27247120785346,41.39588993149885,92.27247120785346,92.27247120785346C345.46069101151676,305.02055034250566,304.06480108001796,346.4079067984466,253.18821980366337,346.4079067984466z"/>
	<path d="M220.65007750129166,51.19231987199786c2.184569742829047,0.0,4.369139485658094-0.8362806046767445,6.033167219453657-2.5003083384723075l19.567259454324237-19.567259454324237v64.73494558242636c0.0,4.710478507975132,3.822997049950832,8.533475557925964,8.533475557925964,8.533475557925964s8.533475557925964-3.822997049950832,8.533475557925964-8.533475557925964V29.124752079201315l19.567259454324237,19.567259454324237
		c1.6640277337955631,1.6640277337955631,3.84859747662461,2.5003083384723075,6.033167219453657,2.5003083384723075s4.369139485658094-0.8362806046767445,6.033167219453657-2.5003083384723075c3.336588943149052-3.336588943149052,3.336588943149052-8.72974549575826,0.0-12.066334438907313l-34.13390223170386-34.13390223170386
		c-0.7850797513291887-0.7850797513291887-1.7322955382589709-1.4080234670577843-2.7733795563259385-1.8432307205120082c-2.090701511691861-0.8618810313505224-4.437407290121501-0.8618810313505224-6.519575326255437,0.0c-1.0410840180669676,0.4352072534542242-1.9882998049967497,1.0581509691828195-2.7733795563259385,1.8432307205120082l-34.13390223170386,34.13390223170386
		c-3.336588943149052,3.336588943149052-3.336588943149052,8.72974549575826,0.0,12.066334438907313C216.28093801563355,50.356039267321115,218.4655077584626,51.19231987199786,220.65007750129166,51.19231987199786z"/>
	<path d="M282.88471474524573,463.29945499091644l-19.567259454324237,19.567259454324237v-64.73494558242636c0.0-4.710478507975132-3.822997049950832-8.533475557925964-8.533475557925964-8.533475557925964s-8.533475557925964,3.822997049950832-8.533475557925964,8.533475557925964v64.73494558242636l-19.567259454324237-19.567259454324237c-3.336588943149052-3.336588943149052-8.72974549575826-3.336588943149052-12.066334438907313,0.0
		s-3.336588943149052,8.72974549575826,0.0,12.066334438907313l34.13390223170386,34.13390223170386c0.7850797513291887,0.7850797513291887,1.7322955382589709,1.4080234670577843,2.7733795563259385,1.8432307205120082c1.0410840180669676,0.4352072534542242,2.150435840597343,0.6570776179602993,3.2597876631277183,0.6570776179602993s2.2187036450607507-0.23040384006400103,3.2597876631277183-0.6570776179602993
		c1.0410840180669676-0.4352072534542242,1.9882998049967497-1.0581509691828195,2.7733795563259385-1.8432307205120082l34.13390223170386-34.13390223170386c3.336588943149052-3.336588943149052,3.336588943149052-8.72974549575826,0.0-12.066334438907313S286.21277021283686,459.9628660477674,282.88471474524573,463.29945499091644z"/>
</g>
<g>
</g>
<g>
</g>
<g>
</g>
<g>
</g>
<g>
</g>
<g>
</g>
<g>
</g>
<g>
</g>
<g>
</g>
<g>
</g>
<g>
</g>
<g>
</g>
<g>
</g>
<g>
</g>
<g>
</g>
</svg>
