<?xml version="1.0" encoding="iso-8859-1"?>
<!-- Generator: Adobe Illustrator 19.0.0, SVG Export Plug-In . SVG Version: 6.00 Build 0)  -->
<svg version="1.1" id="Capa_1" xmlns="http://www.w3.org/2000/svg" xmlns:xlink="http://www.w3.org/1999/xlink" x="0px" y="0px"
	 viewBox="0 0 512 512" style="enable-background:new 0 0 58 58;" xml:space="preserve">
<g>
	<path d="M482.25103448275866,88.27586206896552H29.74896551724138C13.347310344827585,88.27586206896552,0.0,101.6231724137931,0.0,118.02482758620688v311.26068965517237C0.0,445.6871724137931,13.347310344827585,459.0344827586207,29.74896551724138,459.0344827586207h452.5020689655172c16.401655172413793,0.0,29.74896551724138-13.347310344827585,29.74896551724138-29.74896551724138V118.02482758620688
		C512.0,101.6231724137931,498.6526896551724,88.27586206896552,482.25103448275866,88.27586206896552z M494.34482758620686,429.28551724137935c0.0,6.673655172413793-5.420137931034483,12.093793103448277-12.093793103448277,12.093793103448277H29.74896551724138C23.075310344827585,441.37931034482756,17.655172413793103,435.9591724137931,17.655172413793103,429.28551724137935V118.02482758620688
		C17.655172413793103,111.35117241379311,23.075310344827585,105.93103448275862,29.74896551724138,105.93103448275862h452.5020689655172c6.673655172413793,0.0,12.093793103448277,5.420137931034483,12.093793103448277,12.093793103448277V429.28551724137935z"/>
	<path d="M264.82758620689657,123.58620689655172c-82.74979310344828,0.0-150.06896551724137,67.31917241379311-150.06896551724137,150.06896551724137s67.31917241379311,150.06896551724137,150.06896551724137,150.06896551724137s150.06896551724137-67.31917241379311,150.06896551724137-150.06896551724137S347.57737931034484,123.58620689655172,264.82758620689657,123.58620689655172z M264.82758620689657,406.0689655172414c-73.01296551724138,0.0-132.41379310344828-59.400827586206894-132.41379310344828-132.41379310344828
		s59.400827586206894-132.41379310344828,132.41379310344828-132.41379310344828s132.41379310344828,59.400827586206894,132.41379310344828,132.41379310344828S337.8405517241379,406.0689655172414,264.82758620689657,406.0689655172414z"/>
	<path d="M176.55172413793105,70.62068965517241h167.72413793103448c4.881655172413794,0.0,8.827586206896552-3.9459310344827587,8.827586206896552-8.827586206896552s-3.9459310344827587-8.827586206896552-8.827586206896552-8.827586206896552H176.55172413793105c-4.881655172413794,0.0-8.827586206896552,3.9459310344827587-8.827586206896552,8.827586206896552S171.67006896551723,70.62068965517241,176.55172413793105,70.62068965517241z"/>
</g>
<g>
</g>
<g>
</g>
<g>
</g>
<g>
</g>
<g>
</g>
<g>
</g>
<g>
</g>
<g>
</g>
<g>
</g>
<g>
</g>
<g>
</g>
<g>
</g>
<g>
</g>
<g>
</g>
<g>
</g>
</svg>
