<?xml version="1.0" encoding="iso-8859-1"?>
<!-- Generator: Adobe Illustrator 19.0.0, SVG Export Plug-In . SVG Version: 6.00 Build 0)  -->
<svg version="1.1" id="Capa_1" xmlns="http://www.w3.org/2000/svg" xmlns:xlink="http://www.w3.org/1999/xlink" x="0px" y="0px"
	 viewBox="0 0 512 512" style="enable-background:new 0 0 60 60;" xml:space="preserve">
<g>
	<path d="M256.0,221.86666666666667c32.93866666666666,0.0,59.733333333333334-26.8032,59.733333333333334-59.733333333333334s-26.794666666666668-59.733333333333334-59.733333333333334-59.733333333333334s-59.733333333333334,26.8032-59.733333333333334,59.733333333333334S223.06133333333332,221.86666666666667,256.0,221.86666666666667z M256.0,119.46666666666667c23.526400000000002,0.0,42.666666666666664,19.140266666666665,42.666666666666664,42.666666666666664s-19.140266666666665,42.666666666666664-42.666666666666664,42.666666666666664
		s-42.666666666666664-19.140266666666665-42.666666666666664-42.666666666666664S232.47359999999998,119.46666666666667,256.0,119.46666666666667z"/>
	<path d="M254.4896,467.2597333333333L385.3994666666667,278.18666666666667c49.10079999999999-65.4592,42.00106666666667-173.056-15.197866666666666-230.2464C339.2938666666667,17.024,298.19733333333335,0.0,254.4896,0.0
		s-84.80426666666668,17.024-115.712,47.931733333333334c-57.198933333333336,57.1904-64.29866666666666,164.78719999999998-15.394133333333334,229.99040000000002L254.4896,467.2597333333333z M150.84373333333332,59.99786666666666C178.5344,32.315733333333334,215.33866666666665,17.066666666666666,254.4896,17.066666666666666
		s75.95519999999999,15.249066666666666,103.64586666666668,42.9312c51.626666666666665,51.61813333333333,57.984,148.79573333333335,13.422933333333333,208.2048L254.4896,437.2736L137.23306666666667,267.94666666666666
		C92.85973333333332,208.7936,99.2256,111.616,150.84373333333332,59.99786666666666z"/>
	<path d="M359.3984,366.99306666666666c-4.693333333333333-0.5717333333333333-8.925866666666668,2.7904-9.472000000000001,7.4752s2.7989333333333333,8.925866666666668,7.4752,9.472000000000001C447.1381333333333,394.50453333333337,494.93333333333334,422.9717333333333,494.93333333333334,439.46666666666664
		c0.0,23.159466666666667-90.89706666666666,55.46666666666667-238.93333333333334,55.46666666666667S17.066666666666666,462.6261333333333,17.066666666666666,439.46666666666664c0.0-16.494933333333332,47.7952-44.962133333333334,137.53173333333334-55.526399999999995c4.676266666666667-0.5461333333333334,8.021333333333333-4.795733333333334,7.4752-9.472000000000001
		c-0.5546666666666666-4.6848-4.7872-8.064-9.472000000000001-7.4752C62.754133333333336,377.57439999999997,0.0,407.3728,0.0,439.46666666666664C0.0,475.51146666666665,87.93599999999999,512.0,256.0,512.0s256.0-36.48853333333333,256.0-72.53333333333333
		C512.0,407.3728,449.24586666666664,377.57439999999997,359.3984,366.99306666666666z"/>
</g>
<g>
</g>
<g>
</g>
<g>
</g>
<g>
</g>
<g>
</g>
<g>
</g>
<g>
</g>
<g>
</g>
<g>
</g>
<g>
</g>
<g>
</g>
<g>
</g>
<g>
</g>
<g>
</g>
<g>
</g>
</svg>
