<?xml version="1.0" encoding="iso-8859-1"?>
<!-- Generator: Adobe Illustrator 19.0.0, SVG Export Plug-In . SVG Version: 6.00 Build 0)  -->
<svg version="1.1" id="Capa_1" xmlns="http://www.w3.org/2000/svg" xmlns:xlink="http://www.w3.org/1999/xlink" x="0px" y="0px"
	 viewBox="0 0 512 512" style="enable-background:new 0 0 61.168 61.168;" xml:space="preserve">
<g>
	<path d="M258.9631179701805,222.51844101490977c32.30133403086582,0.0,58.592728223907926-26.291394193042116,58.592728223907926-58.592728223907926s-26.291394193042116-58.592728223907926-58.592728223907926-58.592728223907926s-58.592728223907926,26.291394193042116-58.592728223907926,58.592728223907926S226.6534135495684,222.51844101490977,258.9631179701805,222.51844101490977z M258.9631179701805,122.07376405963903
		c23.077164530473453,0.0,41.85194873136281,18.774784200889354,41.85194873136281,41.85194873136281s-18.774784200889354,41.85194873136281-41.85194873136281,41.85194873136281s-41.85194873136281-18.774784200889354-41.85194873136281-41.85194873136281S235.88595343970707,122.07376405963903,258.9631179701805,122.07376405963903z"/>
	<path d="M420.32749149882295,314.59272822390795h-59.94036097305781l25.504577556892496-36.82971488359927c48.17159298979859-64.20925974365682,41.199058331153545-169.75150405440755-14.90766413811143-225.84985613392624c-30.309181271252946-30.317551660999218-70.62097828930159-47.016479204812974-113.50248495945594-47.016479204812974
		c-42.87313628040806,0.0-83.18493329845673,16.69892754381376-113.50248495945594,47.016479204812974c-56.10672246926498,56.098352079518705-63.07925712791002,161.6489667800157-15.1001831022757,225.5987444415381l25.68035574156422,37.08919696573372h-62.886738163745754L0.0,507.1116923881769h512.0L420.32749149882295,314.59272822390795z
		 M142.464033481559,267.7185456447816c-43.517656290871045-58.03191211090767-37.281715929897985-153.34554015171332,13.35914203505101-203.97802772691605c27.15354433690819-27.15354433690819,63.263405702328015-42.11143081349725,101.66675385822654-42.11143081349725s74.50483913157207,14.957886476589067,101.66675385822654,42.11143081349725
		c50.64085796494899,50.632487575202724,56.87679832592205,145.95448600575466,13.16662307088674,204.22913941930423L257.48155898509026,433.81218938006805l-82.55715406748627-119.2194611561601h0.0L142.464033481559,267.7185456447816z M102.2526811404656,331.3335077164531h63.89955532304474l91.32932252157991,131.89223123201674
		l91.32095213183365-131.89223123201674h60.944807742610514l75.73528642427414,159.03740517917868H26.517394716191475L102.2526811404656,331.3335077164531z"/>
</g>
<g>
</g>
<g>
</g>
<g>
</g>
<g>
</g>
<g>
</g>
<g>
</g>
<g>
</g>
<g>
</g>
<g>
</g>
<g>
</g>
<g>
</g>
<g>
</g>
<g>
</g>
<g>
</g>
<g>
</g>
</svg>
