<?xml version="1.0" encoding="iso-8859-1"?>
<!-- Generator: Adobe Illustrator 19.0.0, SVG Export Plug-In . SVG Version: 6.00 Build 0)  -->
<svg version="1.1" id="Capa_1" xmlns="http://www.w3.org/2000/svg" xmlns:xlink="http://www.w3.org/1999/xlink" x="0px" y="0px"
	 viewBox="0 0 512 512" style="enable-background:new 0 0 52 52;" xml:space="preserve">
<g>
	<path d="M256.0,0.0C114.84553846153847,0.0,0.0,114.83569230769231,0.0,256.0s114.84553846153847,256.0,256.0,256.0s256.0-114.83569230769231,256.0-256.0S397.15446153846153,0.0,256.0,0.0z M256.0,492.3076923076923C125.70584615384615,492.3076923076923,19.692307692307693,386.29415384615385,19.692307692307693,256.0
		S125.70584615384615,19.692307692307693,256.0,19.692307692307693s236.30769230769232,106.01353846153846,236.30769230769232,236.30769230769232S386.29415384615385,492.3076923076923,256.0,492.3076923076923z"/>
	<path d="M379.0769230769231,246.15384615384616H265.84615384615387V137.84615384615387c0.0-5.444923076923078-4.411076923076924-9.846153846153847-9.846153846153847-9.846153846153847s-9.846153846153847,4.40123076923077-9.846153846153847,9.846153846153847v108.30769230769232H132.92307692307693c-5.435076923076924,0.0-9.846153846153847,4.40123076923077-9.846153846153847,9.846153846153847s4.411076923076924,9.846153846153847,9.846153846153847,9.846153846153847H246.15384615384616v118.15384615384616c0.0,5.444923076923078,4.411076923076924,9.846153846153847,9.846153846153847,9.846153846153847
		s9.846153846153847-4.40123076923077,9.846153846153847-9.846153846153847V265.84615384615387h113.23076923076924c5.435076923076924,0.0,9.846153846153847-4.40123076923077,9.846153846153847-9.846153846153847S384.512,246.15384615384616,379.0769230769231,246.15384615384616z"/>
</g>
<g>
</g>
<g>
</g>
<g>
</g>
<g>
</g>
<g>
</g>
<g>
</g>
<g>
</g>
<g>
</g>
<g>
</g>
<g>
</g>
<g>
</g>
<g>
</g>
<g>
</g>
<g>
</g>
<g>
</g>
</svg>
