<?xml version="1.0" encoding="iso-8859-1"?>
<!-- Generator: Adobe Illustrator 19.0.0, SVG Export Plug-In . SVG Version: 6.00 Build 0)  -->
<svg version="1.1" id="Capa_1" xmlns="http://www.w3.org/2000/svg" xmlns:xlink="http://www.w3.org/1999/xlink" x="0px" y="0px"
	 viewBox="0 0 512 512" style="enable-background:new 0 0 57.945 57.945;" xml:space="preserve">
<path d="M443.18550349469325,81.09648804901201l17.77796186038485-17.77796186038485c3.4548623694883083-3.4548623694883083,3.4548623694883083-9.03919233756148,0.0-12.494054707049788s-9.03919233756148-3.4548623694883083-12.494054707049788,0.0l-17.760289930106133,17.760289930106133
	c-88.12991629993961-82.21865562171024-223.72663732850117-91.61128656484598-322.18579687634826-22.22245232548106C91.19599620329623,30.872862196910866,64.5820692035551,31.279316593321255,47.95278281128656,47.91743895072914c-16.62928639226853,16.62928639226853-17.044576753818276,43.25204935714902-1.5551298645267062,60.570541030287345
	c-71.08533954612132,100.85370610061265-59.53673310898266,240.7181982914833,28.328104236776255,328.5830356372422c49.94971093278108,49.94971093278108,115.57442402278022,74.92898438174132,181.19030114764,74.92898438174132s131.2405902148589-24.97927344896022,181.19030114764-74.92898438174132
	C534.9028216412115,339.2568815255846,536.8909137975667,181.42887220640264,443.18550349469325,81.09648804901201z M60.44683751833636,60.41149365777893C65.44799378721201,55.40150142376391,72.1014755371473,52.65351626542411,79.18791957891104,52.65351626542411s13.739925791699024,2.7568211234791615,18.741082060574684,7.757977392354819
	c0.7068772111485029,0.7068772111485029,1.2458710846492362,1.5021140736905687,1.85555267926482,2.2708430408145657l0.5124859780826646,0.680369315730434c2.9423763914056433,3.9231685218741914,4.63888169816205,8.464854603503323,5.133695745966002,13.08606437138666c0.0,0.0,0.0,0.035343860557425145,0.008835965139356286,0.05301579083613772
	c0.15904737250841314,1.4844421434118562,0.17671930278712572,2.9777202519630688,0.07952368625420657,4.470998360514281c-0.008835965139356286,0.14137544222970058-0.02650789541806886,0.27391491932004486-0.035343860557425145,0.41529036154974547C105.36004832168436,82.75764949521097,105.14798515833981,84.11838812667185,104.82989041332299,85.45261886271464
	c-0.07952368625420657,0.3180947450168263-0.18555526792648203,0.6273535248942963-0.28275088445940116,0.9454482699111226c-0.3180947450168263,1.1663473983950299-0.6980412460091466,2.315022866511347-1.1751833635343862,3.4371904392095955c-0.2650789541806886,0.6008456294762275-0.6096815946155838,1.1751833635343862-0.9189403744930538,1.7495210975925448
	c-0.432962291828458,0.8217447579601346-0.8305807230994909,1.6523254810596255-1.3519026663215117,2.429890413322979c-0.92777633963241,1.3695745966002244-1.9615842609370957,2.6772974372249547-3.1721114850289065,3.887824661316766c-1.23703511950988,1.23703511950988-2.5889377858313916,2.315022866511347-4.0203641384071105,3.242799206143757
	c-0.10603158167227544,0.07068772111485029-0.22089912848390716,0.11486754681163172-0.3180947450168263,0.17671930278712572c-5.699197514884805,3.578565881439296-12.688445940115626,4.797929070670464-19.27123996893606,3.6404176374147896c-0.17671930278712572-0.035343860557425145-0.36227457071360775-0.07068772111485029-0.5389938735007335-0.10603158167227544
	c-1.1928552938130987-0.23857105876261972-2.3592026922081284-0.6096815946155838-3.5167141254638024-0.9984640607472604c-0.7068772111485029-0.2562429890413323-1.4137544222970058-0.49481404780395205-2.09412373802744-0.8129087928207783c-0.5036500129433084-0.22089912848390716-0.9719561653291915-0.49481404780395205-1.4579342479937873-0.7422210717059281
	c-1.139839502976961-0.6096815946155838-2.2620070756752093-1.2458710846492362-3.3223228923979637-2.032271982051946l-0.14137544222970058-0.10603158167227544c-0.9631202001898352-0.7157131762878592-1.943912330658383-1.3960824920182933-2.801000949175943-2.2620070756752093C50.108758305289506,87.5644145310208,50.108758305289506,70.74957287082579,60.44683751833636,60.41149365777893z
	 M424.603468806627,424.5769609112089c-93.01620502200362,93.01620502200362-244.36745189403746,93.01620502200362-337.39249288118043,0.0C5.531314177237035,342.88846319786-5.363430839589266,212.9025800327897,60.499853309172494,119.04695832254725
	c1.8732246095435328,0.8747605487962724,3.808300975062559,1.5639658296660626,5.787557166278368,2.1648114591422902c0.3357666752955389,0.09719561653291914,0.6715333505910778,0.2120631633445509,1.0073000258866167,0.3004228147381138c1.9085684701009578,0.5389938735007335,3.8436448356199846,0.9542842350504789,5.831736991975149,1.228199154370524
	c0.35343860557425144,0.04417982569678143,0.7068772111485029,0.061851755975494006,1.0603158167227544,0.10603158167227544c1.6611614461989819,0.18555526792648203,3.304650962119251,0.48597808266459575,5.001156268875658,0.48597808266459575c4.25893519716973,0.0,8.367658986970403-0.7952368625420657,12.343843299680731-1.9615842609370957
	c0.8305807230994909-0.23857105876261972,1.6523254810596255-0.4594701872465269,2.4652342738804043-0.7422210717059281c1.3784105617395808-0.49481404780395205,2.721477262921736-1.0426438864440417,4.038036068685823-1.6699974113383382c1.1928552938130987-0.5566658037794461,2.341530761929416-1.201691258952455,3.4902062300457333-1.8643886444041764
	c0.9807921304685479-0.5743377340581586,1.9704202260764518-1.1133316075588922,2.9070325308482183-1.7671930278712573c2.102959703166796-1.4579342479937873,4.135231685218742-3.066079903356631,5.990784364483563-4.930468547760809c1.9174044352403141-1.9174044352403141,3.5608939511605837-4.011528173267754,5.054172059711795-6.194011562688757
	c0.5655017689188023-0.8217447579601346,1.0338079213046856-1.6788333764776944,1.5374579342479937-2.5270860298558975c0.7952368625420657-1.3430667011821555,1.5197860039692812-2.7038053326430234,2.1648114591422902-4.11755975494003c0.5213219432220209-1.139839502976961,1.0073000258866167-2.2708430408145657,1.4225903874363621-3.4371904392095955
	c0.38878246613167655-1.0868237121408233,0.680369315730434-2.2001553196997152,0.9807921304685479-3.3134869272586074c1.4579342479937873-5.345758909310553,1.8908965398222453-10.859401156268877,1.3077228406247303-16.34653550780913c-0.05301579083613772-0.48597808266459575-0.07068772111485029-0.9631202001898352-0.14137544222970058-1.449098282854431
	c-0.2562429890413323-1.8378807489861075-0.6538614203123652-3.6227457071360774-1.139839502976961-5.416446630425403C121.46801277073087,67.06497540771421,121.30896539822245,66.53481749935284,121.14108206057469,65.99582362585211c-0.5655017689188023-1.8290447838467512-1.2105272240918112-3.613909741996721-2.02343601691259-5.363430839589266
	c-0.02650789541806886-0.05301579083613772-0.035343860557425145-0.10603158167227544-0.05301579083613772-0.1502114073690569c91.46107515747693-64.17561480714471,217.0731555785659-55.28663387695228,299.0178962809561,20.738010182069203l-31.2704806281819,31.279316593321255c-76.1836914315299-69.58322547243075-194.66514798515834-67.754180688584-268.3482612822504,5.9289326085080685
	c-75.79490896539822,75.79490896539822-75.79490896539822,199.10963845025455,0.0,274.90454741565276c37.89745448269911,37.89745448269911,87.67928207783243,56.85059970661835,137.46110967296576,56.85059970661835s99.56365519026664-18.953145223919233,137.46110967296576-56.85059970661835
	c30.581275347312104-30.57243938217275,49.88785917680559-70.7672448011045,55.15409439986194-113.72770730865477c7.254327379411511-1.9350763655190266,14.146380188109415-5.548986107515748,19.81906980757615-11.230511692121839c17.212460091466045-17.221296056605404,17.212460091466045-45.2578134437829,0.0-62.4791095003883
	c-7.9346966951419455-7.9346966951419455-18.166744326516525-12.034584519803262-28.57551126067823-12.661938044697559c-8.579722150314954-25.27086029855898-22.363827767710763-48.64198809215635-40.35385279144016-68.3638622831996l31.279316593321255-31.279316593321255C517.5136422469584,187.03087410475453,515.5255500906031,333.65487962723273,424.603468806627,424.5769609112089z
	 M437.10635947881616,210.6405729571145c6.786021227025628,0.0,13.572042454051257,2.5889377858313916,18.741082060574684,7.749141427215463c10.329243247907499,10.338079213046855,10.329243247907499,27.152920873241868,0.0,37.49100008628873c-3.8436448356199846,3.8348088704806282-8.579722150314954,6.229355423246181-13.545534558633186,7.218983518854086
	l-2.5712658555526793,0.2562429890413323c-3.9408404521529037,0.38878246613167655-7.82866511346967-0.08835965139356286-11.416066960048322-1.3165588057640867c-0.08835965139356286-0.02650789541806886-0.17671930278712572-0.04417982569678143-0.2650789541806886-0.07952368625420657c-1.6169816205022003-0.5655017689188023-3.145603589610838-1.3342307360427992-4.612373802743981-2.2089912848390716
	c-0.19439123306583828-0.12370351195098801-0.41529036154974547-0.19439123306583828-0.6096815946155838-0.3180947450168263c-1.5993096902234878-1.0073000258866167-3.1014237639140565-2.191319354560359-4.462162395374925-3.5520579860212274c-10.338079213046855-10.338079213046855-10.338079213046855-27.152920873241868,0.0-37.49100008628873
	c5.345758909310553-5.336922944171197,11.645802053671586-7.006920355509536,16.001932867374233-7.466390542756062l2.5801018206920356-0.2650789541806886C436.98265596686514,210.65824488739324,437.04450772284065,210.6405729571145,437.10635947881616,210.6405729571145z M421.7406161014755,195.83149538355337
	c-2.4475623436016916,0.9101044093536974-4.80676503580982,2.076451807748727-7.095280006903098,3.4371904392095955c-0.47714211752523944,0.27391491932004486-0.9896280956079041,0.4683061523858832-1.4579342479937873,0.7598930019846406c-2.5889377858313916,1.6699974113383382-5.063008024851151,3.5962378117180083-7.333851065665717,5.867080852532575
	c-17.221296056605404,17.221296056605404-17.221296056605404,45.2578134437829,0.0,62.4791095003883c1.9262404003796705,1.9262404003796705,4.038036068685823,3.5874018465786524,6.2381913883855376,5.08951592026922c0.8570886185175598,0.5920096643368712,1.7583570627319012,1.0691517818621106,2.6419535766675297,1.5904737250841314
	c1.3342307360427992,0.7775649322633531,2.686133402364311,1.5197860039692812,4.0910518595219605,2.1471395288635775c1.201691258952455,0.5478298386400897,2.40338251790491,1.016135991025973,3.6404176374147896,1.449098282854431c1.077987747001467,0.37111053585296405,2.1648114591422902,0.680369315730434,3.269307101561826,0.9631202001898352
	c1.5286219691086373,0.40645439641038916,3.0484079730779188,0.7864008974027095,4.603537837604625,1.0249719561653292c0.1325394770903443,0.017671930278712573,0.2562429890413323,0.07068772111485029,0.3799465009923203,0.08835965139356286c-5.336922944171197,37.82676676158426-22.840969885236,73.08226766761585-49.86135128138752,100.10264906376737
	c-68.91169212183968,68.91169212183968-181.0135818448529,68.91169212183968-249.92527396669257,0.0c-68.90285615670032-68.90285615670032-68.90285615670032-181.0135818448529,0.0-249.9164380015532c34.45142807835016-34.45142807835016,79.70924152213307-51.67272413495556,124.96705496591596-51.67272413495556
	c42.48332039002502,0.0,84.86060919837777,15.383415307619295,118.40193286737424,45.74379152644749l-37.48216412114937,37.48216412114937c-22.452187419104323-19.49213909741997-50.81563551643801-30.227836741737853-80.91976874622486-30.227836741737853c-33.08185348174994,0.0-64.14910691172663,12.84749331262404-87.46721891448787,36.17444128052464
	s-36.17444128052464,54.38536543273794-36.17444128052464,87.46721891448787s12.84749331262404,64.14910691172663,36.17444128052464,87.46721891448787s54.38536543273794,36.17444128052464,87.46721891448787,36.17444128052464s64.14910691172663-12.84749331262404,87.46721891448787-36.17444128052464s36.17444128052464-54.38536543273794,36.17444128052464-87.46721891448787
	c0.0-30.104133229786868-10.735697644317888-58.46758132712055-30.227836741737853-80.91976874622486l37.455656225731296-37.455656225731296c15.330399516783158,16.96505306756407,27.471015618258694,36.704599188886014,35.228993010613515,58.19366640780051C421.9084994391233,195.73429976702047,421.82897575286916,195.79615152299593,421.7406161014755,195.83149538355337z
	 M249.66019501251185,262.1277418241436c1.723013202174476,1.723013202174476,3.985020277849685,2.5889377858313916,6.247027353524894,2.5889377858313916s4.524014151350419-0.865924583656916,6.247027353524894-2.5889377858313916l74.67274139269998-74.67274139269998c16.17865217016136,19.08568470100958,25.049961170075072,43.039986193804474,25.049961170075072,68.42571403917508
	c0.0,28.36344809733368-11.009612563637933,54.99504702735353-30.99656570886185,74.97316420743809s-46.609716110104415,30.99656570886185-74.97316420743809,30.99656570886185s-54.99504702735353-11.009612563637933-74.97316420743809-30.99656570886185s-30.99656570886185-46.609716110104415-30.99656570886185-74.97316420743809
	s11.009612563637933-54.99504702735353,30.99656570886185-74.97316420743809s46.609716110104415-30.99656570886185,74.97316420743809-30.99656570886185c25.385727845370614,0.0,49.3400293381655,8.871308999913712,68.42571403917508,25.049961170075072l-74.67274139269998,74.67274139269998
	C246.20533264302358,253.0885494865821,246.20533264302358,258.6728794546553,249.66019501251185,262.1277418241436z"/>
<g>
</g>
<g>
</g>
<g>
</g>
<g>
</g>
<g>
</g>
<g>
</g>
<g>
</g>
<g>
</g>
<g>
</g>
<g>
</g>
<g>
</g>
<g>
</g>
<g>
</g>
<g>
</g>
<g>
</g>
</svg>
