<?xml version="1.0" encoding="iso-8859-1"?>
<!-- Generator: Adobe Illustrator 19.0.0, SVG Export Plug-In . SVG Version: 6.00 Build 0)  -->
<svg version="1.1" id="Capa_1" xmlns="http://www.w3.org/2000/svg" xmlns:xlink="http://www.w3.org/1999/xlink" x="0px" y="0px"
	 viewBox="0 0 512 512" style="enable-background:new 0 0 60 60;" xml:space="preserve">
<g>
	<path d="M162.13333333333333,384.0c18.82453333333333,0.0,34.13333333333333-15.3088,34.13333333333333-34.13333333333333s-15.3088-34.13333333333333-34.13333333333333-34.13333333333333s-34.13333333333333,15.3088-34.13333333333333,34.13333333333333S143.3088,384.0,162.13333333333333,384.0z M162.13333333333333,332.8c9.412266666666666,0.0,17.066666666666666,7.6544,17.066666666666666,17.066666666666666s-7.6544,17.066666666666666-17.066666666666666,17.066666666666666
		s-17.066666666666666-7.6544-17.066666666666666-17.066666666666666S152.72106666666664,332.8,162.13333333333333,332.8z"/>
	<path d="M375.46666666666664,102.4c-18.82453333333333,0.0-34.13333333333333,15.3088-34.13333333333333,34.13333333333333s15.3088,34.13333333333333,34.13333333333333,34.13333333333333s34.13333333333333-15.3088,34.13333333333333-34.13333333333333S394.2912,102.4,375.46666666666664,102.4z M375.46666666666664,153.6c-9.412266666666666,0.0-17.066666666666666-7.6544-17.066666666666666-17.066666666666666s7.6544-17.066666666666666,17.066666666666666-17.066666666666666
		s17.066666666666666,7.6544,17.066666666666666,17.066666666666666S384.87893333333335,153.6,375.46666666666664,153.6z"/>
	<path d="M162.13333333333333,418.1333333333333c37.64053333333333,0.0,68.26666666666667-30.626133333333332,68.26666666666667-68.26666666666667s-30.626133333333332-68.26666666666667-68.26666666666667-68.26666666666667s-68.26666666666667,30.626133333333332-68.26666666666667,68.26666666666667S124.4928,418.1333333333333,162.13333333333333,418.1333333333333z M162.13333333333333,298.6666666666667c28.236800000000002,0.0,51.2,22.963199999999997,51.2,51.2s-22.963199999999997,51.2-51.2,51.2
		s-51.2-22.963199999999997-51.2-51.2S133.89653333333334,298.6666666666667,162.13333333333333,298.6666666666667z"/>
	<path d="M505.06239999999997,314.9909333333333c1.024-4.3264,1.9370666666666667-8.686933333333334,2.7306666666666666-13.090133333333334c0.042666666666666665-0.2304,0.1024-0.45226666666666665,0.14506666666666668-0.6826666666666666c0.008533333333333334-0.0512,0.0-0.1024,0.008533333333333334-0.1536
		C510.5578666666667,286.4128,512.0,271.3770666666667,512.0,256.0c0.0-35.208533333333335-7.150933333333333-68.77013333333332-20.061866666666667-99.328c-0.0512-0.13653333333333334-0.0512-0.29013333333333335-0.11093333333333333-0.4266666666666667
		c-9.9072-23.381333333333334-23.372799999999998-45.090133333333334-39.620266666666666-64.4352c-9.557333333333334-11.400533333333334-20.087466666666668-21.947733333333332-31.453866666666666-31.530666666666665c-19.490133333333333-16.4608-41.38666666666666-30.1056-64.9984-40.09813333333333
		c-0.128-0.05973333333333333-0.2730666666666667-0.05973333333333333-0.4096-0.1024C324.7872,7.150933333333333,291.2085333333333,0.0,256.0,0.0c-14.830933333333332,0.0-29.354666666666667,1.3397333333333332-43.50293333333333,3.771733333333333c-0.0256,0.0-0.0512,0.0-0.06826666666666667,0.0
		c-0.23893333333333333,0.042666666666666665-0.47786666666666666,0.09386666666666665-0.7253333333333334,0.14506666666666668c-3.456,0.6058666666666666-6.894933333333333,1.2629333333333332-10.299733333333334,2.005333333333333c-0.1877333333333333,0.042666666666666665-0.3754666666666666,0.09386666666666665-0.5717333333333333,0.13653333333333334
		c-13.627733333333333,3.003733333333333-26.837333333333333,7.108266666666666-39.56053333333333,12.194133333333333c-1.1690666666666667,0.4693333333333333-2.3552,0.9045333333333333-3.515733333333333,1.3909333333333334c-1.9114666666666666,0.7936-3.7802666666666664,1.6554666666666666-5.666133333333334,2.4917333333333334
		c-1.8432,0.8192-3.6864,1.6298666666666666-5.512533333333334,2.4917333333333334c-1.4848,0.7082666666666667-2.9525333333333332,1.4506666666666668-4.420266666666667,2.1845333333333334c-0.4096,0.2048-0.8192,0.4010666666666667-1.2288,0.6058666666666666
		c-0.11093333333333333,0.0512-0.23893333333333333,0.0512-0.3584,0.11093333333333333c-0.512,0.256-0.9984000000000001,0.5461333333333334-1.5104,0.8106666666666666c-1.1946666666666668,0.6144-2.372266666666667,1.2544-3.5584,1.8858666666666666
		c-1.0495999999999999,0.5632-2.0906666666666665,1.1349333333333333-3.131733333333333,1.7152c-1.211733333333333,0.6741333333333334-2.440533333333333,1.3141333333333334-3.643733333333333,2.005333333333333c-1.4250666666666667,0.8192-2.8160000000000003,1.6810666666666667-4.224,2.5258666666666665
		c-0.7338666666666666,0.4437333333333333-1.4592,0.8789333333333332-2.1845333333333334,1.3312c-2.9696,1.8175999999999999-5.896533333333333,3.7034666666666665-8.797866666666666,5.640533333333334c-0.2986666666666667,0.19626666666666667-0.5973333333333334,0.39253333333333335-0.8874666666666666,0.5973333333333334
		c-1.5189333333333332,1.024-3.0378666666666665,2.0394666666666668-4.5312,3.0976c-0.19626666666666667,0.13653333333333334-0.39253333333333335,0.29013333333333335-0.5888,0.4352c-3.182933333333333,2.2698666666666667-6.314666666666667,4.616533333333334-9.395199999999999,7.031466666666666
		c-0.1024,0.0768-0.2048,0.14506666666666668-0.2986666666666667,0.22186666666666666c-0.0256,0.017066666666666667-0.034133333333333335,0.042666666666666665-0.0512,0.05973333333333333c-14.028799999999999,11.0336-26.9824,23.543466666666667-38.553599999999996,37.43573333333333
		c-0.1536,0.1792-0.2304,0.4010666666666667-0.3584,0.5973333333333334C22.10986666666667,137.23306666666667,0.0,194.08213333333333,0.0,256.0c0.0,25.557333333333332,3.8144,50.23573333333333,10.820266666666667,73.54026666666667
		c0.017066666666666667,0.05973333333333333-0.008533333333333334,0.128,0.008533333333333334,0.1877333333333333c0.08533333333333333,0.2730666666666667,0.1877333333333333,0.5290666666666667,0.26453333333333334,0.8021333333333334c1.4165333333333334,4.642133333333334,2.9354666666666662,9.2416,4.6080000000000005,13.764266666666666
		c0.5888,1.6128,1.2629333333333332,3.182933333333333,1.8858666666666666,4.778666666666667c1.0325333333333333,2.6453333333333333,2.0736,5.282133333333333,3.1914666666666665,7.876266666666667c1.1434666666666666,2.670933333333333,2.3552,5.290666666666667,3.5839999999999996,7.9104
		c0.5802666666666667,1.2202666666666666,1.1520000000000001,2.440533333333333,1.7493333333333332,3.643733333333333c24.985599999999998,51.21706666666666,66.24426666666666,92.4672,117.46986666666666,117.43573333333333c1.1434666666666666,0.5632,2.3040000000000003,1.1093333333333333,3.456,1.6554666666666666
		c2.670933333333333,1.2544,5.3504,2.4917333333333334,8.072533333333332,3.6522666666666663c2.4746666666666663,1.0666666666666667,4.983466666666667,2.048,7.5008,3.0378666666666665c1.7152,0.6741333333333334,3.4048000000000003,1.3994666666666666,5.1456,2.030933333333333
		c4.48,1.6469333333333334,9.0368,3.1573333333333333,13.627733333333333,4.5568c0.2986666666666667,0.09386666666666665,0.5802666666666667,0.2048,0.8874666666666666,0.2986666666666667c0.1024,0.034133333333333335,0.21333333333333335,0.017066666666666667,0.3157333333333333,0.042666666666666665
		C205.8581333333333,508.20266666666663,230.49386666666666,512.0,256.0,512.0c42.624,0.0,82.816-10.530133333333334,118.20373333333333-29.0304c0.2304-0.09386666666666665,0.4693333333333333-0.14506666666666668,0.6997333333333333-0.26453333333333334
		c0.6229333333333333-0.32426666666666665,1.2031999999999998-0.6997333333333333,1.8261333333333332-1.024c2.0736-1.1178666666666668,4.104533333333333-2.295466666666667,6.144-3.4645333333333337c1.9114666666666666-1.0922666666666667,3.8485333333333336-2.1504,5.725866666666667-3.2938666666666667
		c3.6010666666666666-2.1845333333333334,7.142399999999999-4.462933333333334,10.624-6.826666666666667c1.4933333333333332-1.0069333333333332,2.9269333333333334-2.0906666666666665,4.394666666666667-3.131733333333333c2.321066666666667-1.6469333333333334,4.6336-3.2938666666666667,6.894933333333333-5.0176
		c1.2714666666666665-0.9728,2.517333333333333-1.9712,3.771733333333333-2.9610666666666665c2.517333333333333-1.9797333333333333,4.992-4.002133333333333,7.432533333333333-6.075733333333333c0.9130666666666666-0.7765333333333333,1.8175999999999999-1.5615999999999999,2.7136-2.3552
		c2.9696-2.594133333333333,5.8709333333333324-5.265066666666667,8.712533333333333-7.995733333333334c0.3328-0.32426666666666665,0.6741333333333334-0.6314666666666666,1.0069333333333332-0.9642666666666667c4.113066666666667-3.9936000000000003,8.123733333333332-8.098133333333333,11.963733333333332-12.356266666666667
		c0.128-0.128,0.3157333333333333-0.1792,0.4352-0.32426666666666665c18.961066666666667-21.12,34.08213333333333-44.94506666666667,45.09866666666667-70.912c0.4010666666666667-0.9386666666666666,0.7594666666666666-1.8944,1.1434666666666666-2.833066666666667
		c0.9216-2.2357333333333336,1.8602666666666667-4.4544,2.7221333333333333-6.724266666666667c0.034133333333333335-0.08533333333333333,0.017066666666666667-0.1792,0.042666666666666665-0.26453333333333334c3.7119999999999997-9.8304,6.818133333333334-19.950933333333335,9.309866666666666-30.3104
		C504.9344,315.5797333333333,504.99413333333337,315.2810666666667,505.06239999999997,314.9909333333333z M418.4746666666667,430.976c-2.1333333333333333,1.9882666666666668-4.3264,3.9168000000000003-6.536533333333334,5.828266666666667
		c-0.8362666666666667,0.7253333333333334-1.664,1.4677333333333331-2.517333333333333,2.1845333333333334c-1.7322666666666668,1.4677333333333331-3.515733333333333,2.8757333333333337-5.2992,4.283733333333333c-1.3653333333333333,1.0837333333333334-2.7136,2.176-4.104533333333333,3.2256
		c-1.3653333333333333,1.0325333333333333-2.756266666666667,2.030933333333333-4.1472,3.0378666666666665c-1.2970666666666666,0.9386666666666666-2.594133333333333,1.8688-3.9082666666666666,2.7818666666666667c1.8346666666666667-8.183466666666666,1.0666666666666667-16.8448-2.414933333333333-24.823466666666665
		c-5.546666666666667-12.714666666666666-17.049599999999998-21.563733333333335-30.754133333333332-23.671466666666667L349.8666666666667,402.44053333333335v-15.163733333333333l8.482133333333334-1.6213333333333333c13.627733333333333-2.6282666666666668,24.78933333333333-11.904,29.858133333333335-24.814933333333332
		c5.0687999999999995-12.910933333333332,3.2-27.298133333333332-5.009066666666667-38.49386666666667l-5.341866666666666-7.278933333333333l10.726399999999998-10.734933333333334l10.931199999999999,7.415466666666666c11.229866666666666,7.6117333333333335,25.4208,9.045333333333334,37.95626666666667,3.857066666666667
		c12.535466666666668-5.188266666666666,21.5552-16.247466666666664,24.1152-29.576533333333334L464.0768,273.06666666666666h15.163733333333333l1.3738666666666668,8.925866666666668c1.2031999999999998,7.808,4.522666666666667,14.839466666666667,9.7024,20.599466666666668
		c-2.082133333333333,10.496-4.923733333333333,20.7872-8.388266666666667,30.830933333333334C479.18080000000003,333.0048,476.39893333333333,332.8,473.59999999999997,332.8c-30.583466666666666,0.0-55.46666666666667,24.8832-55.46666666666667,55.46666666666667c0.0,11.8272,3.7546666666666666,23.082666666666668,10.5984,32.49493333333333
		c-3.029333333333333,3.182933333333333-6.118399999999999,6.306133333333333-9.326933333333333,9.3184C419.0976,430.3786666666667,418.7904,430.68586666666664,418.4746666666667,430.976z M472.1152,357.5808
		c-8.465066666666667,17.8944-19.157333333333334,34.67946666666667-31.709866666666667,49.971199999999996C437.0176,401.7493333333333,435.2,395.1445333333333,435.2,388.26666666666665c0.0-21.1712,17.2288-38.4,38.4-38.4c0.6485333333333333,0.0,1.2885333333333333,0.017066666666666667,1.9285333333333334,0.0512
		c-0.9642666666666667,2.2357333333333336-1.92,4.471466666666667-2.944,6.673066666666667C472.4309333333333,356.9237333333333,472.2688,357.248,472.1152,357.5808z M375.46666666666664,238.93333333333334c-56.465066666666665,0.0-102.4-45.93493333333333-102.4-102.4
		c0.0-47.1552,32.7936-88.55893333333333,78.37013333333333-99.51573333333334c16.622933333333332,7.2703999999999995,32.273066666666665,16.3584,46.67733333333333,27.042133333333332c0.2816,0.21333333333333335,0.5717333333333333,0.4096,0.8533333333333334,0.6229333333333333
		c2.3466666666666667,1.7578666666666665,4.625066666666667,3.5839999999999996,6.903466666666667,5.4272c0.7338666666666666,0.5888,1.4933333333333332,1.1605333333333334,2.2186666666666666,1.7578666666666665c1.7066666666666668,1.4165333333333334,3.3621333333333334,2.8928000000000003,5.026133333333333,4.352
		c1.211733333333333,1.0581333333333334,2.4490666666666665,2.082133333333333,3.643733333333333,3.1744c0.6314666666666666,0.5802666666666667,1.2373333333333332,1.1946666666666668,1.8688,1.7749333333333333c4.334933333333334,4.036266666666666,8.516266666666667,8.2176,12.544,12.561066666666667
		c0.4693333333333333,0.5034666666666666,0.9557333333333333,0.9813333333333334,1.4250666666666667,1.4933333333333332c1.1264,1.2373333333333332,2.2016,2.5343999999999998,3.3024,3.7973333333333334c1.4165333333333334,1.6213333333333333,2.8586666666666667,3.2170666666666667,4.2325333333333335,4.881066666666666
		c0.6229333333333333,0.7509333333333332,1.211733333333333,1.536,1.8261333333333332,2.3040000000000003c1.8175999999999999,2.2528,3.6266666666666665,4.5056,5.358933333333333,6.818133333333334c0.23893333333333333,0.3157333333333333,0.4608,0.6485333333333333,0.6997333333333333,0.9728
		c10.666666666666666,14.378666666666668,19.720533333333332,30.0032,26.9824,46.592C464.01706666666666,206.14826666666667,422.6218666666667,238.93333333333334,375.46666666666664,238.93333333333334z M198.21226666666666,24.183466666666668c-1.3397333333333332,6.357333333333333-0.8277333333333333,13.056,1.6469333333333334,19.353599999999997
		c4.266666666666667,10.871466666666667,13.6704,18.688,25.147733333333335,20.89813333333333L230.4,65.46773333333333v9.2672L224.70826666666665,75.60533333333333c-11.5456,1.7749333333333333-21.230933333333333,9.224533333333333-25.9072,19.933866666666667
		c-4.676266666666667,10.717866666666666-3.5584,22.89493333333333,3.003733333333333,32.563199999999995l3.0805333333333333,4.5568l-6.5536,6.545066666666667l-1.5104-1.1093333333333333c-9.634133333333333-7.0656-21.973333333333336-8.558933333333332-33.01546666666667-3.985066666666667
		c-11.0336,4.5738666666666665-18.7136,14.361600000000001-20.522666666666666,26.154666666666667L142.99306666666666,162.13333333333333h-9.258666666666667l-1.0410666666666666-5.393066666666667c-2.2016-11.485866666666666-10.018133333333333-20.881066666666666-20.89813333333333-25.156266666666667
		c-10.879999999999999-4.266666666666667-22.99733333333333-2.6794666666666664-32.41813333333333,4.215466666666667l-4.642133333333334,3.4048000000000003L68.18133333333333,132.66773333333333l3.0805333333333333-4.5568c5.777066666666667-8.533333333333333,7.261866666666666-18.850133333333332,4.343466666666667-28.5184
		c0.8533333333333334-0.9813333333333334,1.6896-1.9797333333333333,2.5514666666666663-2.944c2.176-2.432,4.420266666666667-4.795733333333334,6.690133333333334-7.125333333333333c2.3466666666666667-2.414933333333333,4.753066666666667-4.770133333333334,7.1936-7.082666666666666
		c1.1349333333333333-1.0666666666666667,2.295466666666667-2.1077333333333335,3.4474666666666667-3.1488C100.38613333333333,97.45066666666666,116.84693333333333,110.93333333333334,136.53333333333333,110.93333333333334c23.526400000000002,0.0,42.666666666666664-19.140266666666665,42.666666666666664-42.666666666666664c0.0-13.030399999999998-5.9136-24.7808-15.419733333333333-32.657066666666665
		c5.2223999999999995-2.1845333333333334,10.538666666666668-4.164266666666666,15.914666666666667-5.973333333333333c0.5546666666666666-0.1877333333333333,1.1008-0.3754666666666666,1.6554666666666666-0.5632C186.9056,27.246933333333335,192.52053333333333,25.6,198.21226666666666,24.183466666666668z M111.01866666666666,66.32106666666667
		c0.6912-0.5290666666666667,1.3482666666666667-1.0837333333333334,2.048-1.6042666666666667C116.49706666666665,62.1568,120.0384,59.733333333333334,123.60533333333332,57.343999999999994c1.7237333333333333-1.1520000000000001,3.421866666666667-2.3466666666666667,5.1712-3.4474666666666667
		c0.22186666666666666-0.14506666666666668,0.4437333333333333-0.29013333333333335,0.6656-0.4266666666666667c3.6096-2.2613333333333334,7.3216-4.343466666666667,11.042133333333334-6.4c1.6298666666666666-0.9045333333333333,3.2256-1.8773333333333333,4.872533333333333-2.7392
		C155.37493333333333,47.982933333333335,162.13333333333333,57.42933333333334,162.13333333333333,68.26666666666667c0.0,14.114133333333333-11.485866666666666,25.6-25.6,25.6s-25.6-11.485866666666666-25.6-25.6C110.93333333333334,67.62666666666667,110.96746666666667,66.97813333333333,111.01866666666666,66.32106666666667z M111.93173333333334,222.85653333333332
		c0.24746666666666667-0.0768,0.5034666666666666-0.042666666666666665,0.7509333333333332-0.14506666666666668c0.2986666666666667-0.11946666666666667,0.5034666666666666-0.3584,0.7850666666666667-0.5034666666666666C128.6144,216.48213333333334,145.01546666666667,213.33333333333334,162.13333333333333,213.33333333333334c75.28106666666666,0.0,136.53333333333333,61.252266666666664,136.53333333333333,136.53333333333333
		c0.0,19.5584-4.164266666666666,38.16106666666667-11.554133333333334,55.03146666666667c-0.0768,0.14506666666666668-0.21333333333333335,0.23893333333333333-0.2816,0.39253333333333335c-0.08533333333333333,0.1877333333333333-0.05973333333333333,0.39253333333333335-0.128,0.5802666666666667
		c-18.065066666666667,40.379733333333334-55.185066666666664,70.48533333333333-101.38453333333334,78.38719999999999c-0.0256-0.008533333333333334-0.042666666666666665-0.008533333333333334-0.06826666666666667-0.017066666666666667c-4.206933333333334-1.2970666666666666-8.337066666666667-2.7477333333333336-12.4416-4.266666666666667
		c-1.92-0.7082666666666667-3.8058666666666667-1.4933333333333332-5.700266666666667-2.2528c-1.9626666666666668-0.7850666666666667-3.9168000000000003-1.5872-5.853866666666667-2.414933333333333c-2.5343999999999998-1.1008-5.060266666666666-2.2357333333333336-7.552-3.421866666666667
		c-0.9130666666666666-0.4352-1.8175999999999999-0.8874666666666666-2.7306666666666666-1.3312c-47.53066666666667-23.364266666666666-86.21226666666666-62.04586666666666-109.55946666666667-109.57653333333333c-0.4352-0.8874666666666666-0.8704-1.7749333333333333-1.2970666666666666-2.670933333333333
		c-1.1946666666666668-2.5002666666666666-2.3296-5.034666666666666-3.4389333333333334-7.586133333333334c-0.8362666666666667-1.9370666666666667-1.6298666666666666-3.8912-2.414933333333333-5.853866666666667c-0.7594666666666666-1.8858666666666666-1.536-3.771733333333333-2.244266666666667-5.6832
		c-1.5189333333333332-4.113066666666667-2.9696-8.260266666666666-4.2752-12.475733333333332c0.0-0.017066666666666667-0.008533333333333334-0.0256-0.008533333333333334-0.042666666666666665C36.010666666666665,278.28906666666666,68.64213333333333,239.85493333333332,111.93173333333334,222.85653333333332z M219.4944,492.14293333333336
		c34.781866666666666-13.841066666666668,62.73706666666667-39.6288,79.36-72.17493333333333l13.405866666666666,5.956266666666666C313.3952,426.43626666666665,314.5728,426.6666666666667,315.73333333333335,426.6666666666667c3.268266666666667,0.0,6.391466666666666-1.8944,7.808-5.0687999999999995
		c1.9114666666666666-4.309333333333333-0.0256-9.352533333333334-4.334933333333334-11.264000000000001l-13.346133333333334-5.930666666666666C312.2432,387.4304,315.73333333333335,369.04106666666667,315.73333333333335,349.8666666666667c0.0-16.622933333333332-2.7392-32.60586666666667-7.645866666666667-47.60746666666667l10.734933333333334-4.1728
		c4.394666666666667-1.7066666666666668,6.570666666666667-6.647466666666666,4.864-11.042133333333334c-1.7066666666666668-4.394666666666667-6.6304-6.587733333333333-11.042133333333334-4.855466666666667l-10.811733333333333,4.1983999999999995c-14.370133333333333-31.488-39.00586666666666-57.2672-69.67466666666665-73.0624
		l6.0416-13.5936c1.9114666666666666-4.309333333333333-0.0256-9.352533333333334-4.334933333333334-11.264000000000001c-4.309333333333333-1.9029333333333334-9.344,0.034133333333333335-11.264000000000001,4.334933333333334l-6.050133333333333,13.610666666666667C199.61173333333332,199.9616,181.31626666666668,196.26666666666665,162.13333333333333,196.26666666666665
		c-16.622933333333332,0.0-32.5888,2.7477333333333336-47.62453333333334,7.6032l-4.155733333333333-10.692266666666665c-1.7066666666666668-4.394666666666667-6.664533333333334-6.5792-11.042133333333334-4.855466666666667c-4.394666666666667,1.6981333333333335-6.570666666666667,6.647466666666666-4.864,11.042133333333334
		l4.130133333333333,10.615466666666666c-35.61813333333333,16.1024-63.95733333333333,45.44-78.72,82.5344C18.0224,280.6016,17.066666666666666,268.40746666666666,17.066666666666666,256.0c0.0-43.50293333333333,11.741866666666665-84.29226666666666,32.145066666666665-119.46666666666667
		c0.4096,1.1776,0.9898666666666667,2.295466666666667,1.92,3.2170666666666667l16.708266666666667,16.699733333333334c2.978133333333333,2.9866666666666664,7.671466666666666,3.345066666666667,11.076266666666667,0.8533333333333334l10.5472-7.7312
		c4.753066666666667-3.4816,10.606933333333334-4.2496,16.093866666666667-2.0906666666666665c5.4784,2.1504,9.258666666666667,6.698666666666667,10.376533333333333,12.492799999999999l2.372266666666667,12.313600000000001C119.08266666666667,176.29866666666666,122.59840000000001,179.2,126.68586666666667,179.2h23.628800000000002
		c4.215466666666667,0.0,7.790933333333333-3.072,8.430933333333334-7.236266666666666l1.3994666666666666-9.088c0.8959999999999999-5.8709333333333324,4.7104-10.717866666666666,10.188799999999999-12.979199999999999c5.4784-2.295466666666667,11.605333333333334-1.536,16.392533333333333,1.9712l7.415466666666666,5.435733333333333
		c3.396266666666667,2.4917333333333334,8.098133333333333,2.1333333333333333,11.076266666666667-0.8533333333333334l16.708266666666667-16.699733333333334c2.8928000000000003-2.8928000000000003,3.328-7.432533333333333,1.0325333333333333-10.820266666666667l-7.039999999999999-10.3936
		c-3.3024-4.881066666666666-3.8485333333333336-10.7776-1.4933333333333332-16.179199999999998c2.3552-5.393066666666667,7.039999999999999-9.002666666666666,12.859733333333333-9.890133333333333l12.927999999999999-1.9882666666666668C244.39466666666667,89.83893333333333,247.46666666666667,86.25493333333334,247.46666666666667,82.048v-23.637333333333334
		c0.0-4.087466666666667-2.9013333333333335-7.6117333333333335-6.929066666666667-8.379733333333332l-12.313600000000001-2.3637333333333337c-5.7856000000000005-1.1093333333333333-10.333866666666667-4.8896-12.484266666666667-10.376533333333333c-2.1504-5.4784-1.3909333333333334-11.349333333333334,2.082133333333333-16.085333333333335
		l0.8959999999999999-1.211733333333333C230.86933333333332,18.082133333333335,243.31946666666667,17.066666666666666,256.0,17.066666666666666c24.541866666666664,0.0,48.22186666666666,3.7290666666666668,70.528,10.632533333333333c-10.666666666666666,4.821333333333333-20.49706666666667,11.093333333333334-29.175466666666665,18.645333333333333l-6.357333333333333-6.357333333333333
		c-3.3365333333333336-3.3365333333333336-8.7296-3.3365333333333336-12.066133333333333,0.0s-3.3365333333333336,8.7296,0.0,12.066133333333333l6.417066666666667,6.417066666666667c-16.537599999999998,19.11466666666667-27.076266666666665,43.340799999999994-28.970666666666666,69.52106666666667H247.46666666666667c-4.7104,0.0-8.533333333333333,3.8144-8.533333333333333,8.533333333333333
		s3.8229333333333333,8.533333333333333,8.533333333333333,8.533333333333333h8.968533333333333c1.8858666666666666,26.5216,12.416,50.6368,28.8512,69.5808l-6.357333333333333,6.357333333333333c-3.3365333333333336,3.3365333333333336-3.3365333333333336,8.7296,0.0,12.066133333333333
		c1.664,1.664,3.8485333333333336,2.5002666666666666,6.033066666666667,2.5002666666666666s4.369066666666667-0.8362666666666667,6.033066666666667-2.5002666666666666l6.357333333333333-6.357333333333333c18.944000000000003,16.4352,43.06773333333333,26.965333333333334,69.5808,28.8512V264.5333333333333
		c0.0,4.718933333333334,3.8229333333333333,8.533333333333333,8.533333333333333,8.533333333333333s8.533333333333333-3.8144,8.533333333333333-8.533333333333333v-8.9088c26.180266666666668-1.8944,50.4064-12.433066666666667,69.52106666666667-28.970666666666666l6.417066666666667,6.417066666666667c1.664,1.664,3.8485333333333336,2.5002666666666666,6.033066666666667,2.5002666666666666
		s4.369066666666667-0.8362666666666667,6.033066666666667-2.5002666666666666c3.3365333333333336-3.3365333333333336,3.3365333333333336-8.7296,0.0-12.066133333333333l-6.357333333333333-6.357333333333333c7.552-8.6784,13.824-18.5088,18.653866666666666-29.175466666666665
		C491.2042666666667,207.77813333333333,494.93333333333334,231.4581333333333,494.93333333333334,256.0c0.0,2.2016-0.11093333333333333,4.3776-0.17066666666666666,6.570666666666667C493.84959999999995,258.7733333333333,490.53013333333337,256.0,486.5621333333333,256.0h-29.533866666666665
		c-4.087466666666667,0.0-7.6117333333333335,2.9013333333333335-8.379733333333332,6.929066666666667l-3.8229333333333333,19.891199999999998c-1.5018666666666665,7.7824-6.562133333333334,13.994666666666665-13.883733333333334,17.024c-7.313066666666667,3.029333333333333-15.291733333333333,2.2357333333333336-21.853866666666665-2.2272
		l-16.768-11.3664c-3.3792-2.295466666666667-7.927466666666667-1.8517333333333332-10.820266666666667,1.0325333333333333l-20.881066666666666,20.889599999999998c-2.978133333333333,2.978133333333333-3.3365333333333336,7.68-0.8533333333333334,11.0848l9.668266666666666,13.184
		c4.727466666666667,6.442666666666667,5.802666666666667,14.728533333333333,2.884266666666667,22.161066666666667s-9.344,12.7744-17.18613333333333,14.284799999999999l-15.402666666666667,2.9610666666666665C335.70133333333337,372.6165333333333,332.8,376.1322666666667,332.8,380.2282666666667v29.5424
		c0.0,4.206933333333334,3.072,7.790933333333333,7.236266666666666,8.430933333333334l16.162133333333333,2.4831999999999996c7.8933333333333335,1.2202666666666666,14.5152,6.306133333333333,17.7152,13.636266666666668c3.1914666666666665,7.313066666666667,2.423466666666666,15.641599999999999-2.0565333333333333,22.254933333333334
		l-8.746666666666666,12.910933333333332C330.86293333333333,485.72586666666666,294.4938666666667,494.93333333333334,256.0,494.93333333333334C243.59253333333334,494.93333333333334,231.3984,493.9776,219.4944,492.14293333333336z"/>
</g>
<g>
</g>
<g>
</g>
<g>
</g>
<g>
</g>
<g>
</g>
<g>
</g>
<g>
</g>
<g>
</g>
<g>
</g>
<g>
</g>
<g>
</g>
<g>
</g>
<g>
</g>
<g>
</g>
<g>
</g>
</svg>
