<?xml version="1.0" encoding="iso-8859-1"?>
<!-- Generator: Adobe Illustrator 19.0.0, SVG Export Plug-In . SVG Version: 6.00 Build 0)  -->
<svg version="1.1" id="Capa_1" xmlns="http://www.w3.org/2000/svg" xmlns:xlink="http://www.w3.org/1999/xlink" x="0px" y="0px"
	 viewBox="0 0 512 512" style="enable-background:new 0 0 60 60;" xml:space="preserve">
<g>
	<path d="M503.46666666666664,136.53333333333333H485.97333333333336c-1.8858666666666666-26.5216-12.416-50.6368-28.8512-69.5808l9.719466666666667-9.719466666666667c3.3365333333333336-3.3365333333333336,3.3365333333333336-8.7296,0.0-12.066133333333333s-8.7296-3.3365333333333336-12.066133333333333,0.0
		l-9.719466666666667,9.719466666666667c-18.944000000000003-16.4352-43.06773333333333-26.965333333333334-69.5808-28.8512V8.533333333333333c0.0-4.718933333333334-3.8229333333333333-8.533333333333333-8.533333333333333-8.533333333333333s-8.533333333333333,3.8144-8.533333333333333,8.533333333333333v17.50186666666667c-26.5216,1.8858666666666666-50.6368,12.416-69.5808,28.8512
		l-9.719466666666667-9.719466666666667c-3.3365333333333336-3.3365333333333336-8.7296-3.3365333333333336-12.066133333333333,0.0s-3.3365333333333336,8.7296,0.0,12.066133333333333l9.719466666666667,9.719466666666667c-16.4352,18.944000000000003-26.965333333333334,43.06773333333333-28.8512,69.5808H230.4
		c-4.7104,0.0-8.533333333333333,3.8144-8.533333333333333,8.533333333333333s3.8229333333333333,8.533333333333333,8.533333333333333,8.533333333333333h17.50186666666667c1.8858666666666666,26.5216,12.416,50.6368,28.8512,69.5808l-9.719466666666667,9.719466666666667c-0.9557333333333333,0.9557333333333333-1.5615999999999999,2.0991999999999997-1.9626666666666668,3.2938666666666667
		c-9.898666666666665-8.977066666666667-20.92373333333333-16.6912-32.90453333333333-22.869333333333334l6.0416-13.5936c1.9114666666666666-4.309333333333333-0.0256-9.352533333333334-4.334933333333334-11.264000000000001c-4.317866666666666-1.9029333333333334-9.344,0.034133333333333335-11.264000000000001,4.334933333333334
		l-6.050133333333333,13.610666666666667C199.61173333333332,199.9616,181.31626666666668,196.26666666666665,162.13333333333333,196.26666666666665c-16.622933333333332,0.0-32.59733333333333,2.7392-47.60746666666667,7.645866666666667l-4.1728-10.734933333333334c-1.7066666666666668-4.394666666666667-6.664533333333334-6.5792-11.042133333333334-4.855466666666667
		c-4.394666666666667,1.6981333333333335-6.570666666666667,6.647466666666666-4.864,11.042133333333334l4.1983999999999995,10.811733333333333c-31.488,14.370133333333333-57.25866666666666,39.00586666666666-73.05386666666666,69.67466666666665l-13.5936-6.0416
		c-4.309333333333333-1.9029333333333334-9.344,0.034133333333333335-11.264000000000001,4.334933333333334c-1.9114666666666666,4.309333333333333,0.0256,9.352533333333334,4.334933333333334,11.264000000000001l13.610666666666667,6.0416C12.228266666666666,312.3968,8.533333333333333,330.6922666666667,8.533333333333333,349.8666666666667
		c0.0,16.622933333333332,2.7392,32.60586666666667,7.645866666666667,47.60746666666667l-10.734933333333334,4.1728c-4.394666666666667,1.7066666666666668-6.570666666666667,6.647466666666666-4.864,11.042133333333334C1.8944,416.06826666666666,5.12,418.1333333333333,8.541866666666666,418.1333333333333
		c1.024,0.0,2.0736-0.1792,3.0890666666666666-0.5802666666666667l10.811733333333333-4.1983999999999995c14.370133333333333,31.488,39.00586666666666,57.2672,69.67466666666665,73.0624l-6.0416,13.5936
		c-1.9114666666666666,4.309333333333333,0.0256,9.352533333333334,4.334933333333334,11.264000000000001C91.52853333333334,511.76959999999997,92.70613333333334,512.0,93.86666666666666,512.0c3.268266666666667,0.0,6.391466666666666-1.8944,7.808-5.0687999999999995l6.050133333333333-13.610666666666667
		C124.66346666666666,499.78026666666665,142.95893333333333,503.46666666666664,162.13333333333333,503.46666666666664c16.622933333333332,0.0,32.59733333333333-2.7392,47.60746666666667-7.645866666666667l4.1728,10.734933333333334C215.22773333333333,509.93493333333333,218.45333333333335,512.0,221.86666666666667,512.0
		c1.0325333333333333,0.0,2.0736-0.1792,3.0890666666666666-0.5802666666666667c4.394666666666667-1.6981333333333335,6.570666666666667-6.647466666666666,4.864-11.042133333333334l-4.1983999999999995-10.811733333333333c31.488-14.370133333333333,57.25866666666666-39.00586666666666,73.05386666666666-69.67466666666665l13.5936,6.0416
		C313.3952,426.43626666666665,314.5728,426.6666666666667,315.73333333333335,426.6666666666667c3.268266666666667,0.0,6.391466666666666-1.8944,7.808-5.0687999999999995c1.9114666666666666-4.309333333333333-0.0256-9.352533333333334-4.334933333333334-11.264000000000001l-13.610666666666667-6.0416
		C312.0469333333333,387.3450666666667,315.73333333333335,369.0496,315.73333333333335,349.8666666666667c0.0-16.622933333333332-2.7392-32.60586666666667-7.645866666666667-47.60746666666667l10.734933333333334-4.1728c4.394666666666667-1.7066666666666668,6.570666666666667-6.647466666666666,4.864-11.042133333333334
		c-1.6981333333333335-4.394666666666667-6.613333333333333-6.587733333333333-11.042133333333334-4.855466666666667l-10.811733333333333,4.1983999999999995c-6.621866666666667-14.5152-15.4368-27.776-26.026666666666664-39.449600000000004c1.1946666666666668-0.4096,2.3381333333333334-1.0154666666666665,3.2938666666666667-1.9626666666666668
		l9.719466666666667-9.719466666666667c18.944000000000003,16.4352,43.06773333333333,26.965333333333334,69.5808,28.8512V281.6c0.0,4.718933333333334,3.8229333333333333,8.533333333333333,8.533333333333333,8.533333333333333s8.533333333333333-3.8144,8.533333333333333-8.533333333333333v-17.50186666666667c26.5216-1.8858666666666666,50.6368-12.416,69.5808-28.8512
		l10.222933333333334,10.222933333333334c1.664,1.664,3.8485333333333336,2.5002666666666666,6.033066666666667,2.5002666666666666s4.369066666666667-0.8362666666666667,6.033066666666667-2.5002666666666666c3.3365333333333336-3.3365333333333336,3.3365333333333336-8.7296,0.0-12.066133333333333l-10.222933333333334-10.222933333333334
		c16.4352-18.944000000000003,26.965333333333334-43.06773333333333,28.8512-69.5808H503.46666666666664c4.7104,0.0,8.533333333333333-3.8144,8.533333333333333-8.533333333333333S508.18559999999997,136.53333333333333,503.46666666666664,136.53333333333333z M162.13333333333333,213.33333333333334c16.7168,0.0,32.6656,3.1658666666666666,47.488,8.686933333333334l-41.89866666666667,94.27626666666667
		C165.8965333333333,315.99786666666665,164.0448,315.73333333333335,162.13333333333333,315.73333333333335c-18.82453333333333,0.0-34.13333333333333,15.3088-34.13333333333333,34.13333333333333c0.0,1.3568,0.24746666666666667,2.6453333333333333,0.4010666666666667,3.968l-96.33279999999999,37.46133333333333C27.895466666666668,378.22293333333334,25.6,364.31359999999995,25.6,349.8666666666667
		C25.6,274.5856,86.85226666666668,213.33333333333334,162.13333333333333,213.33333333333334z M146.29546666666664,356.11306666666667c-0.008533333333333334-0.0256,0.0-0.0512-0.017066666666666667-0.0768c-0.008533333333333334-0.008533333333333334-0.017066666666666667-0.017066666666666667-0.0256-0.034133333333333335
		C145.51893333333334,354.09066666666666,145.06666666666666,352.03413333333333,145.06666666666666,349.8666666666667c0.0-9.412266666666666,7.6544-17.066666666666666,17.066666666666666-17.066666666666666c2.3808000000000002,0.0,4.642133333333334,0.49493333333333334,6.7072,1.3824c0.0768,0.034133333333333335,0.128,0.11093333333333333,0.2048,0.14506666666666668
		c0.034133333333333335,0.017066666666666667,0.06826666666666667,0.008533333333333334,0.1024,0.017066666666666667C175.06133333333332,337.03253333333333,179.2,342.96320000000003,179.2,349.8666666666667c0.0,9.412266666666666-7.6544,17.066666666666666-17.066666666666666,17.066666666666666C154.9312,366.93333333333334,148.79573333333335,362.43626666666665,146.29546666666664,356.11306666666667z
		 M38.3744,407.15093333333334l96.14506666666666-37.39306666666666C140.7232,378.35093333333333,150.75840000000002,384.0,162.13333333333333,384.0c1.3568,0.0,2.6453333333333333-0.24746666666666667,3.968-0.4010666666666667l37.46133333333333,96.33279999999999
		C190.4896,484.10453333333334,176.5802666666667,486.4,162.13333333333333,486.4C107.32373333333334,486.4,60.083200000000005,453.8624,38.3744,407.15093333333334z M219.42613333333333,473.6341333333333l-37.39306666666666-96.14506666666666C190.6176,371.2768,196.26666666666665,361.25013333333334,196.26666666666665,349.8666666666667
		c0.0-10.794666666666666-5.137066666666667-20.317866666666664-12.979199999999999-26.581333333333333l41.94986666666667-94.37866666666667C268.8170666666667,251.74186666666668,298.6666666666667,297.3525333333333,298.6666666666667,349.8666666666667C298.6666666666667,404.67626666666666,266.13759999999996,451.9168,219.42613333333333,473.6341333333333z M366.93333333333334,247.46666666666667
		c-56.465066666666665,0.0-102.4-45.93493333333333-102.4-102.4S310.4768,42.666666666666664,366.93333333333334,42.666666666666664s102.4,45.93493333333333,102.4,102.4S423.3984,247.46666666666667,366.93333333333334,247.46666666666667z"/>
	<path d="M366.93333333333334,110.93333333333334c-18.82453333333333,0.0-34.13333333333333,15.3088-34.13333333333333,34.13333333333333s15.3088,34.13333333333333,34.13333333333333,34.13333333333333s34.13333333333333-15.3088,34.13333333333333-34.13333333333333S385.7578666666667,110.93333333333334,366.93333333333334,110.93333333333334z M366.93333333333334,162.13333333333333c-9.412266666666666,0.0-17.066666666666666-7.6544-17.066666666666666-17.066666666666666s7.6544-17.066666666666666,17.066666666666666-17.066666666666666
		s17.066666666666666,7.6544,17.066666666666666,17.066666666666666S376.3456,162.13333333333333,366.93333333333334,162.13333333333333z"/>
</g>
<g>
</g>
<g>
</g>
<g>
</g>
<g>
</g>
<g>
</g>
<g>
</g>
<g>
</g>
<g>
</g>
<g>
</g>
<g>
</g>
<g>
</g>
<g>
</g>
<g>
</g>
<g>
</g>
<g>
</g>
</svg>
