<?xml version="1.0" encoding="iso-8859-1"?>
<!-- Generator: Adobe Illustrator 19.0.0, SVG Export Plug-In . SVG Version: 6.00 Build 0)  -->
<svg version="1.1" id="Capa_1" xmlns="http://www.w3.org/2000/svg" xmlns:xlink="http://www.w3.org/1999/xlink" x="0px" y="0px"
	 viewBox="0 0 512 512" style="enable-background:new 0 0 54 54;" xml:space="preserve">
<g>
	<path d="M485.64148148148143,199.1111111111111h-47.90044444444444c-7.6989629629629635,0.0-14.042074074074074-4.238222222222222-16.990814814814815-11.349333333333334s-1.4506666666666665-14.60148148148148,3.9822222222222217-20.04385185185185l33.86785185185185-33.85837037037037
		c4.977777777777778-4.977777777777778,7.717925925925925-11.605333333333332,7.717925925925925-18.64059259259259c0.0-7.04474074074074-2.740148148148148-13.662814814814814-7.717925925925925-18.650074074074073l-43.169185185185185-43.169185185185185c-9.955555555555556-9.955555555555556-27.316148148148145-9.974518518518519-37.29066666666666,0.0l-33.85837037037037,33.85837037037037
		c-5.442370370370369,5.432888888888888-12.951703703703703,6.949925925925926-20.04385185185185,3.9917037037037035C317.1271111111111,88.30103703703703,312.88888888888886,81.95792592592592,312.88888888888886,74.25896296296295V26.358518518518515C312.88888888888886,11.823407407407407,301.06548148148147,0.0,286.53037037037035,0.0H225.46962962962962
		C210.9345185185185,0.0,199.1111111111111,11.823407407407407,199.1111111111111,26.358518518518515v47.90044444444444c0.0,7.6989629629629635-4.238222222222222,14.042074074074074-11.349333333333334,16.990814814814815c-7.092148148148148,2.9677037037037035-14.60148148148148,1.4411851851851851-20.04385185185185-3.9917037037037035l-33.85837037037037-33.85837037037037
		c-9.974518518518519-9.974518518518519-27.33511111111111-9.955555555555556-37.29066666666666,0.0l-43.169185185185185,43.169185185185185c-4.977777777777778,4.977777777777778-7.717925925925925,11.605333333333332-7.717925925925925,18.650074074074073c0.0,7.035259259259258,2.740148148148148,13.653333333333332,7.717925925925925,18.64059259259259l33.86785185185185,33.85837037037037
		c5.432888888888888,5.442370370370369,6.921481481481481,12.93274074074074,3.9822222222222217,20.04385185185185S81.95792592592592,199.1111111111111,74.25896296296295,199.1111111111111H26.358518518518515C11.823407407407407,199.1111111111111,0.0,210.9345185185185,0.0,225.46962962962962v61.051259259259254C0.0,301.06548148148147,11.823407407407407,312.88888888888886,26.358518518518515,312.88888888888886h47.90044444444444
		c7.6989629629629635,0.0,14.042074074074074,4.238222222222222,16.990814814814815,11.349333333333334s1.4506666666666665,14.60148148148148-3.9822222222222217,20.04385185185185l-33.86785185185185,33.85837037037037c-4.977777777777778,4.977777777777778-7.717925925925925,11.605333333333332-7.717925925925925,18.64059259259259
		c0.0,7.04474074074074,2.740148148148148,13.662814814814814,7.717925925925925,18.650074074074073l43.169185185185185,43.169185185185185c9.965037037037035,9.965037037037035,27.316148148148145,9.983999999999998,37.29066666666666,0.0l33.85837037037037-33.86785185185185c5.442370370370369-5.432888888888888,12.92325925925926-6.930962962962963,20.04385185185185-3.9822222222222217
		c7.111111111111111,2.9487407407407407,11.349333333333334,9.29185185185185,11.349333333333334,16.990814814814815v47.90044444444444c0.0,14.53511111111111,11.823407407407407,26.358518518518515,26.358518518518515,26.358518518518515h61.051259259259254c14.53511111111111,0.0,26.358518518518515-11.823407407407407,26.358518518518515-26.358518518518515v-47.90044444444444
		c0.0-7.6989629629629635,4.238222222222222-14.042074074074074,11.349333333333334-16.990814814814815c7.120592592592592-2.958222222222222,14.60148148148148-1.4506666666666665,20.04385185185185,3.9822222222222217l33.85837037037037,33.86785185185185c9.974518518518519,9.974518518518519,27.33511111111111,9.955555555555556,37.29066666666666,0.0l43.169185185185185-43.169185185185185
		c4.977777777777778-4.977777777777778,7.717925925925925-11.605333333333332,7.717925925925925-18.650074074074073c0.0-7.035259259259258-2.740148148148148-13.653333333333332-7.717925925925925-18.64059259259259l-33.86785185185185-33.85837037037037c-5.432888888888888-5.442370370370369-6.921481481481481-12.93274074074074-3.9822222222222217-20.04385185185185
		S430.0420740740741,312.88888888888886,437.741037037037,312.88888888888886h47.90044444444444c14.53511111111111,0.0,26.358518518518515-11.823407407407407,26.358518518518515-26.358518518518515V225.46962962962962C512.0,210.9345185185185,500.17659259259256,199.1111111111111,485.64148148148143,199.1111111111111z M493.037037037037,286.53037037037035
		C493.037037037037,290.6074074074074,489.71851851851847,293.9259259259259,485.64148148148143,293.9259259259259h-47.90044444444444c-15.397925925925927,0.0-28.62459259259259,8.83674074074074-34.51259259259259,23.058962962962962c-5.897481481481481,14.222222222222221-2.7970370370370365,29.828740740740738,8.097185185185184,40.71348148148147l33.86785185185185,33.85837037037037
		c2.8918518518518517,2.8918518518518517,2.8918518518518517,7.5851851851851855,0.0,10.467555555555556l-43.169185185185185,43.169185185185185c-2.8823703703703702,2.8823703703703702-7.575703703703704,2.901333333333333-10.467555555555556,0.0l-33.85837037037037-33.86785185185185c-10.894222222222222-10.894222222222222-26.49125925925926-13.975703703703703-40.71348148148147-8.097185185185184
		c-14.222222222222221,5.888-23.058962962962962,19.114666666666665-23.058962962962962,34.51259259259259v47.90044444444444C293.9259259259259,489.71851851851847,290.6074074074074,493.037037037037,286.53037037037035,493.037037037037H225.46962962962962C221.3925925925926,493.037037037037,218.07407407407408,489.71851851851847,218.07407407407408,485.64148148148143v-47.90044444444444
		c0.0-15.397925925925927-8.83674074074074-28.62459259259259-23.058962962962962-34.51259259259259c-4.769185185185185-1.9816296296296294-9.68059259259259-2.9487407407407407-14.53511111111111-2.9487407407407407c-9.614222222222223,0.0-18.93451851851852,3.7925925925925927-26.17837037037037,11.036444444444443l-33.85837037037037,33.86785185185185
		c-2.901333333333333,2.901333333333333-7.594666666666667,2.8823703703703702-10.467555555555556,0.0l-43.169185185185185-43.169185185185185c-2.8918518518518517-2.8918518518518517-2.8918518518518517-7.5851851851851855,0.0-10.467555555555556l33.86785185185185-33.85837037037037c10.884740740740739-10.884740740740739,13.994666666666665-26.49125925925926,8.097185185185184-40.71348148148147
		C102.88355555555556,302.76266666666663,89.65688888888889,293.9259259259259,74.25896296296295,293.9259259259259H26.358518518518515C22.28148148148148,293.9259259259259,18.962962962962962,290.6074074074074,18.962962962962962,286.53037037037035V225.46962962962962C18.962962962962962,221.3925925925926,22.28148148148148,218.07407407407408,26.358518518518515,218.07407407407408h47.90044444444444
		c15.397925925925927,0.0,28.62459259259259-8.83674074074074,34.51259259259259-23.058962962962962c5.897481481481481-14.222222222222221,2.7970370370370365-29.828740740740738-8.097185185185184-40.71348148148147l-33.86785185185185-33.85837037037037c-2.8918518518518517-2.8918518518518517-2.8918518518518517-7.5851851851851855,0.0-10.467555555555556l43.169185185185185-43.169185185185185
		c2.8823703703703702-2.8918518518518517,7.575703703703704-2.8918518518518517,10.467555555555556,0.0l33.85837037037037,33.85837037037037c10.87525925925926,10.87525925925926,26.472296296296292,13.994666666666665,40.71348148148147,8.097185185185184C209.23733333333334,102.88355555555556,218.07407407407408,89.65688888888889,218.07407407407408,74.25896296296295V26.358518518518515
		C218.07407407407408,22.28148148148148,221.3925925925926,18.962962962962962,225.46962962962962,18.962962962962962h61.051259259259254C290.6074074074074,18.962962962962962,293.9259259259259,22.28148148148148,293.9259259259259,26.358518518518515v47.90044444444444c0.0,15.397925925925927,8.83674074074074,28.62459259259259,23.058962962962962,34.51259259259259
		c14.241185185185184,5.897481481481481,29.828740740740738,2.787555555555555,40.71348148148147-8.097185185185184l33.85837037037037-33.85837037037037c2.901333333333333-2.8918518518518517,7.594666666666667-2.8918518518518517,10.467555555555556,0.0l43.169185185185185,43.169185185185185c2.8918518518518517,2.8918518518518517,2.8918518518518517,7.5851851851851855,0.0,10.467555555555556
		l-33.86785185185185,33.85837037037037c-10.884740740740739,10.884740740740739-13.994666666666665,26.49125925925926-8.097185185185184,40.71348148148147c5.888,14.222222222222221,19.114666666666665,23.058962962962962,34.51259259259259,23.058962962962962h47.90044444444444C489.71851851851847,218.07407407407408,493.037037037037,221.3925925925926,493.037037037037,225.46962962962962V286.53037037037035z"/>
	<path d="M256.0,170.66666666666666c-47.056592592592594,0.0-85.33333333333333,38.276740740740735-85.33333333333333,85.33333333333333s38.276740740740735,85.33333333333333,85.33333333333333,85.33333333333333s85.33333333333333-38.276740740740735,85.33333333333333-85.33333333333333S303.0565925925926,170.66666666666666,256.0,170.66666666666666z M256.0,322.3703703703703c-36.58903703703704,0.0-66.37037037037037-29.781333333333333-66.37037037037037-66.37037037037037s29.781333333333333-66.37037037037037,66.37037037037037-66.37037037037037
		s66.37037037037037,29.781333333333333,66.37037037037037,66.37037037037037S292.58903703703703,322.3703703703703,256.0,322.3703703703703z"/>
</g>
<g>
</g>
<g>
</g>
<g>
</g>
<g>
</g>
<g>
</g>
<g>
</g>
<g>
</g>
<g>
</g>
<g>
</g>
<g>
</g>
<g>
</g>
<g>
</g>
<g>
</g>
<g>
</g>
<g>
</g>
</svg>
