<?xml version="1.0" encoding="iso-8859-1"?>
<!-- Generator: Adobe Illustrator 19.0.0, SVG Export Plug-In . SVG Version: 6.00 Build 0)  -->
<svg version="1.1" id="Capa_1" xmlns="http://www.w3.org/2000/svg" xmlns:xlink="http://www.w3.org/1999/xlink" x="0px" y="0px"
	 viewBox="0 0 512 512" style="enable-background:new 0 0 57.88 57.88;" xml:space="preserve">
<path d="M508.3643400138217,132.8387007601935L419.1535590877678,52.54457498272288H229.99308914996544v-35.38355217691776c0.0-4.89177608845888-3.9629578438147894-8.84588804422944-8.84588804422944-8.84588804422944s-8.84588804422944,3.9541119557705597-8.84588804422944,8.84588804422944v35.38355217691776H0.0v176.9177608845888h212.30131306150656v265.3766413268832c0.0,4.89177608845888,3.9629578438147894,8.84588804422944,8.84588804422944,8.84588804422944s8.84588804422944-3.9541119557705597,8.84588804422944-8.84588804422944v-265.3766413268832
	h189.16046993780236l89.19308914996545-80.27643400138216c2.326468555632343-2.078783690393918,3.6533517622667584-5.05984796129924,3.6533517622667584-8.182446440912232S510.6731167933655,134.9086385625432,508.3643400138217,132.8387007601935z M412.35991706979956,211.7705597788528H17.69177608845888v-141.53420870767104h394.6681409813407l78.63109882515549,70.76710435383552
	L412.35991706979956,211.7705597788528z"/>
<g>
</g>
<g>
</g>
<g>
</g>
<g>
</g>
<g>
</g>
<g>
</g>
<g>
</g>
<g>
</g>
<g>
</g>
<g>
</g>
<g>
</g>
<g>
</g>
<g>
</g>
<g>
</g>
<g>
</g>
</svg>
