<?xml version="1.0" encoding="iso-8859-1"?>
<!-- Generator: Adobe Illustrator 19.0.0, SVG Export Plug-In . SVG Version: 6.00 Build 0)  -->
<svg version="1.1" id="Capa_1" xmlns="http://www.w3.org/2000/svg" xmlns:xlink="http://www.w3.org/1999/xlink" x="0px" y="0px"
	 viewBox="0 0 512 512" style="enable-background:new 0 0 60 60;" xml:space="preserve">
<g>
	<path d="M302.94186666666667,264.4906666666667c-4.7104,0.0-8.533333333333333,3.8144-8.533333333333333,8.533333333333333V392.5333333333333h-256.0V68.26666666666667h256.0v119.44959999999999c0.0,4.718933333333334,3.8229333333333333,8.533333333333333,8.533333333333333,8.533333333333333s8.533333333333333-3.8144,8.533333333333333-8.533333333333333V37.589333333333336
		C311.4752,16.8704,294.61333333333334,0.0,273.8773333333333,0.0H58.9312C38.20373333333333,0.0,21.341866666666665,16.8704,21.341866666666665,37.589333333333336v436.8128C21.341866666666665,495.12960000000004,38.20373333333333,512.0,58.9312,512.0h214.94613333333334
		c20.727466666666665,0.0,37.589333333333336-16.8704,37.589333333333336-37.589333333333336v-201.38666666666668C311.4752,268.3050666666667,307.65226666666666,264.4906666666667,302.94186666666667,264.4906666666667z M58.9312,17.066666666666666h214.94613333333334
		c11.3152,0.0,20.522666666666666,9.207466666666667,20.522666666666666,20.522666666666666V51.2h-256.0V37.589333333333336C38.40853333333334,26.274133333333335,47.616,17.066666666666666,58.9312,17.066666666666666z M273.8773333333333,494.93333333333334H58.9312c-11.3152,0.0-20.522666666666666-9.207466666666667-20.522666666666666-20.522666666666666V409.6
		h256.0v64.81066666666666C294.4085333333333,485.72586666666666,285.20106666666663,494.93333333333334,273.8773333333333,494.93333333333334z"/>
	<path d="M166.40853333333334,418.1333333333333c-18.82453333333333,0.0-34.13333333333333,15.3088-34.13333333333333,34.13333333333333s15.3088,34.13333333333333,34.13333333333333,34.13333333333333s34.13333333333333-15.3088,34.13333333333333-34.13333333333333S185.22453333333334,418.1333333333333,166.40853333333334,418.1333333333333z M166.40853333333334,469.3333333333333c-9.412266666666666,0.0-17.066666666666666-7.6544-17.066666666666666-17.066666666666666
		s7.6544-17.066666666666666,17.066666666666666-17.066666666666666s17.066666666666666,7.6544,17.066666666666666,17.066666666666666S175.8208,469.3333333333333,166.40853333333334,469.3333333333333z"/>
	<path d="M132.27519999999998,42.666666666666664h34.13333333333333c4.7104,0.0,8.533333333333333-3.8144,8.533333333333333-8.533333333333333s-3.8229333333333333-8.533333333333333-8.533333333333333-8.533333333333333h-34.13333333333333c-4.7104,0.0-8.533333333333333,3.8144-8.533333333333333,8.533333333333333S127.55626666666667,42.666666666666664,132.27519999999998,42.666666666666664z"/>
	<path d="M192.00853333333333,42.666666666666664h8.533333333333333c4.7104,0.0,8.533333333333333-3.8144,8.533333333333333-8.533333333333333s-3.8229333333333333-8.533333333333333-8.533333333333333-8.533333333333333h-8.533333333333333c-4.7104,0.0-8.533333333333333,3.8144-8.533333333333333,8.533333333333333S187.2896,42.666666666666664,192.00853333333333,42.666666666666664z"/>
	<path d="M490.0181333333333,233.65973333333335c0.8618666666666667-2.082133333333333,0.8618666666666667-4.437333333333333,0.0-6.519466666666666c-0.4352-1.0495999999999999-1.0666666666666667-1.9968000000000001-1.8517333333333332-2.7904L385.7749333333333,121.96693333333333
		c-3.3365333333333336-3.3365333333333336-8.7296-3.3365333333333336-12.066133333333333,0.0s-3.3365333333333336,8.7296,0.0,12.066133333333333L461.54240000000004,221.86666666666667H157.8752c-4.7104,0.0-8.533333333333333,3.8144-8.533333333333333,8.533333333333333s3.8229333333333333,8.533333333333333,8.533333333333333,8.533333333333333h303.6672L373.7088,326.7669333333333
		c-3.3365333333333336,3.3365333333333336-3.3365333333333336,8.7296,0.0,12.066133333333333C375.3728,340.4970666666667,377.5573333333333,341.3333333333333,379.7418666666666,341.3333333333333s4.369066666666667-0.8362666666666667,6.033066666666667-2.5002666666666666l102.39146666666667-102.39146666666667
		C488.95146666666665,235.65653333333333,489.5829333333333,234.70933333333332,490.0181333333333,233.65973333333335z"/>
</g>
<g>
</g>
<g>
</g>
<g>
</g>
<g>
</g>
<g>
</g>
<g>
</g>
<g>
</g>
<g>
</g>
<g>
</g>
<g>
</g>
<g>
</g>
<g>
</g>
<g>
</g>
<g>
</g>
<g>
</g>
</svg>
