<?xml version="1.0" encoding="iso-8859-1"?>
<!-- Generator: Adobe Illustrator 19.0.0, SVG Export Plug-In . SVG Version: 6.00 Build 0)  -->
<svg version="1.1" id="Capa_1" xmlns="http://www.w3.org/2000/svg" xmlns:xlink="http://www.w3.org/1999/xlink" x="0px" y="0px"
	 viewBox="0 0 512 512" style="enable-background:new 0 0 60 60;" xml:space="preserve">
<g>
	<path d="M363.4773333333333,0.0H148.52266666666668C127.80373333333334,0.0,110.93333333333334,16.8704,110.93333333333334,37.589333333333336v436.8128C110.93333333333334,495.12960000000004,127.80373333333334,512.0,148.52266666666668,512.0h214.94613333333334C384.1962666666667,512.0,401.06666666666666,495.12960000000004,401.06666666666666,474.41066666666666
		V37.589333333333336C401.06666666666666,16.8704,384.1962666666667,0.0,363.4773333333333,0.0z M128.0,68.26666666666667h256.0v324.26666666666665H128.0V68.26666666666667z M148.52266666666668,17.066666666666666h214.94613333333334C374.7925333333333,17.066666666666666,384.0,26.274133333333335,384.0,37.589333333333336V51.2H128.0V37.589333333333336
		C128.0,26.274133333333335,137.20746666666668,17.066666666666666,148.52266666666668,17.066666666666666z M363.4773333333333,494.93333333333334H148.52266666666668C137.20746666666668,494.93333333333334,128.0,485.72586666666666,128.0,474.41066666666666V409.6h256.0v64.81066666666666C384.0,485.72586666666666,374.7925333333333,494.93333333333334,363.4773333333333,494.93333333333334z"/>
	<path d="M256.0,418.1333333333333c-18.82453333333333,0.0-34.13333333333333,15.3088-34.13333333333333,34.13333333333333s15.3088,34.13333333333333,34.13333333333333,34.13333333333333s34.13333333333333-15.3088,34.13333333333333-34.13333333333333S274.82453333333336,418.1333333333333,256.0,418.1333333333333z M256.0,469.3333333333333c-9.412266666666666,0.0-17.066666666666666-7.6544-17.066666666666666-17.066666666666666s7.6544-17.066666666666666,17.066666666666666-17.066666666666666
		s17.066666666666666,7.6544,17.066666666666666,17.066666666666666S265.41226666666665,469.3333333333333,256.0,469.3333333333333z"/>
	<path d="M221.86666666666667,42.666666666666664h34.13333333333333c4.718933333333334,0.0,8.533333333333333-3.8144,8.533333333333333-8.533333333333333s-3.8144-8.533333333333333-8.533333333333333-8.533333333333333h-34.13333333333333c-4.718933333333334,0.0-8.533333333333333,3.8144-8.533333333333333,8.533333333333333S217.14773333333332,42.666666666666664,221.86666666666667,42.666666666666664z"/>
	<path d="M281.6,42.666666666666664h8.533333333333333c4.718933333333334,0.0,8.533333333333333-3.8144,8.533333333333333-8.533333333333333s-3.8144-8.533333333333333-8.533333333333333-8.533333333333333h-8.533333333333333c-4.718933333333334,0.0-8.533333333333333,3.8144-8.533333333333333,8.533333333333333S276.8810666666667,42.666666666666664,281.6,42.666666666666664z"/>
	<path d="M483.08906666666667,38.9888c-3.3365333333333336-3.3365333333333336-8.7296-3.3365333333333336-12.066133333333333,0.0s-3.3365333333333336,8.7296,0.0,12.066133333333333c31.880533333333336,31.880533333333336,31.880533333333336,83.75466666666667,0.0,115.64373333333333
		c-3.3365333333333336,3.3365333333333336-3.3365333333333336,8.7296,0.0,12.066133333333333c1.664,1.664,3.8485333333333336,2.5002666666666666,6.033066666666667,2.5002666666666666s4.369066666666667-0.8362666666666667,6.033066666666667-2.5002666666666666
		C521.6256,140.23680000000002,521.6256,77.52533333333334,483.08906666666667,38.9888z"/>
	<path d="M447.15520000000004,58.410666666666664c-3.3365333333333336-3.3365333333333336-8.7296-3.3365333333333336-12.066133333333333,0.0s-3.3365333333333336,8.7296,0.0,12.066133333333333c10.555733333333334,10.555733333333334,16.366933333333332,24.618666666666666,16.366933333333332,39.586133333333336
		s-5.8112,29.021866666666664-16.366933333333332,39.5776c-3.3365333333333336,3.3365333333333336-3.3365333333333336,8.7296,0.0,12.066133333333333c1.664,1.664,3.8485333333333336,2.5002666666666666,6.033066666666667,2.5002666666666666s4.369066666666667-0.8362666666666667,6.033066666666667-2.5002666666666666
		c13.781333333333333-13.7728,21.367466666666665-32.11946666666667,21.367466666666665-51.64373333333333S460.94506666666666,72.18346666666666,447.15520000000004,58.410666666666664z"/>
	<path d="M40.977066666666666,51.05493333333333c3.3365333333333336-3.3365333333333336,3.3365333333333336-8.7296,0.0-12.066133333333333s-8.7296-3.3365333333333336-12.066133333333333,0.0c-38.53653333333333,38.53653333333333-38.53653333333333,101.23946666666667,0.0,139.77599999999998
		c1.664,1.664,3.8485333333333336,2.5002666666666666,6.033066666666667,2.5002666666666666s4.369066666666667-0.8362666666666667,6.033066666666667-2.5002666666666666c3.3365333333333336-3.3365333333333336,3.3365333333333336-8.7296,0.0-12.066133333333333
		C9.088,134.81813333333332,9.088,82.944,40.977066666666666,51.05493333333333z"/>
	<path d="M76.91093333333333,56.05546666666667c-3.3365333333333336-3.3365333333333336-8.7296-3.3365333333333336-12.066133333333333,0.0c-13.781333333333333,13.7728-21.367466666666665,32.11946666666667-21.367466666666665,51.64373333333333s7.586133333333334,37.87093333333333,21.367466666666665,51.65226666666666
		c1.664,1.664,3.8485333333333336,2.5002666666666666,6.033066666666667,2.5002666666666666s4.369066666666667-0.8362666666666667,6.033066666666667-2.5002666666666666c3.3365333333333336-3.3365333333333336,3.3365333333333336-8.7296,0.0-12.066133333333333
		c-10.555733333333334-10.555733333333334-16.366933333333332-24.618666666666666-16.366933333333332-39.586133333333336S66.34666666666666,78.67733333333334,76.91093333333333,68.1216C80.23893333333334,64.7936,80.23893333333334,59.391999999999996,76.91093333333333,56.05546666666667z"/>
</g>
<g>
</g>
<g>
</g>
<g>
</g>
<g>
</g>
<g>
</g>
<g>
</g>
<g>
</g>
<g>
</g>
<g>
</g>
<g>
</g>
<g>
</g>
<g>
</g>
<g>
</g>
<g>
</g>
<g>
</g>
</svg>
