<?xml version="1.0" encoding="iso-8859-1"?>
<!-- Generator: Adobe Illustrator 19.0.0, SVG Export Plug-In . SVG Version: 6.00 Build 0)  -->
<svg version="1.1" id="Capa_1" xmlns="http://www.w3.org/2000/svg" xmlns:xlink="http://www.w3.org/1999/xlink" x="0px" y="0px"
	 viewBox="0 0 512 512" style="enable-background:new 0 0 60 60;" xml:space="preserve">
<g>
	<path d="M363.4773333333333,0.0H148.52266666666668C127.80373333333334,0.0,110.93333333333334,16.8704,110.93333333333334,37.589333333333336v436.8128C110.93333333333334,495.12960000000004,127.80373333333334,512.0,148.52266666666668,512.0h214.94613333333334C384.1962666666667,512.0,401.06666666666666,495.12960000000004,401.06666666666666,474.41066666666666
		V37.589333333333336C401.06666666666666,16.8704,384.1962666666667,0.0,363.4773333333333,0.0z M128.0,68.26666666666667h256.0v324.26666666666665H128.0V68.26666666666667z M148.52266666666668,17.066666666666666h214.94613333333334C374.7925333333333,17.066666666666666,384.0,26.274133333333335,384.0,37.589333333333336V51.2H128.0V37.589333333333336
		C128.0,26.274133333333335,137.20746666666668,17.066666666666666,148.52266666666668,17.066666666666666z M363.4773333333333,494.93333333333334H148.52266666666668C137.20746666666668,494.93333333333334,128.0,485.72586666666666,128.0,474.41066666666666V409.6h256.0v64.81066666666666C384.0,485.72586666666666,374.7925333333333,494.93333333333334,363.4773333333333,494.93333333333334z"/>
	<path d="M256.0,418.1333333333333c-18.82453333333333,0.0-34.13333333333333,15.3088-34.13333333333333,34.13333333333333s15.3088,34.13333333333333,34.13333333333333,34.13333333333333s34.13333333333333-15.3088,34.13333333333333-34.13333333333333S274.82453333333336,418.1333333333333,256.0,418.1333333333333z M256.0,469.3333333333333c-9.412266666666666,0.0-17.066666666666666-7.6544-17.066666666666666-17.066666666666666s7.6544-17.066666666666666,17.066666666666666-17.066666666666666
		s17.066666666666666,7.6544,17.066666666666666,17.066666666666666S265.41226666666665,469.3333333333333,256.0,469.3333333333333z"/>
	<path d="M221.86666666666667,42.666666666666664h34.13333333333333c4.718933333333334,0.0,8.533333333333333-3.8144,8.533333333333333-8.533333333333333s-3.8144-8.533333333333333-8.533333333333333-8.533333333333333h-34.13333333333333c-4.718933333333334,0.0-8.533333333333333,3.8144-8.533333333333333,8.533333333333333S217.14773333333332,42.666666666666664,221.86666666666667,42.666666666666664z"/>
	<path d="M281.6,42.666666666666664h8.533333333333333c4.718933333333334,0.0,8.533333333333333-3.8144,8.533333333333333-8.533333333333333s-3.8144-8.533333333333333-8.533333333333333-8.533333333333333h-8.533333333333333c-4.718933333333334,0.0-8.533333333333333,3.8144-8.533333333333333,8.533333333333333S276.8810666666667,42.666666666666664,281.6,42.666666666666664z"/>
	<path d="M324.26666666666665,179.2c23.526400000000002,0.0,42.666666666666664-19.140266666666665,42.666666666666664-42.666666666666664s-19.140266666666665-42.666666666666664-42.666666666666664-42.666666666666664H187.73333333333332c-23.526400000000002,0.0-42.666666666666664,19.140266666666665-42.666666666666664,42.666666666666664v88.86613333333332L191.26613333333336,179.2H324.26666666666665z M162.13333333333333,184.2005333333333V136.53333333333333c0.0-14.114133333333333,11.485866666666666-25.6,25.6-25.6
		h136.53333333333333c14.114133333333333,0.0,25.6,11.485866666666666,25.6,25.6s-11.485866666666666,25.6-25.6,25.6H184.2005333333333L162.13333333333333,184.2005333333333z"/>
	<path d="M324.26666666666665,238.93333333333334H187.73333333333332c-23.526400000000002,0.0-42.666666666666664,19.140266666666665-42.666666666666664,42.666666666666664s19.140266666666665,42.666666666666664,42.666666666666664,42.666666666666664h133.00053333333332L366.93333333333334,370.46613333333335V281.6C366.93333333333334,258.0736,347.7930666666666,238.93333333333334,324.26666666666665,238.93333333333334z M349.8666666666667,329.2672L327.79946666666666,307.2H187.73333333333332
		c-14.114133333333333,0.0-25.6-11.485866666666666-25.6-25.6s11.485866666666666-25.6,25.6-25.6h136.53333333333333c14.114133333333333,0.0,25.6,11.485866666666666,25.6,25.6V329.2672z"/>
</g>
<g>
</g>
<g>
</g>
<g>
</g>
<g>
</g>
<g>
</g>
<g>
</g>
<g>
</g>
<g>
</g>
<g>
</g>
<g>
</g>
<g>
</g>
<g>
</g>
<g>
</g>
<g>
</g>
<g>
</g>
</svg>
