<?xml version="1.0" encoding="iso-8859-1"?>
<!-- Generator: Adobe Illustrator 19.0.0, SVG Export Plug-In . SVG Version: 6.00 Build 0)  -->
<svg version="1.1" id="Capa_1" xmlns="http://www.w3.org/2000/svg" xmlns:xlink="http://www.w3.org/1999/xlink" x="0px" y="0px"
	 viewBox="0 0 512 512" style="enable-background:new 0 0 60 60;" xml:space="preserve">
<g>
	<path d="M345.07093333333336,63.257600000000004c-8.3456-4.7872-18.278399999999998-4.718933333333334-26.581333333333333,0.16213333333333332c-0.5376,0.3157333333333333-1.0325333333333333,0.6912-1.4848,1.1178666666666668L203.99786666666665,169.7365333333333
		C202.71786666666668,170.35093333333333,201.32693333333333,170.66666666666666,199.91039999999998,170.66666666666666h-71.03146666666666C114.27839999999999,170.66666666666666,102.4,182.55360000000002,102.4,197.15413333333333v109.16693333333332C102.4,320.9130666666667,114.27839999999999,332.8,128.88746666666665,332.8h71.03146666666666
		c1.4165333333333334,0.0,2.8074666666666666,0.3157333333333333,4.087466666666667,0.9301333333333334l112.9984,105.19893333333333c0.45226666666666665,0.4266666666666667,0.9557333333333333,0.8021333333333334,1.4848,1.1178666666666668c4.1983999999999995,2.466133333333333,8.814933333333332,3.7034666666666665,13.431466666666667,3.7034666666666665
		c4.5141333333333336,0.0,9.028266666666667-1.1776,13.1584-3.541333333333333C353.4165333333333,435.4304,358.4,426.84586666666667,358.4,417.2288V86.23786666666666C358.4,76.62079999999999,353.4165333333333,68.03626666666666,345.07093333333336,63.257600000000004z M341.3333333333333,417.2288
		c0.0,4.923733333333333-3.3194666666666666,7.355733333333333-4.744533333333334,8.174933333333334c-1.3482666666666667,0.768-4.795733333333334,2.2357333333333336-8.746666666666666,0.3157333333333333l-113.01546666666667-105.216c-0.4608-0.4352-0.9642666666666667-0.8106666666666666-1.5018666666666665-1.1178666666666668
		C209.25439999999998,316.9877333333333,204.6208,315.73333333333335,199.91039999999998,315.73333333333335h-71.03146666666666C123.69066666666666,315.73333333333335,119.46666666666667,311.50933333333336,119.46666666666667,306.31253333333336V197.15413333333333C119.46666666666667,191.95733333333334,123.69066666666666,187.73333333333332,128.88746666666665,187.73333333333332h71.03146666666666
		c4.701866666666667,0.0,9.344-1.2544,13.4144-3.6522666666666663c0.5376-0.3072,1.0410666666666666-0.6826666666666666,1.5018666666666665-1.1178666666666668l113.01546666666667-105.216c3.968-1.9285333333333334,7.406933333333333-0.45226666666666665,8.746666666666666,0.3157333333333333
		C338.0138666666666,78.88213333333333,341.3333333333333,81.31413333333333,341.3333333333333,86.23786666666666V417.2288z"/>
	<path d="M256.0,0.0C114.8416,0.0,0.0,114.8416,0.0,256.0s114.8416,256.0,256.0,256.0s256.0-114.8416,256.0-256.0S397.15840000000003,0.0,256.0,0.0z M256.0,494.93333333333334C124.25386666666667,494.93333333333334,17.066666666666666,387.7461333333333,17.066666666666666,256.0
		S124.25386666666667,17.066666666666666,256.0,17.066666666666666s238.93333333333334,107.1872,238.93333333333334,238.93333333333334S387.7461333333333,494.93333333333334,256.0,494.93333333333334z"/>
</g>
<g>
</g>
<g>
</g>
<g>
</g>
<g>
</g>
<g>
</g>
<g>
</g>
<g>
</g>
<g>
</g>
<g>
</g>
<g>
</g>
<g>
</g>
<g>
</g>
<g>
</g>
<g>
</g>
<g>
</g>
</svg>
