<?xml version="1.0" encoding="iso-8859-1"?>
<!-- Generator: Adobe Illustrator 19.0.0, SVG Export Plug-In . SVG Version: 6.00 Build 0)  -->
<svg version="1.1" id="Capa_1" xmlns="http://www.w3.org/2000/svg" xmlns:xlink="http://www.w3.org/1999/xlink" x="0px" y="0px"
	 viewBox="0 0 512 512" style="enable-background:new 0 0 54 54;" xml:space="preserve">
<g>
	<path d="M440.07348148148145,246.5185185185185l69.14844444444444-69.14844444444444c3.707259259259259-3.707259259259259,3.707259259259259-9.699555555555554,0.0-13.406814814814814s-9.699555555555554-3.707259259259259-13.406814814814814,0.0L426.66666666666663,233.11170370370368l-69.14844444444444-69.14844444444444
		c-3.707259259259259-3.707259259259259-9.699555555555554-3.707259259259259-13.406814814814814,0.0s-3.707259259259259,9.699555555555554,0.0,13.406814814814814L413.2598518518518,246.5185185185185l-69.14844444444444,69.14844444444444c-3.707259259259259,3.707259259259259-3.707259259259259,9.699555555555554,0.0,13.406814814814814
		C345.9602962962963,330.92266666666666,348.38755555555554,331.85185185185185,350.8148148148148,331.85185185185185s4.8545185185185185-0.9291851851851851,6.703407407407407-2.7780740740740737L426.66666666666663,259.92533333333336l69.14844444444444,69.14844444444444C497.664,330.92266666666666,500.09125925925923,331.85185185185185,502.5185185185185,331.85185185185185
		s4.8545185185185185-0.9291851851851851,6.703407407407407-2.7780740740740737c3.707259259259259-3.707259259259259,3.707259259259259-9.699555555555554,0.0-13.406814814814814L440.07348148148145,246.5185185185185z"/>
	<path d="M269.312,41.71851851851852c-9.244444444444444-5.233777777777778-20.205037037037034-5.063111111111111-29.297777777777775,0.41718518518518516c-0.4361481481481481,0.256-0.8533333333333333,0.5594074074074074-1.2325925925925925,0.8817777777777778L110.30755555555555,151.7037037037037H9.481481481481481c-5.2432592592592595,0.0-9.481481481481481,4.238222222222222-9.481481481481481,9.481481481481481v180.14814814814815
		c0.0,2.522074074074074,0.9955555555555554,4.93037037037037,2.7780740740740737,6.703407407407407S6.959407407407407,350.8148148148148,9.481481481481481,350.8148148148148l100.5985185185185-0.047407407407407405l128.4077037037037,117.94962962962961c0.4740740740740741,0.4361481481481481,0.986074074074074,0.8154074074074072,1.5265185185185184,1.1377777777777778
		c4.664888888888888,2.816,9.832296296296295,4.228740740740741,14.999703703703704,4.228740740740741c4.901925925925926-0.009481481481481481,9.79437037037037-1.2705185185185186,14.298074074074073-3.8115555555555556C278.784,464.92444444444436,284.44444444444446,455.1585185185185,284.44444444444446,444.1505185185185V67.84948148148148
		C284.44444444444446,56.84148148148148,278.784,47.07555555555555,269.312,41.71851851851852z M265.48148148148147,444.1505185185185c0.0,4.086518518518519-2.0574814814814815,7.68-5.489777777777777,9.623703703703702c-1.4696296296296296,0.8248888888888888-5.195851851851852,2.417777777777778-9.481481481481481,0.2465185185185185L123.25925925925925,337.1235555555555V293.9259259259259
		c0.0-5.2432592592592595-4.238222222222222-9.481481481481481-9.481481481481481-9.481481481481481s-9.481481481481481,4.238222222222222-9.481481481481481,9.481481481481481v37.888L18.962962962962962,331.85185185185185V170.66666666666666h85.33333333333333v37.925925925925924c0.0,5.2432592592592595,4.238222222222222,9.481481481481481,9.481481481481481,9.481481481481481s9.481481481481481-4.238222222222222,9.481481481481481-9.481481481481481v-43.007999999999996l127.09925925925924-107.52
		c4.361481481481482-2.2945185185185184,8.154074074074073-0.6637037037037037,9.633185185185186,0.17066666666666663C263.424,60.17896296296296,265.48148148148147,63.76296296296296,265.48148148148147,67.84948148148148V444.1505185185185z"/>
</g>
<g>
</g>
<g>
</g>
<g>
</g>
<g>
</g>
<g>
</g>
<g>
</g>
<g>
</g>
<g>
</g>
<g>
</g>
<g>
</g>
<g>
</g>
<g>
</g>
<g>
</g>
<g>
</g>
<g>
</g>
</svg>
