<?xml version="1.0" encoding="iso-8859-1"?>
<!-- Generator: Adobe Illustrator 19.0.0, SVG Export Plug-In . SVG Version: 6.00 Build 0)  -->
<svg version="1.1" id="Capa_1" xmlns="http://www.w3.org/2000/svg" xmlns:xlink="http://www.w3.org/1999/xlink" x="0px" y="0px"
	 viewBox="0 0 512 512" style="enable-background:new 0 0 46.004 46.004;" xml:space="preserve">
<g>
	<path d="M332.69315711677245,4.4740457351534655c-10.86235979480045-6.143465785583863-23.728023650117382-5.943135379532214-34.390053038866185,0.48969654812624985c-0.5119554821319885,0.3004956090774715-1.0016520302582383,0.6566385531692895-1.4468307103730111,1.0350404312668464L146.04086601165116,133.57586296843752H27.701243370141725
		c-6.154595252586732,0.0-11.129467002869315,4.974871750282584-11.129467002869315,11.129467002869315v211.459873054517c0.0,2.960438222763238,1.168594035301278,5.787322841492045,3.2609338318407093,7.868533171028606s4.908094948265368,3.2609338318407093,7.868533171028606,3.2609338318407093l118.08364490044343-0.05564733501434658l150.72637161985912,138.45056951569427
		c0.5564733501434658,0.5119554821319885,1.1574645682984088,0.9571341622467611,1.7918441874619597,1.3355360403443177c5.475697765411703,3.3054516998521866,11.54125728197548,4.963742283279715,17.606816798539256,4.963742283279715c5.7539344404834365-0.011129467002869316,11.496739413964002-1.4913485783844884,16.78323624032693-4.4740457351534655
		c11.118337535866447-6.277019389618293,17.76262933657943-17.75149986957656,17.76262933657943-30.672811059907833V35.1468567950613C350.4557864533519,22.225545604730023,343.8114946526389,10.762194591774628,332.69315711677245,4.4740457351534655z M328.19685244761325,476.8420137379358
		c0.0,4.796800278236675-2.4150943396226414,9.014868272324145-6.443961394661333,11.296409007912354c-1.7250673854447438,0.9682636292496304-6.098947917572385,2.8380140857316754-11.129467002869315,0.2893661420746022L161.25484740457352,351.212590209547v-50.7058516650726c0.0-6.154595252586732-4.974871750282584-11.129467002869315-11.129467002869315-11.129467002869315s-11.129467002869315,4.974871750282584-11.129467002869315,11.129467002869315v44.47335014346579
		l-100.16520302582384,0.044517868011477266v-189.20093904877837h100.16520302582384v44.51786801147726c0.0,6.154595252586732,4.974871750282584,11.129467002869315,11.129467002869315,11.129467002869315s11.129467002869315-4.974871750282584,11.129467002869315-11.129467002869315v-50.48326232501521l149.19050517346318-126.20815581253804c5.130684288322755-2.6933310146943743,9.571341622467612-0.7790626902008522,11.307538474915225,0.20033040605164767
		c4.028867055038692,2.2815407355882096,6.443961394661333,6.49960872967568,6.443961394661333,11.296409007912354V476.8420137379358z"/>
	<path d="M386.9270498217546,106.17511520737327c-5.920876445526476-1.6805495174332665-12.075471698113207,1.691678984436136-13.778280149552213,7.612555429962613c-1.7028084514390052,5.8986175115207375,1.691678984436136,12.075471698113207,7.612555429962613,13.778280149552213
		c54.41196417702809,15.725936875054343,92.4190939918268,66.25371706808104,92.4190939918268,122.86931571167723s-38.00712981479871,107.1433788366229-92.4190939918268,122.86931571167723c-5.909746978523607,1.7028084514390052-9.315363881401616,7.8796626380314745-7.612555429962613,13.778280149552213
		c1.413442309364403,4.874706547256761,5.85409964350926,8.046604643074515,10.695417789757412,8.046604643074515c1.023910964263977,0.0,2.058951395530823-0.1446830710373011,3.0828623597948006-0.4340492131119033c63.88314059646987-18.474915224763063,108.50117381097296-77.79497435005652,108.50117381097296-144.26015129119207S450.8101904182245,124.65003043213632,386.9270498217546,106.17511520737327
		z"/>
</g>
<g>
</g>
<g>
</g>
<g>
</g>
<g>
</g>
<g>
</g>
<g>
</g>
<g>
</g>
<g>
</g>
<g>
</g>
<g>
</g>
<g>
</g>
<g>
</g>
<g>
</g>
<g>
</g>
<g>
</g>
</svg>
