<?xml version="1.0" encoding="iso-8859-1"?>
<!-- Generator: Adobe Illustrator 19.0.0, SVG Export Plug-In . SVG Version: 6.00 Build 0)  -->
<svg version="1.1" id="Capa_1" xmlns="http://www.w3.org/2000/svg" xmlns:xlink="http://www.w3.org/1999/xlink" x="0px" y="0px"
	 viewBox="0 0 512 512" style="enable-background:new 0 0 36 36;" xml:space="preserve">
<path d="M497.77777777777777,0.0H14.222222222222221C6.371555555555555,0.0,0.0,6.357333333333333,0.0,14.222222222222221v483.55555555555554c0.0,7.864888888888889,6.371555555555555,14.222222222222221,14.222222222222221,14.222222222222221h483.55555555555554c7.850666666666667,0.0,14.222222222222221-6.357333333333333,14.222222222222221-14.222222222222221V14.222222222222221C512.0,6.357333333333333,505.6284444444444,0.0,497.77777777777777,0.0z M483.55555555555554,483.55555555555554H28.444444444444443V28.444444444444443h455.1111111111111V483.55555555555554z"
	/>
<g>
</g>
<g>
</g>
<g>
</g>
<g>
</g>
<g>
</g>
<g>
</g>
<g>
</g>
<g>
</g>
<g>
</g>
<g>
</g>
<g>
</g>
<g>
</g>
<g>
</g>
<g>
</g>
<g>
</g>
</svg>
