<?xml version="1.0" encoding="iso-8859-1"?>
<!-- Generator: Adobe Illustrator 19.0.0, SVG Export Plug-In . SVG Version: 6.00 Build 0)  -->
<svg version="1.1" id="Capa_1" xmlns="http://www.w3.org/2000/svg" xmlns:xlink="http://www.w3.org/1999/xlink" x="0px" y="0px"
	 viewBox="0 0 512 512" style="enable-background:new 0 0 52 52;" xml:space="preserve">
<g>
	<path d="M256.0,0.0C114.84553846153847,0.0,0.0,114.83569230769231,0.0,256.0s114.84553846153847,256.0,256.0,256.0s256.0-114.83569230769231,256.0-256.0S397.15446153846153,0.0,256.0,0.0z M256.0,492.3076923076923C125.70584615384615,492.3076923076923,19.692307692307693,386.29415384615385,19.692307692307693,256.0
		S125.70584615384615,19.692307692307693,256.0,19.692307692307693s236.30769230769232,106.01353846153846,236.30769230769232,236.30769230769232S386.29415384615385,492.3076923076923,256.0,492.3076923076923z"/>
	<path d="M376.63507692307695,151.0006153846154l-151.32553846153846,170.24l-91.16553846153847-72.93046153846154c-4.233846153846154-3.396923076923077-10.446769230769231-2.6978461538461542-13.833846153846155,1.536c-3.396923076923077,4.2535384615384615-2.707692307692308,10.446769230769231,1.536,13.843692307692308
		l98.46153846153847,78.76923076923077C222.11938461538463,343.90646153846154,224.29538461538465,344.61538461538464,226.46153846153848,344.61538461538464c2.717538461538462,0.0,5.42523076923077-1.1224615384615386,7.364923076923077-3.3083076923076926l157.53846153846155-177.23076923076923c3.613538461538462-4.056615384615385,3.2492307692307696-10.28923076923077-0.8172307692307693-13.892923076923077
		C386.47138461538464,146.56,380.2584615384615,146.9243076923077,376.63507692307695,151.0006153846154z"/>
</g>
<g>
</g>
<g>
</g>
<g>
</g>
<g>
</g>
<g>
</g>
<g>
</g>
<g>
</g>
<g>
</g>
<g>
</g>
<g>
</g>
<g>
</g>
<g>
</g>
<g>
</g>
<g>
</g>
<g>
</g>
</svg>
