<?xml version="1.0" encoding="iso-8859-1"?>
<!-- Generator: Adobe Illustrator 19.0.0, SVG Export Plug-In . SVG Version: 6.00 Build 0)  -->
<svg version="1.1" id="Capa_1" xmlns="http://www.w3.org/2000/svg" xmlns:xlink="http://www.w3.org/1999/xlink" x="0px" y="0px"
	 viewBox="0 0 512 512" style="enable-background:new 0 0 60 60;" xml:space="preserve">
<g>
	<path d="M503.46666666666664,51.2H8.533333333333333C3.8144,51.2,0.0,55.0144,0.0,59.733333333333334v324.26666666666665c0.0,4.718933333333334,3.8144,8.533333333333333,8.533333333333333,8.533333333333333h221.86666666666667v25.6h-42.666666666666664v42.666666666666664h136.53333333333333v-42.666666666666664h-42.666666666666664v-25.6h221.86666666666667c4.718933333333334,0.0,8.533333333333333-3.8144,8.533333333333333-8.533333333333333V59.733333333333334
		C512.0,55.0144,508.18559999999997,51.2,503.46666666666664,51.2z M307.2,435.2v8.533333333333333H204.8v-8.533333333333333h42.666666666666664v-42.666666666666664h17.066666666666666v42.666666666666664H307.2z M494.93333333333334,375.46666666666664H281.6h-51.2H17.066666666666666V68.26666666666667h477.8666666666667V375.46666666666664z"/>
	<path d="M469.3333333333333,290.1333333333333H361.5914666666667l-0.7253333333333334-0.64c-3.0122666666666666-2.6624-6.229333333333333-4.872533333333333-9.6-6.613333333333333l-39.43253333333334-25.50613333333333l-0.8192-0.4693333333333333
		c-2.9866666666666664-1.4933333333333332-6.2976-2.1845333333333334-9.216000000000001-2.7989333333333333c-0.9301333333333334-0.1877333333333333-2.1418666666666666-0.45226666666666665-3.131733333333333-0.7082666666666667v-11.1104c0.384-0.256,0.7850666666666667-0.5376,1.1946666666666668-0.8192
		c5.777066666666667-3.9765333333333337,8.482133333333334-5.964799999999999,10.112-8.260266666666666c5.9136-8.3712,11.835733333333334-17.3824,15.616-27.059199999999997c8.200533333333333-3.7546666666666666,15.752533333333334-11.008000000000001,15.752533333333334-20.215466666666668v-19.157333333333334
		c0.0-3.524266666666666-1.3824-6.9632-4.096-10.205866666666665c-2.0223999999999998-2.423466666666666-4.437333333333333-6.3488-4.437333333333333-11.264000000000001v-8.994133333333334C332.26239999999996,115.72906666666665,317.29493333333335,76.8,264.5333333333333,76.8s-67.72906666666667,38.92906666666667-68.26666666666667,59.733333333333334v8.763733333333333
		c0.0,4.9152-2.4063999999999997,8.840533333333333-4.4288,11.255466666666667C189.1157333333333,159.8122666666667,187.73333333333332,163.2512,187.73333333333332,166.77546666666666v19.157333333333334c0.0,8.226133333333333,6.766933333333333,14.0544,11.5456,17.408
		c5.6832,17.2032,22.8864,29.994666666666667,31.121066666666664,35.31093333333333v11.323733333333333c-2.2272,2.167466666666667-9.0368,5.4016-12.0832,6.852266666666667c-1.8773333333333333,0.8959999999999999-3.5328,1.6896-4.949333333333333,2.466133333333333l-39.97866666666666,23.21066666666667
		c-3.3792,1.8432-6.6304,4.2325333333333335-9.659733333333332,7.082666666666666L163.1488,290.1333333333333H119.46666666666667v59.733333333333334h349.8666666666667V290.1333333333333z M221.73866666666666,274.16746666666666c0.9984000000000001-0.5461333333333334,2.3637333333333337-1.1946666666666668,3.9082666666666666-1.9285333333333334
		C235.3664,267.6138666666667,247.46666666666667,261.8624,247.46666666666667,251.3493333333333V228.77866666666665l-4.445866666666666-2.423466666666666c-6.7157333333333336-3.6608-24.849066666666666-16.2304-28.066133333333333-30.267733333333336l-0.7765333333333333-3.3792l-2.909866666666667-1.8858666666666666
		c-5.2736-3.4048000000000003-6.263466666666666-5.154133333333333-6.468266666666667-4.8896v-18.269866666666665c0.034133333333333335-0.034133333333333335,0.0768-0.08533333333333333,0.13653333333333334-0.17066666666666666C210.34666666666666,161.01546666666667,213.33333333333334,153.12213333333332,213.33333333333334,145.29706666666667v-8.541866666666666
		C213.37599999999998,135.00586666666666,215.0314666666667,93.86666666666666,264.5333333333333,93.86666666666666c48.26453333333333,0.0,51.0464,38.53653333333333,51.2,42.666666666666664v8.763733333333333c0.0,7.722666666666667,2.9013333333333335,15.496533333333334,8.533333333333333,22.417066666666663l0.008533333333333334,18.0992
		c-0.2816,1.211733333333333-3.7376,4.352-7.927466666666667,5.632000000000001l-4.241066666666667,1.3055999999999999l-1.3653333333333333,4.2325333333333335c-2.8928000000000003,8.9856-8.772266666666667,17.9712-14.276266666666666,25.821866666666665
		c-0.8789333333333332,0.8704-4.4032,3.2938666666666667-6.289066666666667,4.599466666666667c-3.618133333333333,2.4917333333333334-5.265066666666667,3.6522666666666663-6.4512,4.992L281.6,234.82879999999997V256.0c0.0,11.306666666666667,11.272533333333334,13.6704,16.6912,14.805333333333333
		c1.7322666666666668,0.3584,3.6778666666666666,0.768,4.778666666666667,1.2202666666666666L331.0592,290.1333333333333H194.22719999999998L221.73866666666666,274.16746666666666z M452.26666666666665,332.8H136.53333333333333v-25.6h34.72213333333333h182.43413333333334H452.26666666666665V332.8z"/>
	<path d="M469.3333333333333,85.33333333333333h-51.2v51.2h51.2V85.33333333333333z M452.26666666666665,119.46666666666667h-17.066666666666666v-17.066666666666666h17.066666666666666V119.46666666666667z"/>
	<path d="M102.4,290.1333333333333H42.666666666666664v59.733333333333334h59.733333333333334V290.1333333333333z M85.33333333333333,332.8H59.733333333333334v-25.6h25.6V332.8z"/>
</g>
<g>
</g>
<g>
</g>
<g>
</g>
<g>
</g>
<g>
</g>
<g>
</g>
<g>
</g>
<g>
</g>
<g>
</g>
<g>
</g>
<g>
</g>
<g>
</g>
<g>
</g>
<g>
</g>
<g>
</g>
</svg>
