<?xml version="1.0" encoding="iso-8859-1"?>
<!-- Generator: Adobe Illustrator 19.0.0, SVG Export Plug-In . SVG Version: 6.00 Build 0)  -->
<svg version="1.1" id="Capa_1" xmlns="http://www.w3.org/2000/svg" xmlns:xlink="http://www.w3.org/1999/xlink" x="0px" y="0px"
	 viewBox="0 0 512 512" style="enable-background:new 0 0 60 60;" xml:space="preserve">
<path d="M468.8981333333333,241.0752c0.1536-0.5888,0.3328-1.1520000000000001,0.3584-1.7664C469.26506666666666,239.1808,469.3333333333333,239.06986666666666,469.3333333333333,238.93333333333334C469.3333333333333,124.16000000000001,378.22293333333334,30.318933333333334,264.5333333333333,25.813333333333333V8.533333333333333
	c0.0-4.718933333333334-3.8229333333333333-8.533333333333333-8.533333333333333-8.533333333333333s-8.533333333333333,3.8144-8.533333333333333,8.533333333333333v17.279999999999998C133.77706666666666,30.318933333333334,42.666666666666664,124.16000000000001,42.666666666666664,238.93333333333334c0.0,0.13653333333333334,0.06826666666666667,0.24746666666666667,0.0768,0.384
	c0.0256,0.6058666666666666,0.19626666666666667,1.1690666666666667,0.3584,1.7664c0.13653333333333334,0.5034666666666666,0.21333333333333335,1.0069333333333332,0.4266666666666667,1.4677333333333331c0.21333333333333335,0.45226666666666665,0.5461333333333334,0.8277333333333333,0.8362666666666667,1.2373333333333332
	c0.3584,0.5034666666666666,0.6912,1.0069333333333332,1.1520000000000001,1.4250666666666667c0.09386666666666665,0.08533333333333333,0.13653333333333334,0.21333333333333335,0.23893333333333333,0.2986666666666667c0.3072,0.256,0.6826666666666666,0.3413333333333333,1.0069333333333332,0.5461333333333334
	c0.5034666666666666,0.3157333333333333,0.9813333333333334,0.6314666666666666,1.5530666666666666,0.8362666666666667c0.5973333333333334,0.22186666666666666,1.2031999999999998,0.29013333333333335,1.8175999999999999,0.3669333333333333C50.50026666666667,247.296,50.824533333333335,247.46666666666667,51.2,247.46666666666667
	c0.128,0.0,0.2304-0.06826666666666667,0.3584-0.06826666666666667c0.6485333333333333-0.0256,1.2544-0.2048,1.8773333333333333-0.3754666666666666c0.4608-0.128,0.9301333333333334-0.19626666666666667,1.3482666666666667-0.4010666666666667
	c0.4864-0.22186666666666666,0.8874666666666666-0.5802666666666667,1.3312-0.8959999999999999c0.4693333333333333-0.3413333333333333,0.9472-0.6570666666666667,1.3397333333333332-1.0837333333333334c0.09386666666666665-0.1024,0.22186666666666666-0.14506666666666668,0.3157333333333333-0.256
	C69.80266666666667,229.8624,85.6576,221.86666666666667,102.4,221.86666666666667s32.59733333333333,7.995733333333334,44.629333333333335,22.519466666666666c0.16213333333333332,0.19626666666666667,0.4096,0.2730666666666667,0.5888,0.45226666666666665c0.2048,0.2048,0.3072,0.47786666666666666,0.5376,0.6656
	c0.3413333333333333,0.2816,0.7509333333333332,0.384,1.1093333333333333,0.6058666666666666c0.4352,0.26453333333333334,0.8362666666666667,0.5290666666666667,1.2970666666666666,0.6997333333333333c0.6997333333333333,0.2730666666666667,1.3994666666666666,0.384,2.1248,0.4608
	C153.00266666666667,247.30453333333335,153.2928,247.46666666666667,153.6,247.46666666666667c0.13653333333333334,0.0,0.26453333333333334-0.05973333333333333,0.39253333333333335-0.06826666666666667c0.4352-0.017066666666666667,0.8362666666666667-0.128,1.2629333333333332-0.21333333333333335
	c0.5888-0.11946666666666667,1.1520000000000001-0.256,1.7066666666666668-0.5034666666666666c0.4266666666666667-0.1877333333333333,0.8106666666666666-0.4266666666666667,1.2031999999999998-0.6912c0.2816-0.1792,0.5973333333333334-0.2730666666666667,0.8618666666666667-0.49493333333333334
	c0.2048-0.17066666666666666,0.2986666666666667-0.4096,0.4864-0.5973333333333334c0.19626666666666667-0.19626666666666667,0.4608-0.2986666666666667,0.64-0.5205333333333333C172.20266666666666,229.8624,188.0576,221.86666666666667,204.8,221.86666666666667c15.872,0.0,30.890666666666668,7.253333333333333,42.666666666666664,20.360533333333333V469.3333333333333
	c0.0,14.114133333333333-11.485866666666666,25.6-25.6,25.6s-25.6-11.485866666666666-25.6-25.6c0.0-4.718933333333334-3.8229333333333333-8.533333333333333-8.533333333333333-8.533333333333333s-8.533333333333333,3.8144-8.533333333333333,8.533333333333333c0.0,23.526400000000002,19.140266666666665,42.666666666666664,42.666666666666664,42.666666666666664s42.666666666666664-19.140266666666665,42.666666666666664-42.666666666666664V242.22719999999998
	C276.30933333333337,229.12,291.328,221.86666666666667,307.2,221.86666666666667c16.7424,0.0,32.59733333333333,7.995733333333334,44.629333333333335,22.519466666666666c0.16213333333333332,0.19626666666666667,0.4096,0.2730666666666667,0.5888,0.45226666666666665
	c0.2048,0.2048,0.3072,0.47786666666666666,0.5376,0.6656c0.3413333333333333,0.2816,0.7509333333333332,0.3754666666666666,1.1093333333333333,0.5973333333333334c0.4352,0.26453333333333334,0.8362666666666667,0.5290666666666667,1.3055999999999999,0.7082666666666667
	c0.6912,0.26453333333333334,1.3909333333333334,0.384,2.1248,0.4608C357.80266666666665,247.30453333333335,358.0928,247.46666666666667,358.4,247.46666666666667c0.13653333333333334,0.0,0.26453333333333334-0.05973333333333333,0.39253333333333335-0.06826666666666667
	c0.4352-0.017066666666666667,0.8448-0.128,1.2714666666666665-0.22186666666666666c0.5802666666666667-0.11946666666666667,1.1434666666666666-0.256,1.6981333333333335-0.49493333333333334c0.4352-0.1877333333333333,0.8192-0.4352,1.211733333333333-0.6912
	c0.2816-0.1792,0.5973333333333334-0.2730666666666667,0.8618666666666667-0.4864c0.2048-0.17066666666666666,0.2986666666666667-0.4096,0.47786666666666666-0.5973333333333334c0.19626666666666667-0.19626666666666667,0.4608-0.2986666666666667,0.6485333333333333-0.5205333333333333
	C377.00266666666664,229.8624,392.8576,221.86666666666667,409.6,221.86666666666667s32.59733333333333,7.995733333333334,44.629333333333335,22.519466666666666c0.08533333333333333,0.1024,0.2048,0.128,0.2986666666666667,0.2304c0.5973333333333334,0.6570666666666667,1.3141333333333334,1.1520000000000001,2.0906666666666665,1.6042666666666667
	c0.26453333333333334,0.1536,0.4693333333333333,0.384,0.7509333333333332,0.5034666666666666C458.4192,247.18506666666664,459.57120000000003,247.46666666666667,460.8,247.46666666666667h0.0h0.0c1.0495999999999999,0.0,2.0906666666666665-0.2304,3.0805333333333333-0.6229333333333333
	c0.384-0.1536,0.6997333333333333-0.4010666666666667,1.0581333333333334-0.6058666666666666c0.4352-0.24746666666666667,0.9045333333333333-0.4096,1.2970666666666666-0.7424c0.1024-0.08533333333333333,0.14506666666666668-0.2048,0.23893333333333333-0.2986666666666667
	c0.4608-0.41813333333333336,0.7850666666666667-0.9130666666666666,1.1520000000000001-1.4250666666666667c0.29013333333333335-0.4096,0.6229333333333333-0.7936,0.8362666666666667-1.2373333333333332C468.6848,242.08213333333333,468.7701333333333,241.57866666666666,468.8981333333333,241.0752z M409.6,204.8
	c-18.926933333333334,0.0-36.79573333333334,7.637333333333333-51.2,21.623466666666666C343.9957333333333,212.43733333333333,326.12693333333334,204.8,307.2,204.8s-36.79573333333334,7.637333333333333-51.2,21.623466666666666C241.59573333333333,212.43733333333333,223.72693333333333,204.8,204.8,204.8
	s-36.79573333333334,7.637333333333333-51.2,21.623466666666666C139.19573333333335,212.43733333333333,121.32693333333333,204.8,102.4,204.8c-14.933333333333334,0.0-29.166933333333333,4.829866666666666-41.6,13.696C71.05706666666667,119.84213333333334,154.68373333333332,42.666666666666664,256.0,42.666666666666664
	s184.94293333333331,77.17546666666667,195.2,175.82933333333332C438.7669333333333,209.62986666666666,424.5333333333333,204.8,409.6,204.8z"/>
<g>
</g>
<g>
</g>
<g>
</g>
<g>
</g>
<g>
</g>
<g>
</g>
<g>
</g>
<g>
</g>
<g>
</g>
<g>
</g>
<g>
</g>
<g>
</g>
<g>
</g>
<g>
</g>
<g>
</g>
</svg>
