<?xml version="1.0" encoding="iso-8859-1"?>
<!-- Generator: Adobe Illustrator 19.0.0, SVG Export Plug-In . SVG Version: 6.00 Build 0)  -->
<svg version="1.1" id="Capa_1" xmlns="http://www.w3.org/2000/svg" xmlns:xlink="http://www.w3.org/1999/xlink" x="0px" y="0px"
	 viewBox="0 0 512 512" style="enable-background:new 0 0 52.974 52.974;" xml:space="preserve">
<g>
	<path d="M478.104428587609,33.92456676860346c-45.2037603352588-45.223090572733796-118.79397440253709-45.242420810208785-164.01706497527087,0.0l-88.84177143504361,88.84177143504361c-3.7790614263601014,3.7790614263601014-3.7790614263601014,9.887416468456223,0.0,13.666477894816325s9.887416468456223,3.7790614263601014,13.666477894816325,0.0
		l88.84177143504361-88.84177143504361c18.170423226488463-18.170423226488463,42.43953637633556-28.173821119794617,68.33238947408162-28.173821119794617c25.91218333522105,0.0,50.17163136633065,10.013063012043645,68.34205459281911,28.183486238532108s28.183486238532108,42.43953637633556,28.183486238532108,68.34205459281911
		c0.0,25.90251821648356-10.013063012043645,50.16196624759316-28.183486238532108,68.33238947408162L348.26322346811645,300.4692113112093c-37.67463283875109,37.67463283875109-99.00947634688715,37.67463283875109-136.69377430437572,0.0c-3.7790614263601014-3.7790614263601014-9.887416468456223-3.7790614263601014-13.666477894816325,0.0
		s-3.7790614263601014,9.887416468456223,0.0,13.666477894816325c22.61637784573564,22.60671272699815,52.307622607316794,33.91490164986597,82.00853248763543,33.91490164986597s59.401819760637295-11.30818892286782,82.00853248763543-33.91490164986597L478.104428587609,197.94163174387435
		c21.823838109261146-21.823838109261146,33.84724581870351-50.94484086533016,33.84724581870351-82.00853248763543C511.9516744063125,84.86940763393363,499.92826669687014,55.74840487786461,478.104428587609,33.92456676860346z"/>
	<path d="M259.4117869143353,389.3013176275154l-75.17529354022727,75.17529354022727c-18.170423226488463,18.170423226488463-42.43953637633556,28.183486238532108-68.34205459281911,28.183486238532108c-25.90251821648356,0.0-50.16196624759316-10.013063012043645-68.34205459281911-28.183486238532108
		c-37.67463283875109-37.67463283875109-37.67463283875109-98.99981122814965,0.0-136.68410918563822l109.35115339600559-109.35115339600559c37.68429795748858-37.67463283875109,99.00947634688715-37.6553026012761,136.68410918563822,0.0c3.7790614263601014,3.7790614263601014,9.887416468456223,3.7790614263601014,13.666477894816325,0.0
		s3.7790614263601014-9.887416468456223,0.0-13.666477894816325c-45.2037603352588-45.223090572733796-118.79397440253709-45.242420810208785-164.01706497527087,0.0L33.876241174916,314.13568920602563c-21.823838109261146,21.823838109261146-33.83758069996602,50.94484086533016-33.83758069996602,82.00853248763543
		c0.0,31.06369162230528,12.023407709442367,60.184694378374296,33.84724581870351,81.99886736889795s50.94484086533016,33.84724581870351,81.99886736889795,33.84724581870351c31.073356741042772,0.0,60.19435949711179-12.023407709442367,82.00853248763543-33.84724581870351l75.17529354022727-75.17529354022727
		c3.7790614263601014-3.7790614263601014,3.7790614263601014-9.887416468456223,0.0-13.666477894816325S263.1908483406954,385.5319213198928,259.4117869143353,389.3013176275154z"/>
</g>
<g>
</g>
<g>
</g>
<g>
</g>
<g>
</g>
<g>
</g>
<g>
</g>
<g>
</g>
<g>
</g>
<g>
</g>
<g>
</g>
<g>
</g>
<g>
</g>
<g>
</g>
<g>
</g>
<g>
</g>
</svg>
