<?xml version="1.0" encoding="iso-8859-1"?>
<!-- Generator: Adobe Illustrator 19.0.0, SVG Export Plug-In . SVG Version: 6.00 Build 0)  -->
<svg version="1.1" id="Capa_1" xmlns="http://www.w3.org/2000/svg" xmlns:xlink="http://www.w3.org/1999/xlink" x="0px" y="0px"
	 viewBox="0 0 512 512" style="enable-background:new 0 0 58 58;" xml:space="preserve">
<g>
	<path d="M256.0,264.82758620689657c-19.473655172413793,0.0-35.310344827586206,15.836689655172414-35.310344827586206,35.310344827586206v52.96551724137931c0.0,19.473655172413793,15.836689655172414,35.310344827586206,35.310344827586206,35.310344827586206s35.310344827586206-15.836689655172414,35.310344827586206-35.310344827586206v-52.96551724137931C291.3103448275862,280.66427586206896,275.47365517241377,264.82758620689657,256.0,264.82758620689657z M273.6551724137931,353.1034482758621c0.0,9.736827586206896-7.918344827586207,17.655172413793103-17.655172413793103,17.655172413793103
		s-17.655172413793103-7.918344827586207-17.655172413793103-17.655172413793103v-52.96551724137931c0.0-9.736827586206896,7.918344827586207-17.655172413793103,17.655172413793103-17.655172413793103s17.655172413793103,7.918344827586207,17.655172413793103,17.655172413793103V353.1034482758621z"/>
	<path d="M353.1034482758621,188.1511724137931V90.21793103448276C353.1034482758621,40.47448275862069,309.5393103448276,0.0,256.0,0.0S158.89655172413794,40.47448275862069,158.89655172413794,90.21793103448276c0.0,4.881655172413794,3.9459310344827587,8.827586206896552,8.827586206896552,8.827586206896552s8.827586206896552-3.9459310344827587,8.827586206896552-8.827586206896552C176.55172413793105,50.21131034482758,212.1886896551724,17.655172413793103,256.0,17.655172413793103
		s79.44827586206897,32.556137931034485,79.44827586206897,72.56275862068966v87.72855172413793c-1.6595862068965517-0.8386206896551724-3.35448275862069-1.5801379310344827-5.031724137931034-2.3657931034482758c-3.4692413793103447-1.6242758620689655-6.991448275862069-3.142620689655172-10.575448275862069-4.546206896551724
		c-2.3040000000000003-0.9004137931034482-4.616827586206897-1.7478620689655173-6.947310344827587-2.551172413793103c-2.2951724137931033-0.785655172413793-4.572689655172414-1.571310344827586-6.903172413793103-2.2598620689655173c-3.857655172413793-1.1475862068965517-7.759448275862069-2.127448275862069-11.687724137931035-3.010206896551724
		c-1.7037241379310346-0.3795862068965517-3.4162758620689657-0.7415172413793104-5.137655172413793-1.0769655172413792c-4.616827586206897-0.8915862068965518-9.260137931034482-1.615448275862069-13.938758620689654-2.1362758620689655c-1.0593103448275862-0.11475862068965517-2.1186206896551725-0.1853793103448276-3.1779310344827585-0.28248275862068967
		C266.70786206896554,159.21434482758622,261.3671724137931,158.89655172413794,256.0,158.89655172413794C158.64937931034484,158.89655172413794,79.44827586206897,238.0976551724138,79.44827586206897,335.44827586206895s79.20110344827586,176.55172413793105,176.55172413793105,176.55172413793105s176.55172413793105-79.20110344827586,176.55172413793105-176.55172413793105C432.55172413793105,273.9553103448276,400.91365517241377,219.77158620689656,353.1034482758621,188.1511724137931z M256.0,494.34482758620686
		c-87.61379310344829,0.0-158.89655172413794-71.28275862068965-158.89655172413794-158.89655172413794s71.28275862068965-158.89655172413794,158.89655172413794-158.89655172413794c4.766896551724138,0.0,9.463172413793103,0.3001379310344828,14.132965517241379,0.7150344827586207c1.5095172413793105,0.14124137931034483,3.010206896551724,0.3001379310344828,4.519724137931035,0.4766896551724138
		c3.328,0.38841379310344826,6.611862068965517,0.9180689655172414,9.869241379310346,1.5095172413793105c2.2598620689655173,0.4148965517241379,4.510896551724138,0.865103448275862,6.753103448275862,1.377103448275862c3.0719999999999996,0.6973793103448276,6.11751724137931,1.474206896551724,9.118896551724138,2.3481379310344828
		c2.445241379310345,0.7150344827586207,4.864000000000001,1.5271724137931033,7.273931034482758,2.3657931034482758c1.5801379310344827,0.5473103448275862,3.1337931034482756,1.1299310344827587,4.687448275862069,1.7213793103448276c8.75696551724138,3.35448275862069,17.240275862068966,7.476965517241379,25.361655172413794,12.367448275862069
		C383.86758620689653,227.26620689655172,414.8965517241379,277.74234482758624,414.8965517241379,335.44827586206895C414.8965517241379,423.0620689655172,343.61379310344824,494.34482758620686,256.0,494.34482758620686z"/>
</g>
<g>
</g>
<g>
</g>
<g>
</g>
<g>
</g>
<g>
</g>
<g>
</g>
<g>
</g>
<g>
</g>
<g>
</g>
<g>
</g>
<g>
</g>
<g>
</g>
<g>
</g>
<g>
</g>
<g>
</g>
</svg>
