<?xml version="1.0" encoding="iso-8859-1"?>
<!-- Generator: Adobe Illustrator 19.0.0, SVG Export Plug-In . SVG Version: 6.00 Build 0)  -->
<svg version="1.1" id="Capa_1" xmlns="http://www.w3.org/2000/svg" xmlns:xlink="http://www.w3.org/1999/xlink" x="0px" y="0px"
	 viewBox="0 0 512 512" style="enable-background:new 0 0 60 60;" xml:space="preserve">
<path d="M256.0,512.0c-67.88266666666667,0.0-196.26666666666665-10.7008-196.26666666666665-51.2v-19.0976c0.0-28.19413333333333,15.368533333333332-54.084266666666664,40.115199999999994-67.584l79.0272-45.76426666666667c0.5546666666666666-0.3072,2.0736-1.2202666666666666,5.853866666666667-4.087466666666667
	h-62.848c-3.5584,0.3413333333333333-21.614933333333333,1.5615999999999999-36.983466666666665-7.637333333333333c-6.118399999999999-3.6608-10.436266666666667-9.523200000000001-12.177066666666667-16.529066666666665c-1.7578666666666665-7.099733333333333-0.5973333333333334-14.7456,3.1914666666666665-20.974933333333336
	c14.395733333333334-23.697066666666668,48.315733333333334-85.8368,52.61653333333334-150.81813333333332c1.4592-22.161066666666667,5.632000000000001-40.6272,12.740266666666667-56.4224C155.89546666666666,39.3984,187.17013333333335,0.5376,253.17546666666667,0.0
	c112.6656,0.9216,116.4288,115.04639999999999,116.44586666666667,116.1984c1.3141333333333334,68.0192,43.357866666666666,134.99733333333333,61.3632,160.63146666666668c4.7872,6.818133333333334,6.2208,15.334399999999999,3.9424,23.372799999999998
	c-2.2613333333333334,7.970133333333334-7.8933333333333335,14.404266666666667-15.453866666666666,17.646933333333333c-20.5056,8.797866666666666-46.1312,6.485333333333333-47.214933333333335,6.365866666666666L306.816,324.26666666666665c2.8245333333333336,4.343466666666667,5.9050666666666665,8.0384,8.8064,9.489066666666668
	l93.6704,40.558933333333336C435.95946666666663,387.64373333333333,452.26666666666665,414.0288,452.26666666666665,443.3664V460.8C452.26666666666665,501.2992,323.88266666666664,512.0,256.0,512.0z M121.43786666666666,307.2h67.83146666666667c6.7072,0.0,12.458666666666666,4.096,14.660266666666667,10.444799999999999
	c2.1930666666666667,6.3232,0.22186666666666666,13.098666666666666-5.034666666666666,17.245866666666664c-7.253333333333333,5.725866666666667-10.112,7.5008-11.630933333333333,8.337066666666667l-79.04426666666666,45.7728C88.76373333333332,399.5989333333334,76.8,419.75466666666665,76.8,441.7024V460.8
	c0.0,11.579733333333333,63.249066666666664,34.13333333333333,179.2,34.13333333333333s179.2-22.5536,179.2-34.13333333333333v-17.433600000000002c0.0-22.843733333333333-12.689066666666667-43.37493333333333-33.117866666666664-53.580799999999996l-93.6704-40.558933333333336c-8.413866666666667-4.1983999999999995-13.602133333333335-12.100266666666666-16.546133333333334-18.030933333333333
	c-2.5685333333333333-5.1626666666666665-2.2784-11.187199999999999,0.768-16.1024C295.7056,310.1525333333333,301.0048,307.2,306.816,307.2h66.26986666666667c1.0325333333333333,0.0768,23.236266666666666,2.030933333333333,39.67146666666667-5.026133333333333
	c2.8160000000000003-1.211733333333333,4.9152-3.6266666666666665,5.768533333333334-6.621866666666667c0.8789333333333332-3.072,0.3328-6.314666666666667-1.4848-8.900266666666665c-18.90986666666667-26.922666666666665-63.06133333333333-97.39093333333334-64.46933333333332-170.10346666666666
	C352.46933333333334,112.54613333333333,349.0048,17.851733333333335,253.17546666666667,17.066666666666666c-56.832,0.4693333333333333-83.77173333333333,33.885866666666665-96.34133333333332,61.824c-6.263466666666666,13.917866666666667-9.949866666666665,30.446933333333334-11.272533333333334,50.55146666666667
	c-4.548266666666667,68.74453333333332-40.0128,133.77706666666666-55.057066666666664,158.5408c-1.4421333333333335,2.3808000000000002-1.8944,5.2992-1.2202666666666666,8.012799999999999c0.6314666666666666,2.56,2.1845333333333334,4.6848,4.360533333333334,5.981866666666666
	c11.656533333333334,6.9632,26.60693333333333,5.282133333333333,26.752,5.282133333333333L121.43786666666666,307.2z"/>
<g>
</g>
<g>
</g>
<g>
</g>
<g>
</g>
<g>
</g>
<g>
</g>
<g>
</g>
<g>
</g>
<g>
</g>
<g>
</g>
<g>
</g>
<g>
</g>
<g>
</g>
<g>
</g>
<g>
</g>
</svg>
