<?xml version="1.0" encoding="iso-8859-1"?>
<!-- Generator: Adobe Illustrator 19.0.0, SVG Export Plug-In . SVG Version: 6.00 Build 0)  -->
<svg version="1.1" id="Capa_1" xmlns="http://www.w3.org/2000/svg" xmlns:xlink="http://www.w3.org/1999/xlink" x="0px" y="0px"
	 viewBox="0 0 512 512" style="enable-background:new 0 0 60 60;" xml:space="preserve">
<path d="M409.7194666666667,365.9861333333333l-81.51893333333334-40.755199999999995C320.512,321.38239999999996,315.73333333333335,313.6512,315.73333333333335,305.0496v-28.8512c1.9541333333333333-2.3893333333333335,4.010666666666666-5.111466666666667,6.135466666666666-8.1152
	c10.5728-14.933333333333334,19.046400000000002-31.556266666666666,25.20746666666667-49.4848C359.1168,213.0773333333333,366.93333333333334,201.17333333333332,366.93333333333334,187.73333333333332v-34.13333333333333c0.0-8.2176-3.072-16.179199999999998-8.533333333333333-22.4v-45.388799999999996
	c0.47786666666666666-4.693333333333333,2.3552-32.63146666666667-17.851733333333335-55.68C323.0208,10.137599999999999,294.5792,0.0,256.0,0.0s-67.0208,10.137599999999999-84.54826666666666,30.122666666666664C151.2448,53.1712,153.12213333333332,81.11786666666667,153.6,85.81119999999999
	v45.388799999999996c-5.461333333333333,6.2208-8.533333333333333,14.1824-8.533333333333333,22.4v34.13333333333333c0.0,10.385066666666667,4.718933333333334,20.0704,12.7744,26.530133333333332c7.816533333333333,30.9504,24.174933333333335,54.272,29.892266666666668,61.75573333333333v28.236800000000002
	c0.0,8.260266666666666-4.5056,15.837866666666667-11.750399999999999,19.79733333333333l-76.12586666666667,41.523199999999996C75.10186666666667,379.0848,59.733333333333334,404.9749333333333,59.733333333333334,433.16906666666665V460.8c0.0,40.4992,128.384,51.2,196.26666666666665,51.2s196.26666666666665-10.7008,196.26666666666665-51.2v-25.966933333333333
	C452.26666666666665,405.49546666666663,435.95946666666663,379.11039999999997,409.7194666666667,365.9861333333333z M435.2,460.8c0.0,11.579733333333333-63.249066666666664,34.13333333333333-179.2,34.13333333333333S76.8,472.3797333333333,76.8,460.8v-27.63093333333333c0.0-21.9392,11.963733333333332-42.10346666666667,31.223466666666663-52.599466666666665
	l76.12586666666667-41.523199999999996C196.8896,332.09173333333337,204.8,318.7541333333333,204.8,304.25600000000003v-34.29546666666667l-1.9882666666666668-2.372266666666667c-0.2048-0.24746666666666667-21.12-25.5488-29.098666666666666-60.288000000000004l-0.7765333333333333-3.3792l-2.909866666666667-1.8773333333333333
	C165.08586666666667,198.85226666666668,162.13333333333333,193.50186666666664,162.13333333333333,187.73333333333332v-34.13333333333333c0.0-4.7872,2.030933333333333-9.250133333333334,5.717333333333333-12.586666666666668L170.66666666666666,138.47893333333334V85.33333333333333l-0.0768-1.1178666666666668c-0.0256-0.2304-2.9269333333333334-23.8848,13.696-42.845866666666666
	C198.4256,25.241600000000002,222.55786666666665,17.066666666666666,256.0,17.066666666666666c33.32266666666666,0.0,57.403733333333335,8.1152,71.56053333333332,24.132266666666666c16.6144,18.781866666666666,13.866666666666667,42.811733333333336,13.8496,43.016533333333335L341.3333333333333,138.47893333333334l2.8160000000000003,2.542933333333333
	C347.83573333333334,144.34986666666666,349.8666666666667,148.8128,349.8666666666667,153.6v34.13333333333333c0.0,7.4496-4.881066666666666,13.969066666666667-12.1344,16.2048l-4.2496,1.3055999999999999l-1.3653333333333333,4.224c-5.7088,17.757866666666665-13.841066666666668,34.15893333333334-24.183466666666668,48.750933333333336
	c-2.5343999999999998,3.5925333333333334-5.000533333333333,6.7754666666666665-7.142399999999999,9.207466666666667L298.6666666666667,269.8496v35.2c0.0,15.104,8.388266666666667,28.680533333333333,21.89653333333333,35.43893333333333l81.51893333333334,40.755199999999995
	C422.5109333333333,391.45813333333336,435.2,411.9893333333333,435.2,434.83306666666664V460.8z"/>
<g>
</g>
<g>
</g>
<g>
</g>
<g>
</g>
<g>
</g>
<g>
</g>
<g>
</g>
<g>
</g>
<g>
</g>
<g>
</g>
<g>
</g>
<g>
</g>
<g>
</g>
<g>
</g>
<g>
</g>
</svg>
