<?xml version="1.0" encoding="iso-8859-1"?>
<!-- Generator: Adobe Illustrator 19.0.0, SVG Export Plug-In . SVG Version: 6.00 Build 0)  -->
<svg version="1.1" id="Capa_1" xmlns="http://www.w3.org/2000/svg" xmlns:xlink="http://www.w3.org/1999/xlink" x="0px" y="0px"
	 viewBox="0 0 512 512" style="enable-background:new 0 0 57 57;" xml:space="preserve">
<g>
	<path d="M497.0172631578947,59.67045614035087c-9.162105263157894-3.934315789473684-19.366175438596493-2.1108771929824557-26.51621052631579,4.697824561403508L368.280701754386,158.71101754385964V80.33908771929825C368.280701754386,55.85291228070175,348.3576140350877,35.92982456140351,323.8714385964912,35.92982456140351H44.409263157894735
		C19.923087719298245,35.92982456140351,0.0,55.85291228070175,0.0,80.33908771929825v208.97684210526316C0.0,313.0475789473684,19.303298245614034,332.35087719298247,43.03494736842105,332.35087719298247h132.7157894736842l-60.739368421052625,130.95522807017542c-2.0839298245614035,4.500210526315789-0.13473684210526315,9.844771929824562,4.365473684210526,11.928701754385965
		C120.59845614035088,475.80968421052626,121.88294736842106,476.0701754385965,123.14947368421053,476.0701754385965c3.3863859649122805,0.0,6.629052631578947-1.9312280701754385,8.156070175438597-5.200842105263157l58.511719298245616-126.14961403508772l58.511719298245616,126.14961403508772C249.84701754385964,474.138947368421,253.0896842105263,476.0701754385965,256.47607017543857,476.0701754385965
		c1.2665263157894735,0.0,2.5510175438596487-0.26049122807017544,3.772631578947368-0.8353684210526315c4.500210526315789-2.0839298245614035,6.45838596491228-7.4284912280701745,4.365473684210526-11.928701754385965L203.8837894736842,332.35087719298247h117.93066666666665C347.4324210526316,332.35087719298247,368.280701754386,311.5025964912281,368.280701754386,285.87564912280703v-71.87761403508772
		l101.68140350877192,97.18119298245614c4.769684210526316,4.751719298245614,10.895719298245615,7.257824561403509,17.219368421052632,7.257824561403509c3.170807017543859,0.0,6.377543859649122-0.6197894736842106,9.494456140350875-1.904280701754386C505.99073684210526,312.6972631578947,512.0,303.68785964912274,512.0,293.5736140350877v-211.0877192982456
		C512.0,72.38063157894736,506.26021052631575,63.631719298245606,497.0172631578947,59.67045614035087z M350.31578947368416,285.87564912280703C350.31578947368416,301.59494736842106,337.53375438596487,314.38596491228066,321.81445614035084,314.38596491228066H190.14961403508772c-0.017964912280701753,0.0-0.035929824561403506,0.0-0.05389473684210526,0.0h-0.5479298245614035
		c-0.02694736842105263,0.0-0.06287719298245614,0.0-0.08982456140350877,0.0H43.03494736842105C29.21094736842105,314.38596491228066,17.964912280701753,303.13992982456136,17.964912280701753,289.3159298245614V80.33908771929825C17.964912280701753,65.76056140350876,29.830736842105264,53.89473684210526,44.409263157894735,53.89473684210526h279.46217543859643C338.4499649122807,53.89473684210526,350.31578947368416,65.76056140350876,350.31578947368416,80.33908771929825
		V285.87564912280703z M494.0350877192982,293.5736140350877c0.0,4.284631578947368-3.2067368421052627,5.93740350877193-4.19480701754386,6.341614035087718c-1.2216140350877194,0.512-4.383438596491228,1.3653333333333333-7.2129122807017545-1.4821052631578948L370.26582456140346,191.05684210526314
		c-1.3114385964912278-1.3204210526315787-2.0120701754385966-3.0899649122807014-1.9851228070175437-4.967298245614035c0.02694736842105263-1.877333333333333,0.7814736842105262-3.6109473684210527,2.048-4.8145964912280705l112.46035087719297-103.80126315789472c1.5180350877192983-1.4461754385964911,3.107929824561403-1.8683508771929822,4.446315789473684-1.8683508771929822
		c1.167719298245614,0.0,2.1468070175438596,0.3323508771929824,2.703719298245614,0.5658947368421052C490.8912280701754,76.58442105263157,494.0350877192982,78.26414035087718,494.0350877192982,82.4858947368421V293.5736140350877z"/>
	<path d="M162.91480701754386,177.16098245614035C167.81922807017543,168.61866666666666,170.66666666666666,158.74694736842102,170.66666666666666,148.21052631578948c0.0-32.193122807017545-26.192842105263157-58.3859649122807-58.3859649122807-58.3859649122807S53.89473684210526,116.01740350877192,53.89473684210526,148.21052631578948S80.08757894736841,206.59649122807016,112.28070175438596,206.59649122807016
		c15.15340350877193,0.0,28.932491228070173-5.8475789473684205,39.316210526315786-15.35101754385965l12.71915789473684,12.71915789473684C166.067649122807,205.7162105263158,168.36715789473683,206.59649122807016,170.66666666666666,206.59649122807016s4.599017543859649-0.880280701754386,6.350596491228069-2.6318596491228066
		c3.512140350877193-3.512140350877193,3.512140350877193-9.189052631578946,0.0-12.701192982456138L162.91480701754386,177.16098245614035z M112.28070175438596,188.6315789473684C89.99522807017543,188.6315789473684,71.85964912280701,170.496,71.85964912280701,148.21052631578948s18.135578947368423-40.421052631578945,40.421052631578945-40.421052631578945s40.421052631578945,18.135578947368423,40.421052631578945,40.421052631578945
		c0.0,5.524210526315789-1.1228070175438596,10.787929824561404-3.1438596491228066,15.593543859649122l-17.452912280701753-17.452912280701753c-3.512140350877193-3.512140350877193-9.189052631578946-3.512140350877193-12.701192982456138,0.0s-3.512140350877193,9.189052631578946,0.0,12.701192982456138l19.411087719298244,19.411087719298244
		C131.6917894736842,184.71522807017544,122.4757894736842,188.6315789473684,112.28070175438596,188.6315789473684z"/>
</g>
<g>
</g>
<g>
</g>
<g>
</g>
<g>
</g>
<g>
</g>
<g>
</g>
<g>
</g>
<g>
</g>
<g>
</g>
<g>
</g>
<g>
</g>
<g>
</g>
<g>
</g>
<g>
</g>
<g>
</g>
</svg>
