<?xml version="1.0" encoding="iso-8859-1"?>
<!-- Generator: Adobe Illustrator 19.0.0, SVG Export Plug-In . SVG Version: 6.00 Build 0)  -->
<svg version="1.1" id="Capa_1" xmlns="http://www.w3.org/2000/svg" xmlns:xlink="http://www.w3.org/1999/xlink" x="0px" y="0px"
	 viewBox="0 0 512 512" style="enable-background:new 0 0 52 52;" xml:space="preserve">
<g>
	<path d="M256.0,0.0C114.84553846153847,0.0,0.0,114.83569230769231,0.0,256.0s114.84553846153847,256.0,256.0,256.0s256.0-114.83569230769231,256.0-256.0S397.15446153846153,0.0,256.0,0.0z M256.0,492.3076923076923C125.70584615384615,492.3076923076923,19.692307692307693,386.29415384615385,19.692307692307693,256.0
		S125.70584615384615,19.692307692307693,256.0,19.692307692307693s236.30769230769232,106.01353846153846,236.30769230769232,236.30769230769232S386.29415384615385,492.3076923076923,256.0,492.3076923076923z"/>
	<path d="M256.0,98.46153846153847c-5.435076923076924,0.0-9.846153846153847,4.40123076923077-9.846153846153847,9.846153846153847v216.61538461538464c0.0,5.444923076923078,4.411076923076924,9.846153846153847,9.846153846153847,9.846153846153847s9.846153846153847-4.40123076923077,9.846153846153847-9.846153846153847V108.30769230769232C265.84615384615387,102.86276923076923,261.4350769230769,98.46153846153847,256.0,98.46153846153847z"/>
	<path d="M256.0,364.3076923076923c-5.435076923076924,0.0-9.846153846153847,4.40123076923077-9.846153846153847,9.846153846153847v19.692307692307693c0.0,5.444923076923078,4.411076923076924,9.846153846153847,9.846153846153847,9.846153846153847s9.846153846153847-4.40123076923077,9.846153846153847-9.846153846153847v-19.692307692307693C265.84615384615387,368.7089230769231,261.4350769230769,364.3076923076923,256.0,364.3076923076923z"/>
</g>
<g>
</g>
<g>
</g>
<g>
</g>
<g>
</g>
<g>
</g>
<g>
</g>
<g>
</g>
<g>
</g>
<g>
</g>
<g>
</g>
<g>
</g>
<g>
</g>
<g>
</g>
<g>
</g>
<g>
</g>
</svg>
